%!PS-Adobe-3.0 EPSF-3.0
%%Title: /home/hmoss/FinalMuonReportPlots/June2019/FixedPhi/InitialEnergyVFinalEnergy_84Day.eps
%%Creator: matplotlib version 2.2.3, http://matplotlib.org/
%%CreationDate: Sun Jun  2 16:49:13 2019
%%Orientation: portrait
%%BoundingBox: 18 180 594 612
%%EndComments
%%BeginProlog
/mpldict 8 dict def
mpldict begin
/m { moveto } bind def
/l { lineto } bind def
/r { rlineto } bind def
/c { curveto } bind def
/cl { closepath } bind def
/box {
m
1 index 0 r
0 exch r
neg 0 r
cl
} bind def
/clipbox {
box
clip
newpath
} bind def
%!PS-Adobe-3.0 Resource-Font
%%Title: DejaVu Sans
%%Copyright: Copyright (c) 2003 by Bitstream, Inc. All Rights Reserved. Copyright (c) 2006 by Tavmjong Bah. All Rights Reserved. DejaVu changes are in public domain 
%%Creator: Converted from TrueType to type 3 by PPR
25 dict begin
/_d{bind def}bind def
/_m{moveto}_d
/_l{lineto}_d
/_cl{closepath eofill}_d
/_c{curveto}_d
/_sc{7 -1 roll{setcachedevice}{pop pop pop pop pop pop}ifelse}_d
/_e{exec}_d
/FontName /DejaVuSans def
/PaintType 0 def
/FontMatrix[.001 0 0 .001 0 0]def
/FontBBox[-1021 -463 1793 1232]def
/FontType 3 def
/Encoding [ /space /parenleft /parenright /zero /one /two /three /four /five /C /E /F /G /I /V /a /e /g /i /l /m /n /o /r /s /t /u /y /minus ] def
/FontInfo 10 dict dup begin
/FamilyName (DejaVu Sans) def
/FullName (DejaVu Sans) def
/Notice (Copyright (c) 2003 by Bitstream, Inc. All Rights Reserved. Copyright (c) 2006 by Tavmjong Bah. All Rights Reserved. DejaVu changes are in public domain ) def
/Weight (Book) def
/Version (Version 2.35) def
/ItalicAngle 0.0 def
/isFixedPitch false def
/UnderlinePosition -130 def
/UnderlineThickness 90 def
end readonly def
/CharStrings 30 dict dup begin
/.notdef 0 def
/space{318 0 0 0 0 0 _sc
}_d
/parenleft{390 0 86 -131 310 759 _sc
310 759 _m
266 683 234 609 213 536 _c
191 463 181 389 181 314 _c
181 238 191 164 213 91 _c
234 17 266 -56 310 -131 _c
232 -131 _l
183 -54 146 20 122 94 _c
98 168 86 241 86 314 _c
86 386 98 459 122 533 _c
146 607 182 682 232 759 _c
310 759 _l
_cl}_d
/parenright{390 0 80 -131 304 759 _sc
80 759 _m
158 759 _l
206 682 243 607 267 533 _c
291 459 304 386 304 314 _c
304 241 291 168 267 94 _c
243 20 206 -54 158 -131 _c
80 -131 _l
123 -56 155 17 177 91 _c
198 164 209 238 209 314 _c
209 389 198 463 177 536 _c
155 609 123 683 80 759 _c
_cl}_d
/zero{636 0 66 -13 570 742 _sc
318 664 _m
267 664 229 639 203 589 _c
177 539 165 464 165 364 _c
165 264 177 189 203 139 _c
229 89 267 64 318 64 _c
369 64 407 89 433 139 _c
458 189 471 264 471 364 _c
471 464 458 539 433 589 _c
407 639 369 664 318 664 _c
318 742 _m
399 742 461 709 505 645 _c
548 580 570 486 570 364 _c
570 241 548 147 505 83 _c
461 19 399 -13 318 -13 _c
236 -13 173 19 130 83 _c
87 147 66 241 66 364 _c
66 486 87 580 130 645 _c
173 709 236 742 318 742 _c
_cl}_d
/one{636 0 110 0 544 729 _sc
124 83 _m
285 83 _l
285 639 _l
110 604 _l
110 694 _l
284 729 _l
383 729 _l
383 83 _l
544 83 _l
544 0 _l
124 0 _l
124 83 _l
_cl}_d
/two{{636 0 73 0 536 742 _sc
192 83 _m
536 83 _l
536 0 _l
73 0 _l
73 83 _l
110 121 161 173 226 239 _c
290 304 331 346 348 365 _c
380 400 402 430 414 455 _c
426 479 433 504 433 528 _c
433 566 419 598 392 622 _c
365 646 330 659 286 659 _c
255 659 222 653 188 643 _c
154 632 117 616 78 594 _c
78 694 _l
118 710 155 722 189 730 _c
223 738 255 742 284 742 _c
}_e{359 742 419 723 464 685 _c
509 647 532 597 532 534 _c
532 504 526 475 515 449 _c
504 422 484 390 454 354 _c
446 344 420 317 376 272 _c
332 227 271 164 192 83 _c
_cl}_e}_d
/three{{636 0 76 -13 556 742 _sc
406 393 _m
453 383 490 362 516 330 _c
542 298 556 258 556 212 _c
556 140 531 84 482 45 _c
432 6 362 -13 271 -13 _c
240 -13 208 -10 176 -4 _c
144 1 110 10 76 22 _c
76 117 _l
103 101 133 89 166 81 _c
198 73 232 69 268 69 _c
330 69 377 81 409 105 _c
441 129 458 165 458 212 _c
458 254 443 288 413 312 _c
383 336 341 349 287 349 _c
}_e{202 349 _l
202 430 _l
291 430 _l
339 430 376 439 402 459 _c
428 478 441 506 441 543 _c
441 580 427 609 401 629 _c
374 649 336 659 287 659 _c
260 659 231 656 200 650 _c
169 644 135 635 98 623 _c
98 711 _l
135 721 170 729 203 734 _c
235 739 266 742 296 742 _c
370 742 429 725 473 691 _c
517 657 539 611 539 553 _c
539 513 527 479 504 451 _c
481 423 448 403 406 393 _c
_cl}_e}_d
/four{636 0 49 0 580 729 _sc
378 643 _m
129 254 _l
378 254 _l
378 643 _l
352 729 _m
476 729 _l
476 254 _l
580 254 _l
580 172 _l
476 172 _l
476 0 _l
378 0 _l
378 172 _l
49 172 _l
49 267 _l
352 729 _l
_cl}_d
/five{{636 0 77 -13 549 729 _sc
108 729 _m
495 729 _l
495 646 _l
198 646 _l
198 467 _l
212 472 227 476 241 478 _c
255 480 270 482 284 482 _c
365 482 429 459 477 415 _c
525 370 549 310 549 234 _c
549 155 524 94 475 51 _c
426 8 357 -13 269 -13 _c
238 -13 207 -10 175 -6 _c
143 -1 111 6 77 17 _c
77 116 _l
106 100 136 88 168 80 _c
199 72 232 69 267 69 _c
}_e{323 69 368 83 401 113 _c
433 143 450 183 450 234 _c
450 284 433 324 401 354 _c
368 384 323 399 267 399 _c
241 399 214 396 188 390 _c
162 384 135 375 108 363 _c
108 729 _l
_cl}_e}_d
/C{{698 0 56 -13 644 742 _sc
644 673 _m
644 569 _l
610 599 575 622 537 638 _c
499 653 460 661 418 661 _c
334 661 270 635 226 584 _c
182 533 160 460 160 364 _c
160 268 182 194 226 143 _c
270 92 334 67 418 67 _c
460 67 499 74 537 90 _c
575 105 610 128 644 159 _c
644 56 _l
609 32 572 15 534 4 _c
496 -7 455 -13 412 -13 _c
302 -13 215 20 151 87 _c
}_e{87 154 56 246 56 364 _c
56 481 87 573 151 641 _c
215 708 302 742 412 742 _c
456 742 497 736 535 725 _c
573 713 610 696 644 673 _c
_cl}_e}_d
/E{632 0 98 0 568 729 _sc
98 729 _m
559 729 _l
559 646 _l
197 646 _l
197 430 _l
544 430 _l
544 347 _l
197 347 _l
197 83 _l
568 83 _l
568 0 _l
98 0 _l
98 729 _l
_cl}_d
/F{575 0 98 0 517 729 _sc
98 729 _m
517 729 _l
517 646 _l
197 646 _l
197 431 _l
486 431 _l
486 348 _l
197 348 _l
197 0 _l
98 0 _l
98 729 _l
_cl}_d
/G{{775 0 56 -13 693 742 _sc
595 104 _m
595 300 _l
434 300 _l
434 381 _l
693 381 _l
693 68 _l
655 40 613 20 567 7 _c
521 -6 472 -13 420 -13 _c
306 -13 216 20 152 86 _c
88 152 56 245 56 364 _c
56 482 88 575 152 642 _c
216 708 306 742 420 742 _c
467 742 512 736 555 724 _c
598 712 638 695 674 673 _c
674 568 _l
637 598 598 621 557 637 _c
516 653 473 661 428 661 _c
}_e{338 661 271 636 227 586 _c
182 536 160 462 160 364 _c
160 265 182 191 227 141 _c
271 91 338 67 428 67 _c
462 67 493 70 521 76 _c
549 82 573 91 595 104 _c
_cl}_e}_d
/I{295 0 98 0 197 729 _sc
98 729 _m
197 729 _l
197 0 _l
98 0 _l
98 729 _l
_cl}_d
/V{684 0 8 0 676 729 _sc
286 0 _m
8 729 _l
111 729 _l
342 115 _l
573 729 _l
676 729 _l
398 0 _l
286 0 _l
_cl}_d
/a{{613 0 60 -13 522 560 _sc
343 275 _m
270 275 220 266 192 250 _c
164 233 150 205 150 165 _c
150 133 160 107 181 89 _c
202 70 231 61 267 61 _c
317 61 357 78 387 114 _c
417 149 432 196 432 255 _c
432 275 _l
343 275 _l
522 312 _m
522 0 _l
432 0 _l
432 83 _l
411 49 385 25 355 10 _c
325 -5 287 -13 243 -13 _c
187 -13 142 2 109 33 _c
76 64 60 106 60 159 _c
}_e{60 220 80 266 122 298 _c
163 329 224 345 306 345 _c
432 345 _l
432 354 _l
432 395 418 427 391 450 _c
364 472 326 484 277 484 _c
245 484 215 480 185 472 _c
155 464 127 453 100 439 _c
100 522 _l
132 534 164 544 195 550 _c
226 556 256 560 286 560 _c
365 560 424 539 463 498 _c
502 457 522 395 522 312 _c
_cl}_e}_d
/e{{615 0 55 -13 562 560 _sc
562 296 _m
562 252 _l
149 252 _l
153 190 171 142 205 110 _c
238 78 284 62 344 62 _c
378 62 412 66 444 74 _c
476 82 509 95 541 113 _c
541 28 _l
509 14 476 3 442 -3 _c
408 -9 373 -13 339 -13 _c
251 -13 182 12 131 62 _c
80 112 55 181 55 268 _c
55 357 79 428 127 481 _c
175 533 241 560 323 560 _c
397 560 455 536 498 489 _c
}_e{540 441 562 377 562 296 _c
472 322 _m
471 371 457 410 431 440 _c
404 469 368 484 324 484 _c
274 484 234 469 204 441 _c
174 413 156 373 152 322 _c
472 322 _l
_cl}_e}_d
/g{{635 0 55 -207 544 560 _sc
454 280 _m
454 344 440 395 414 431 _c
387 467 349 485 301 485 _c
253 485 215 467 188 431 _c
161 395 148 344 148 280 _c
148 215 161 165 188 129 _c
215 93 253 75 301 75 _c
349 75 387 93 414 129 _c
440 165 454 215 454 280 _c
544 68 _m
544 -24 523 -93 482 -139 _c
440 -184 377 -207 292 -207 _c
260 -207 231 -204 203 -200 _c
175 -195 147 -188 121 -178 _c
}_e{121 -91 _l
147 -105 173 -115 199 -122 _c
225 -129 251 -133 278 -133 _c
336 -133 380 -117 410 -87 _c
439 -56 454 -10 454 52 _c
454 96 _l
435 64 411 40 382 24 _c
353 8 319 0 279 0 _c
211 0 157 25 116 76 _c
75 127 55 195 55 280 _c
55 364 75 432 116 483 _c
157 534 211 560 279 560 _c
319 560 353 552 382 536 _c
411 520 435 496 454 464 _c
454 547 _l
544 547 _l
}_e{544 68 _l
_cl}_e}_d
/i{278 0 94 0 184 760 _sc
94 547 _m
184 547 _l
184 0 _l
94 0 _l
94 547 _l
94 760 _m
184 760 _l
184 646 _l
94 646 _l
94 760 _l
_cl}_d
/l{278 0 94 0 184 760 _sc
94 760 _m
184 760 _l
184 0 _l
94 0 _l
94 760 _l
_cl}_d
/m{{974 0 91 0 889 560 _sc
520 442 _m
542 482 569 511 600 531 _c
631 550 668 560 711 560 _c
767 560 811 540 842 500 _c
873 460 889 403 889 330 _c
889 0 _l
799 0 _l
799 327 _l
799 379 789 418 771 444 _c
752 469 724 482 686 482 _c
639 482 602 466 575 435 _c
548 404 535 362 535 309 _c
535 0 _l
445 0 _l
445 327 _l
445 379 435 418 417 444 _c
398 469 369 482 331 482 _c
}_e{285 482 248 466 221 435 _c
194 404 181 362 181 309 _c
181 0 _l
91 0 _l
91 547 _l
181 547 _l
181 462 _l
201 495 226 520 255 536 _c
283 552 317 560 357 560 _c
397 560 430 550 458 530 _c
486 510 506 480 520 442 _c
_cl}_e}_d
/n{634 0 91 0 549 560 _sc
549 330 _m
549 0 _l
459 0 _l
459 327 _l
459 379 448 417 428 443 _c
408 469 378 482 338 482 _c
289 482 251 466 223 435 _c
195 404 181 362 181 309 _c
181 0 _l
91 0 _l
91 547 _l
181 547 _l
181 462 _l
202 494 227 519 257 535 _c
286 551 320 560 358 560 _c
420 560 468 540 500 501 _c
532 462 549 405 549 330 _c
_cl}_d
/o{612 0 55 -13 557 560 _sc
306 484 _m
258 484 220 465 192 427 _c
164 389 150 338 150 273 _c
150 207 163 156 191 118 _c
219 80 257 62 306 62 _c
354 62 392 80 420 118 _c
448 156 462 207 462 273 _c
462 337 448 389 420 427 _c
392 465 354 484 306 484 _c
306 560 _m
384 560 445 534 490 484 _c
534 433 557 363 557 273 _c
557 183 534 113 490 63 _c
445 12 384 -13 306 -13 _c
227 -13 165 12 121 63 _c
77 113 55 183 55 273 _c
55 363 77 433 121 484 _c
165 534 227 560 306 560 _c
_cl}_d
/r{411 0 91 0 411 560 _sc
411 463 _m
401 469 390 473 378 476 _c
366 478 353 480 339 480 _c
288 480 249 463 222 430 _c
194 397 181 350 181 288 _c
181 0 _l
91 0 _l
91 547 _l
181 547 _l
181 462 _l
199 495 224 520 254 536 _c
284 552 321 560 365 560 _c
371 560 378 559 386 559 _c
393 558 401 557 411 555 _c
411 463 _l
_cl}_d
/s{{521 0 54 -13 472 560 _sc
443 531 _m
443 446 _l
417 458 391 468 364 475 _c
336 481 308 485 279 485 _c
234 485 200 478 178 464 _c
156 450 145 430 145 403 _c
145 382 153 366 169 354 _c
185 342 217 330 265 320 _c
296 313 _l
360 299 405 279 432 255 _c
458 230 472 195 472 151 _c
472 100 452 60 412 31 _c
372 1 316 -13 246 -13 _c
216 -13 186 -10 154 -5 _c
}_e{122 0 89 8 54 20 _c
54 113 _l
87 95 120 82 152 74 _c
184 65 216 61 248 61 _c
290 61 323 68 346 82 _c
368 96 380 117 380 144 _c
380 168 371 187 355 200 _c
339 213 303 226 247 238 _c
216 245 _l
160 257 119 275 95 299 _c
70 323 58 356 58 399 _c
58 450 76 490 112 518 _c
148 546 200 560 268 560 _c
301 560 332 557 362 552 _c
391 547 418 540 443 531 _c
}_e{_cl}_e}_d
/t{392 0 27 0 368 702 _sc
183 702 _m
183 547 _l
368 547 _l
368 477 _l
183 477 _l
183 180 _l
183 135 189 106 201 94 _c
213 81 238 75 276 75 _c
368 75 _l
368 0 _l
276 0 _l
206 0 158 13 132 39 _c
106 65 93 112 93 180 _c
93 477 _l
27 477 _l
27 547 _l
93 547 _l
93 702 _l
183 702 _l
_cl}_d
/u{634 0 85 -13 543 560 _sc
85 216 _m
85 547 _l
175 547 _l
175 219 _l
175 167 185 129 205 103 _c
225 77 255 64 296 64 _c
344 64 383 79 411 110 _c
439 141 453 183 453 237 _c
453 547 _l
543 547 _l
543 0 _l
453 0 _l
453 84 _l
431 50 405 26 377 10 _c
348 -5 315 -13 277 -13 _c
214 -13 166 6 134 45 _c
101 83 85 140 85 216 _c
311 560 _m
311 560 _l
_cl}_d
/y{592 0 30 -207 562 547 _sc
322 -50 _m
296 -114 271 -157 247 -177 _c
223 -197 191 -207 151 -207 _c
79 -207 _l
79 -132 _l
132 -132 _l
156 -132 175 -126 189 -114 _c
203 -102 218 -75 235 -31 _c
251 9 _l
30 547 _l
125 547 _l
296 119 _l
467 547 _l
562 547 _l
322 -50 _l
_cl}_d
/minus{838 0 106 272 732 355 _sc
106 355 _m
732 355 _l
732 272 _l
106 272 _l
106 355 _l
_cl}_d
end readonly def

/BuildGlyph
 {exch begin
 CharStrings exch
 2 copy known not{pop /.notdef}if
 true 3 1 roll get exec
 end}_d

/BuildChar {
 1 index /Encoding get exch get
 1 index /BuildGlyph get exec
}_d

FontName currentdict end definefont pop
end
%%EndProlog
mpldict begin
18 180 translate
576 432 0 0 clipbox
gsave
0 0 m
576 0 l
576 432 l
0 432 l
cl
1.000 setgray
fill
grestore
gsave
72 47.52 m
518.4 47.52 l
518.4 380.16 l
72 380.16 l
cl
1.000 setgray
fill
grestore
3.000 setlinewidth
0 setlinejoin
0 setlinecap
[] 0 setdash
0.122 0.467 0.706 setrgbcolor
gsave
446.4 332.6 72 47.52 clipbox
55.536154 -1 m
55.536154 262.467131 l
60.209338 262.467131 l
60.209338 278.867896 l
64.882522 278.867896 l
64.882522 277.65488 l
69.555705 277.65488 l
69.555705 275.666923 l
74.228889 275.666923 l
74.228889 277.599488 l
78.902073 277.599488 l
78.902073 282.059054 l
83.575257 282.059054 l
83.575257 280.872245 l
88.248441 280.872245 l
88.248441 283.457594 l
92.921625 283.457594 l
92.921625 283.180882 l
97.594808 283.180882 l
97.594808 285.199214 l
102.267992 285.199214 l
102.267992 285.065635 l
106.941176 285.065635 l
106.941176 285.713577 l
111.61436 285.713577 l
111.61436 286.24138 l
116.287544 286.24138 l
116.287544 286.034496 l
120.960728 286.034496 l
120.960728 287.801378 l
125.633911 287.801378 l
125.633911 287.180685 l
130.307095 287.180685 l
130.307095 291.1853 l
134.980279 291.1853 l
134.980279 293.541584 l
139.653463 293.541584 l
139.653463 293.125858 l
144.326647 293.125858 l
144.326647 293.948829 l
148.999831 293.948829 l
148.999831 293.145389 l
153.673015 293.145389 l
153.673015 298.998032 l
158.346198 298.998032 l
158.346198 298.267357 l
163.019382 298.267357 l
163.019382 298.80444 l
167.692566 298.80444 l
167.692566 303.986989 l
172.36575 303.986989 l
172.36575 304.747703 l
177.038934 304.747703 l
177.038934 305.631211 l
181.712118 305.631211 l
181.712118 306.914228 l
186.385301 306.914228 l
186.385301 310.033001 l
191.058485 310.033001 l
191.058485 310.455063 l
195.731669 310.455063 l
195.731669 310.728385 l
200.404853 310.728385 l
200.404853 310.058374 l
205.078037 310.058374 l
205.078037 311.57917 l
209.751221 311.57917 l
209.751221 316.767885 l
214.424404 316.767885 l
214.424404 313.506691 l
219.097588 313.506691 l
219.097588 314.28273 l
223.770772 314.28273 l
223.770772 314.916698 l
228.443956 314.916698 l
228.443956 313.873936 l
233.11714 313.873936 l
233.11714 316.632132 l
237.790324 316.632132 l
237.790324 314.379476 l
242.463507 314.379476 l
242.463507 315.03808 l
247.136691 315.03808 l
247.136691 313.69266 l
251.809875 313.69266 l
251.809875 311.48031 l
256.483059 311.48031 l
256.483059 308.550304 l
261.156243 308.550304 l
261.156243 308.815146 l
265.829427 308.815146 l
265.829427 306.967795 l
275.175794 307.058002 l
275.175794 302.254471 l
279.848978 302.254471 l
279.848978 301.131657 l
284.522162 301.131657 l
284.522162 298.054957 l
289.195346 298.054957 l
289.195346 294.142978 l
293.86853 294.142978 l
293.86853 292.375465 l
298.541713 292.375465 l
298.541713 288.339147 l
303.214897 288.339147 l
303.214897 284.611692 l
307.888081 284.611692 l
307.888081 282.194211 l
312.561265 282.194211 l
312.561265 276.399761 l
317.234449 276.399761 l
317.234449 273.275133 l
321.907633 273.275133 l
321.907633 269.20354 l
326.580816 269.20354 l
326.580816 263.877553 l
331.254 263.877553 l
331.254 259.700911 l
335.927184 259.700911 l
335.927184 254.362848 l
340.600368 254.362848 l
340.600368 251.052796 l
345.273552 251.052796 l
345.273552 245.197316 l
349.946736 245.197316 l
349.946736 239.424061 l
354.61992 239.424061 l
354.61992 233.83865 l
359.293103 233.83865 l
359.293103 226.631731 l
363.966287 226.631731 l
363.966287 220.844111 l
368.639471 220.844111 l
368.639471 214.772647 l
373.312655 214.772647 l
373.312655 209.018406 l
377.985839 209.018406 l
377.985839 202.941526 l
382.659023 202.941526 l
382.659023 199.50665 l
387.332206 199.50665 l
387.332206 191.524193 l
392.00539 191.524193 l
392.00539 183.136528 l
396.678574 183.136528 l
396.678574 177.106261 l
401.351758 177.106261 l
401.351758 163.535609 l
406.024942 163.535609 l
406.024942 160.806024 l
410.698126 160.806024 l
410.698126 156.006462 l
415.371309 156.006462 l
415.371309 151.089403 l
420.044493 151.089403 l
420.044493 144.141186 l
429.390861 144.141186 l
429.390861 124.700789 l
434.064045 124.700789 l
434.064045 119.029556 l
438.737229 119.029556 l
438.737229 114.31053 l
443.410412 114.31053 l
443.410412 108.400551 l
448.083596 108.400551 l
448.083596 62.64 l
452.75678 62.64 l
452.75678 88.475265 l
457.429964 88.475265 l
457.429964 95.240475 l
462.103148 95.240475 l
462.103148 -1 l
480.795883 -1 m
480.795883 62.64 l
485.469067 62.64 l
485.469067 -1 l
485.469067 -1 l
stroke
grestore
1.000 0.498 0.055 setrgbcolor
gsave
446.4 332.6 72 47.52 clipbox
72 -1 m
72 205.292245 l
76.509091 205.292245 l
76.509091 210.7678 l
81.018182 210.7678 l
81.018182 225.916352 l
85.527273 225.916352 l
85.527273 237.45212 l
90.036364 237.45212 l
90.036364 246.819772 l
94.545455 246.819772 l
94.545455 256.073164 l
99.054545 256.073164 l
99.054545 264.554455 l
103.563636 264.554455 l
103.563636 272.237642 l
108.072727 272.237642 l
108.072727 279.336109 l
112.581818 279.336109 l
112.581818 285.90205 l
117.090909 285.90205 l
117.090909 292.870479 l
121.6 292.870479 l
121.6 299.026427 l
126.109091 299.026427 l
126.109091 304.417209 l
130.618182 304.417209 l
130.618182 310.130539 l
135.127273 310.130539 l
135.127273 315.711168 l
139.636364 315.711168 l
139.636364 320.610829 l
144.145455 320.610829 l
144.145455 325.519952 l
148.654545 325.519952 l
148.654545 330.148015 l
153.163636 330.148015 l
153.163636 334.189847 l
157.672727 334.189847 l
157.672727 338.341826 l
162.181818 338.341826 l
162.181818 342.224375 l
166.690909 342.224375 l
166.690909 345.686205 l
171.2 345.686205 l
171.2 348.931429 l
175.709091 348.931429 l
175.709091 351.890568 l
180.218182 351.890568 l
180.218182 354.536706 l
184.727273 354.536706 l
184.727273 356.954451 l
189.236364 356.954451 l
189.236364 359.031567 l
193.745455 359.031567 l
193.745455 360.783236 l
198.254545 360.783236 l
198.254545 362.209186 l
202.763636 362.209186 l
202.763636 363.437472 l
207.272727 363.437472 l
207.272727 364.319993 l
211.781818 364.319993 l
211.781818 364.834045 l
216.290909 364.834045 l
216.290909 365.04 l
220.8 365.04 l
220.8 364.90259 l
225.309091 364.90259 l
225.309091 364.438689 l
229.818182 364.438689 l
229.818182 363.637531 l
234.327273 363.637531 l
234.327273 362.481749 l
238.836364 362.481749 l
238.836364 361.057589 l
243.345455 361.057589 l
243.345455 359.281004 l
247.854545 359.281004 l
247.854545 357.116227 l
252.363636 357.116227 l
252.363636 354.725233 l
256.872727 354.725233 l
256.872727 351.746052 l
261.381818 351.746052 l
261.381818 348.778954 l
265.890909 348.778954 l
265.890909 345.502939 l
270.4 345.502939 l
270.4 341.931291 l
274.909091 341.931291 l
274.909091 338.309429 l
279.418182 338.309429 l
279.418182 334.791247 l
283.927273 334.791247 l
283.927273 330.884573 l
288.436364 330.884573 l
288.436364 327.0471 l
292.945455 327.0471 l
292.945455 323.06288 l
297.454545 323.06288 l
297.454545 318.941142 l
301.963636 318.941142 l
301.963636 314.462686 l
306.472727 314.462686 l
306.472727 309.997432 l
310.981818 309.997432 l
310.981818 305.381155 l
315.490909 305.381155 l
315.490909 300.44619 l
320 300.44619 l
320 295.238486 l
324.509091 295.238486 l
324.509091 290.354575 l
329.018182 290.354575 l
329.018182 284.857354 l
333.527273 284.857354 l
333.527273 279.392234 l
338.036364 279.392234 l
338.036364 274.370212 l
342.545455 274.370212 l
342.545455 268.542301 l
347.054545 268.542301 l
347.054545 263.467375 l
351.563636 263.467375 l
351.563636 257.149963 l
356.072727 257.149963 l
356.072727 250.817788 l
360.581818 250.817788 l
360.581818 244.466182 l
365.090909 244.466182 l
365.090909 238.109961 l
369.6 238.109961 l
369.6 232.367359 l
374.109091 232.367359 l
374.109091 225.411593 l
378.618182 225.411593 l
378.618182 218.162139 l
383.127273 218.162139 l
383.127273 213.071934 l
387.636364 213.071934 l
387.636364 208.405108 l
392.145455 208.405108 l
392.145455 199.6458 l
396.654545 199.6458 l
396.654545 194.119168 l
401.163636 194.119168 l
401.163636 181.989165 l
405.672727 181.989165 l
405.672727 176.741661 l
410.181818 176.741661 l
410.181818 171.631545 l
414.690909 171.631545 l
414.690909 165.093547 l
419.2 165.093547 l
419.2 163.211241 l
423.709091 163.211241 l
423.709091 156.877535 l
428.218182 156.877535 l
428.218182 146.24853 l
432.727273 146.24853 l
432.727273 135.329793 l
437.236364 135.329793 l
437.236364 122.958045 l
441.745455 122.958045 l
441.745455 131.882226 l
446.254545 131.882226 l
446.254545 104.775502 l
450.763636 104.775502 l
450.763636 78.940237 l
455.272727 78.940237 l
455.272727 95.240475 l
459.781818 95.240475 l
459.781818 100.487979 l
464.290909 100.487979 l
464.290909 62.64 l
468.8 62.64 l
468.8 -1 l
473.309091 -1 m
473.309091 62.64 l
486.836364 62.64 l
486.836364 -1 l
513.890909 -1 m
513.890909 62.64 l
518.4 62.64 l
518.4 -1 l
518.4 -1 l
stroke
grestore
0.800 setlinewidth
1 setlinejoin
[] 0 setdash
0.000 setgray
gsave
/o {
gsave
newpath
translate
0.8 setlinewidth
1 setlinejoin
0 setlinecap
0 0 m
0 -3.5 l

gsave
0.000 setgray
fill
grestore
stroke
grestore
} bind def
140.855 47.52 o
grestore
gsave
129.855075 31.020000 translate
0.000000 rotate
/DejaVuSans findfont
12.0 scalefont
setfont
0.000000 0.171875 moveto
/one glyphshow

7.634766 0.171875 moveto
/zero glyphshow

/DejaVuSans findfont
8.4 scalefont
setfont
15.384375 4.765625 moveto
/zero glyphshow


grestore
gsave
/o {
gsave
newpath
translate
0.8 setlinewidth
1 setlinejoin
0 setlinecap
0 0 m
0 -3.5 l

gsave
0.000 setgray
fill
grestore
stroke
grestore
} bind def
226.174 47.52 o
grestore
gsave
215.173995 31.020000 translate
0.000000 rotate
/DejaVuSans findfont
12.0 scalefont
setfont
0.000000 0.281250 moveto
/one glyphshow

7.634766 0.281250 moveto
/zero glyphshow

/DejaVuSans findfont
8.4 scalefont
setfont
15.384375 4.875000 moveto
/one glyphshow


grestore
gsave
/o {
gsave
newpath
translate
0.8 setlinewidth
1 setlinejoin
0 setlinecap
0 0 m
0 -3.5 l

gsave
0.000 setgray
fill
grestore
stroke
grestore
} bind def
311.493 47.52 o
grestore
gsave
300.492916 31.020000 translate
0.000000 rotate
/DejaVuSans findfont
12.0 scalefont
setfont
0.000000 0.171875 moveto
/one glyphshow

7.634766 0.171875 moveto
/zero glyphshow

/DejaVuSans findfont
8.4 scalefont
setfont
15.384375 4.765625 moveto
/two glyphshow


grestore
gsave
/o {
gsave
newpath
translate
0.8 setlinewidth
1 setlinejoin
0 setlinecap
0 0 m
0 -3.5 l

gsave
0.000 setgray
fill
grestore
stroke
grestore
} bind def
396.812 47.52 o
grestore
gsave
385.811836 31.020000 translate
0.000000 rotate
/DejaVuSans findfont
12.0 scalefont
setfont
0.000000 0.171875 moveto
/one glyphshow

7.634766 0.171875 moveto
/zero glyphshow

/DejaVuSans findfont
8.4 scalefont
setfont
15.384375 4.765625 moveto
/three glyphshow


grestore
gsave
/o {
gsave
newpath
translate
0.8 setlinewidth
1 setlinejoin
0 setlinecap
0 0 m
0 -3.5 l

gsave
0.000 setgray
fill
grestore
stroke
grestore
} bind def
482.131 47.52 o
grestore
gsave
471.130757 31.020000 translate
0.000000 rotate
/DejaVuSans findfont
12.0 scalefont
setfont
0.000000 0.281250 moveto
/one glyphshow

7.634766 0.281250 moveto
/zero glyphshow

/DejaVuSans findfont
8.4 scalefont
setfont
15.384375 4.875000 moveto
/four glyphshow


grestore
[2.96 1.28] 0 setdash
0.502 setgray
gsave
446.4 332.6 72 47.52 clipbox
81.219708 47.52 m
81.219708 380.16 l
stroke
grestore
0.600 setlinewidth
[] 0 setdash
0.000 setgray
gsave
/o {
gsave
newpath
translate
0.6 setlinewidth
1 setlinejoin
0 setlinecap
0 0 m
0 -2 l

gsave
0.000 setgray
fill
grestore
stroke
grestore
} bind def
81.2197 47.52 o
grestore
0.800 setlinewidth
[2.96 1.28] 0 setdash
0.502 setgray
gsave
446.4 332.6 72 47.52 clipbox
96.243624 47.52 m
96.243624 380.16 l
stroke
grestore
0.600 setlinewidth
[] 0 setdash
0.000 setgray
gsave
/o {
gsave
newpath
translate
0.6 setlinewidth
1 setlinejoin
0 setlinecap
0 0 m
0 -2 l

gsave
0.000 setgray
fill
grestore
stroke
grestore
} bind def
96.2436 47.52 o
grestore
0.800 setlinewidth
[2.96 1.28] 0 setdash
0.502 setgray
gsave
446.4 332.6 72 47.52 clipbox
106.903263 47.52 m
106.903263 380.16 l
stroke
grestore
0.600 setlinewidth
[] 0 setdash
0.000 setgray
gsave
/o {
gsave
newpath
translate
0.6 setlinewidth
1 setlinejoin
0 setlinecap
0 0 m
0 -2 l

gsave
0.000 setgray
fill
grestore
stroke
grestore
} bind def
106.903 47.52 o
grestore
0.800 setlinewidth
[2.96 1.28] 0 setdash
0.502 setgray
gsave
446.4 332.6 72 47.52 clipbox
115.17152 47.52 m
115.17152 380.16 l
stroke
grestore
0.600 setlinewidth
[] 0 setdash
0.000 setgray
gsave
/o {
gsave
newpath
translate
0.6 setlinewidth
1 setlinejoin
0 setlinecap
0 0 m
0 -2 l

gsave
0.000 setgray
fill
grestore
stroke
grestore
} bind def
115.172 47.52 o
grestore
0.800 setlinewidth
[2.96 1.28] 0 setdash
0.502 setgray
gsave
446.4 332.6 72 47.52 clipbox
121.927179 47.52 m
121.927179 380.16 l
stroke
grestore
0.600 setlinewidth
[] 0 setdash
0.000 setgray
gsave
/o {
gsave
newpath
translate
0.6 setlinewidth
1 setlinejoin
0 setlinecap
0 0 m
0 -2 l

gsave
0.000 setgray
fill
grestore
stroke
grestore
} bind def
121.927 47.52 o
grestore
0.800 setlinewidth
[2.96 1.28] 0 setdash
0.502 setgray
gsave
446.4 332.6 72 47.52 clipbox
127.639006 47.52 m
127.639006 380.16 l
stroke
grestore
0.600 setlinewidth
[] 0 setdash
0.000 setgray
gsave
/o {
gsave
newpath
translate
0.6 setlinewidth
1 setlinejoin
0 setlinecap
0 0 m
0 -2 l

gsave
0.000 setgray
fill
grestore
stroke
grestore
} bind def
127.639 47.52 o
grestore
0.800 setlinewidth
[2.96 1.28] 0 setdash
0.502 setgray
gsave
446.4 332.6 72 47.52 clipbox
132.586817 47.52 m
132.586817 380.16 l
stroke
grestore
0.600 setlinewidth
[] 0 setdash
0.000 setgray
gsave
/o {
gsave
newpath
translate
0.6 setlinewidth
1 setlinejoin
0 setlinecap
0 0 m
0 -2 l

gsave
0.000 setgray
fill
grestore
stroke
grestore
} bind def
132.587 47.52 o
grestore
0.800 setlinewidth
[2.96 1.28] 0 setdash
0.502 setgray
gsave
446.4 332.6 72 47.52 clipbox
136.951095 47.52 m
136.951095 380.16 l
stroke
grestore
0.600 setlinewidth
[] 0 setdash
0.000 setgray
gsave
/o {
gsave
newpath
translate
0.6 setlinewidth
1 setlinejoin
0 setlinecap
0 0 m
0 -2 l

gsave
0.000 setgray
fill
grestore
stroke
grestore
} bind def
136.951 47.52 o
grestore
0.800 setlinewidth
[2.96 1.28] 0 setdash
0.502 setgray
gsave
446.4 332.6 72 47.52 clipbox
166.538629 47.52 m
166.538629 380.16 l
stroke
grestore
0.600 setlinewidth
[] 0 setdash
0.000 setgray
gsave
/o {
gsave
newpath
translate
0.6 setlinewidth
1 setlinejoin
0 setlinecap
0 0 m
0 -2 l

gsave
0.000 setgray
fill
grestore
stroke
grestore
} bind def
166.539 47.52 o
grestore
0.800 setlinewidth
[2.96 1.28] 0 setdash
0.502 setgray
gsave
446.4 332.6 72 47.52 clipbox
181.562545 47.52 m
181.562545 380.16 l
stroke
grestore
0.600 setlinewidth
[] 0 setdash
0.000 setgray
gsave
/o {
gsave
newpath
translate
0.6 setlinewidth
1 setlinejoin
0 setlinecap
0 0 m
0 -2 l

gsave
0.000 setgray
fill
grestore
stroke
grestore
} bind def
181.563 47.52 o
grestore
0.800 setlinewidth
[2.96 1.28] 0 setdash
0.502 setgray
gsave
446.4 332.6 72 47.52 clipbox
192.222183 47.52 m
192.222183 380.16 l
stroke
grestore
0.600 setlinewidth
[] 0 setdash
0.000 setgray
gsave
/o {
gsave
newpath
translate
0.6 setlinewidth
1 setlinejoin
0 setlinecap
0 0 m
0 -2 l

gsave
0.000 setgray
fill
grestore
stroke
grestore
} bind def
192.222 47.52 o
grestore
0.800 setlinewidth
[2.96 1.28] 0 setdash
0.502 setgray
gsave
446.4 332.6 72 47.52 clipbox
200.490441 47.52 m
200.490441 380.16 l
stroke
grestore
0.600 setlinewidth
[] 0 setdash
0.000 setgray
gsave
/o {
gsave
newpath
translate
0.6 setlinewidth
1 setlinejoin
0 setlinecap
0 0 m
0 -2 l

gsave
0.000 setgray
fill
grestore
stroke
grestore
} bind def
200.49 47.52 o
grestore
0.800 setlinewidth
[2.96 1.28] 0 setdash
0.502 setgray
gsave
446.4 332.6 72 47.52 clipbox
207.246099 47.52 m
207.246099 380.16 l
stroke
grestore
0.600 setlinewidth
[] 0 setdash
0.000 setgray
gsave
/o {
gsave
newpath
translate
0.6 setlinewidth
1 setlinejoin
0 setlinecap
0 0 m
0 -2 l

gsave
0.000 setgray
fill
grestore
stroke
grestore
} bind def
207.246 47.52 o
grestore
0.800 setlinewidth
[2.96 1.28] 0 setdash
0.502 setgray
gsave
446.4 332.6 72 47.52 clipbox
212.957927 47.52 m
212.957927 380.16 l
stroke
grestore
0.600 setlinewidth
[] 0 setdash
0.000 setgray
gsave
/o {
gsave
newpath
translate
0.6 setlinewidth
1 setlinejoin
0 setlinecap
0 0 m
0 -2 l

gsave
0.000 setgray
fill
grestore
stroke
grestore
} bind def
212.958 47.52 o
grestore
0.800 setlinewidth
[2.96 1.28] 0 setdash
0.502 setgray
gsave
446.4 332.6 72 47.52 clipbox
217.905737 47.52 m
217.905737 380.16 l
stroke
grestore
0.600 setlinewidth
[] 0 setdash
0.000 setgray
gsave
/o {
gsave
newpath
translate
0.6 setlinewidth
1 setlinejoin
0 setlinecap
0 0 m
0 -2 l

gsave
0.000 setgray
fill
grestore
stroke
grestore
} bind def
217.906 47.52 o
grestore
0.800 setlinewidth
[2.96 1.28] 0 setdash
0.502 setgray
gsave
446.4 332.6 72 47.52 clipbox
222.270015 47.52 m
222.270015 380.16 l
stroke
grestore
0.600 setlinewidth
[] 0 setdash
0.000 setgray
gsave
/o {
gsave
newpath
translate
0.6 setlinewidth
1 setlinejoin
0 setlinecap
0 0 m
0 -2 l

gsave
0.000 setgray
fill
grestore
stroke
grestore
} bind def
222.27 47.52 o
grestore
0.800 setlinewidth
[2.96 1.28] 0 setdash
0.502 setgray
gsave
446.4 332.6 72 47.52 clipbox
251.857549 47.52 m
251.857549 380.16 l
stroke
grestore
0.600 setlinewidth
[] 0 setdash
0.000 setgray
gsave
/o {
gsave
newpath
translate
0.6 setlinewidth
1 setlinejoin
0 setlinecap
0 0 m
0 -2 l

gsave
0.000 setgray
fill
grestore
stroke
grestore
} bind def
251.858 47.52 o
grestore
0.800 setlinewidth
[2.96 1.28] 0 setdash
0.502 setgray
gsave
446.4 332.6 72 47.52 clipbox
266.881466 47.52 m
266.881466 380.16 l
stroke
grestore
0.600 setlinewidth
[] 0 setdash
0.000 setgray
gsave
/o {
gsave
newpath
translate
0.6 setlinewidth
1 setlinejoin
0 setlinecap
0 0 m
0 -2 l

gsave
0.000 setgray
fill
grestore
stroke
grestore
} bind def
266.881 47.52 o
grestore
0.800 setlinewidth
[2.96 1.28] 0 setdash
0.502 setgray
gsave
446.4 332.6 72 47.52 clipbox
277.541104 47.52 m
277.541104 380.16 l
stroke
grestore
0.600 setlinewidth
[] 0 setdash
0.000 setgray
gsave
/o {
gsave
newpath
translate
0.6 setlinewidth
1 setlinejoin
0 setlinecap
0 0 m
0 -2 l

gsave
0.000 setgray
fill
grestore
stroke
grestore
} bind def
277.541 47.52 o
grestore
0.800 setlinewidth
[2.96 1.28] 0 setdash
0.502 setgray
gsave
446.4 332.6 72 47.52 clipbox
285.809361 47.52 m
285.809361 380.16 l
stroke
grestore
0.600 setlinewidth
[] 0 setdash
0.000 setgray
gsave
/o {
gsave
newpath
translate
0.6 setlinewidth
1 setlinejoin
0 setlinecap
0 0 m
0 -2 l

gsave
0.000 setgray
fill
grestore
stroke
grestore
} bind def
285.809 47.52 o
grestore
0.800 setlinewidth
[2.96 1.28] 0 setdash
0.502 setgray
gsave
446.4 332.6 72 47.52 clipbox
292.56502 47.52 m
292.56502 380.16 l
stroke
grestore
0.600 setlinewidth
[] 0 setdash
0.000 setgray
gsave
/o {
gsave
newpath
translate
0.6 setlinewidth
1 setlinejoin
0 setlinecap
0 0 m
0 -2 l

gsave
0.000 setgray
fill
grestore
stroke
grestore
} bind def
292.565 47.52 o
grestore
0.800 setlinewidth
[2.96 1.28] 0 setdash
0.502 setgray
gsave
446.4 332.6 72 47.52 clipbox
298.276848 47.52 m
298.276848 380.16 l
stroke
grestore
0.600 setlinewidth
[] 0 setdash
0.000 setgray
gsave
/o {
gsave
newpath
translate
0.6 setlinewidth
1 setlinejoin
0 setlinecap
0 0 m
0 -2 l

gsave
0.000 setgray
fill
grestore
stroke
grestore
} bind def
298.277 47.52 o
grestore
0.800 setlinewidth
[2.96 1.28] 0 setdash
0.502 setgray
gsave
446.4 332.6 72 47.52 clipbox
303.224658 47.52 m
303.224658 380.16 l
stroke
grestore
0.600 setlinewidth
[] 0 setdash
0.000 setgray
gsave
/o {
gsave
newpath
translate
0.6 setlinewidth
1 setlinejoin
0 setlinecap
0 0 m
0 -2 l

gsave
0.000 setgray
fill
grestore
stroke
grestore
} bind def
303.225 47.52 o
grestore
0.800 setlinewidth
[2.96 1.28] 0 setdash
0.502 setgray
gsave
446.4 332.6 72 47.52 clipbox
307.588936 47.52 m
307.588936 380.16 l
stroke
grestore
0.600 setlinewidth
[] 0 setdash
0.000 setgray
gsave
/o {
gsave
newpath
translate
0.6 setlinewidth
1 setlinejoin
0 setlinecap
0 0 m
0 -2 l

gsave
0.000 setgray
fill
grestore
stroke
grestore
} bind def
307.589 47.52 o
grestore
0.800 setlinewidth
[2.96 1.28] 0 setdash
0.502 setgray
gsave
446.4 332.6 72 47.52 clipbox
337.17647 47.52 m
337.17647 380.16 l
stroke
grestore
0.600 setlinewidth
[] 0 setdash
0.000 setgray
gsave
/o {
gsave
newpath
translate
0.6 setlinewidth
1 setlinejoin
0 setlinecap
0 0 m
0 -2 l

gsave
0.000 setgray
fill
grestore
stroke
grestore
} bind def
337.176 47.52 o
grestore
0.800 setlinewidth
[2.96 1.28] 0 setdash
0.502 setgray
gsave
446.4 332.6 72 47.52 clipbox
352.200386 47.52 m
352.200386 380.16 l
stroke
grestore
0.600 setlinewidth
[] 0 setdash
0.000 setgray
gsave
/o {
gsave
newpath
translate
0.6 setlinewidth
1 setlinejoin
0 setlinecap
0 0 m
0 -2 l

gsave
0.000 setgray
fill
grestore
stroke
grestore
} bind def
352.2 47.52 o
grestore
0.800 setlinewidth
[2.96 1.28] 0 setdash
0.502 setgray
gsave
446.4 332.6 72 47.52 clipbox
362.860024 47.52 m
362.860024 380.16 l
stroke
grestore
0.600 setlinewidth
[] 0 setdash
0.000 setgray
gsave
/o {
gsave
newpath
translate
0.6 setlinewidth
1 setlinejoin
0 setlinecap
0 0 m
0 -2 l

gsave
0.000 setgray
fill
grestore
stroke
grestore
} bind def
362.86 47.52 o
grestore
0.800 setlinewidth
[2.96 1.28] 0 setdash
0.502 setgray
gsave
446.4 332.6 72 47.52 clipbox
371.128282 47.52 m
371.128282 380.16 l
stroke
grestore
0.600 setlinewidth
[] 0 setdash
0.000 setgray
gsave
/o {
gsave
newpath
translate
0.6 setlinewidth
1 setlinejoin
0 setlinecap
0 0 m
0 -2 l

gsave
0.000 setgray
fill
grestore
stroke
grestore
} bind def
371.128 47.52 o
grestore
0.800 setlinewidth
[2.96 1.28] 0 setdash
0.502 setgray
gsave
446.4 332.6 72 47.52 clipbox
377.88394 47.52 m
377.88394 380.16 l
stroke
grestore
0.600 setlinewidth
[] 0 setdash
0.000 setgray
gsave
/o {
gsave
newpath
translate
0.6 setlinewidth
1 setlinejoin
0 setlinecap
0 0 m
0 -2 l

gsave
0.000 setgray
fill
grestore
stroke
grestore
} bind def
377.884 47.52 o
grestore
0.800 setlinewidth
[2.96 1.28] 0 setdash
0.502 setgray
gsave
446.4 332.6 72 47.52 clipbox
383.595768 47.52 m
383.595768 380.16 l
stroke
grestore
0.600 setlinewidth
[] 0 setdash
0.000 setgray
gsave
/o {
gsave
newpath
translate
0.6 setlinewidth
1 setlinejoin
0 setlinecap
0 0 m
0 -2 l

gsave
0.000 setgray
fill
grestore
stroke
grestore
} bind def
383.596 47.52 o
grestore
0.800 setlinewidth
[2.96 1.28] 0 setdash
0.502 setgray
gsave
446.4 332.6 72 47.52 clipbox
388.543579 47.52 m
388.543579 380.16 l
stroke
grestore
0.600 setlinewidth
[] 0 setdash
0.000 setgray
gsave
/o {
gsave
newpath
translate
0.6 setlinewidth
1 setlinejoin
0 setlinecap
0 0 m
0 -2 l

gsave
0.000 setgray
fill
grestore
stroke
grestore
} bind def
388.544 47.52 o
grestore
0.800 setlinewidth
[2.96 1.28] 0 setdash
0.502 setgray
gsave
446.4 332.6 72 47.52 clipbox
392.907857 47.52 m
392.907857 380.16 l
stroke
grestore
0.600 setlinewidth
[] 0 setdash
0.000 setgray
gsave
/o {
gsave
newpath
translate
0.6 setlinewidth
1 setlinejoin
0 setlinecap
0 0 m
0 -2 l

gsave
0.000 setgray
fill
grestore
stroke
grestore
} bind def
392.908 47.52 o
grestore
0.800 setlinewidth
[2.96 1.28] 0 setdash
0.502 setgray
gsave
446.4 332.6 72 47.52 clipbox
422.495391 47.52 m
422.495391 380.16 l
stroke
grestore
0.600 setlinewidth
[] 0 setdash
0.000 setgray
gsave
/o {
gsave
newpath
translate
0.6 setlinewidth
1 setlinejoin
0 setlinecap
0 0 m
0 -2 l

gsave
0.000 setgray
fill
grestore
stroke
grestore
} bind def
422.495 47.52 o
grestore
0.800 setlinewidth
[2.96 1.28] 0 setdash
0.502 setgray
gsave
446.4 332.6 72 47.52 clipbox
437.519307 47.52 m
437.519307 380.16 l
stroke
grestore
0.600 setlinewidth
[] 0 setdash
0.000 setgray
gsave
/o {
gsave
newpath
translate
0.6 setlinewidth
1 setlinejoin
0 setlinecap
0 0 m
0 -2 l

gsave
0.000 setgray
fill
grestore
stroke
grestore
} bind def
437.519 47.52 o
grestore
0.800 setlinewidth
[2.96 1.28] 0 setdash
0.502 setgray
gsave
446.4 332.6 72 47.52 clipbox
448.178945 47.52 m
448.178945 380.16 l
stroke
grestore
0.600 setlinewidth
[] 0 setdash
0.000 setgray
gsave
/o {
gsave
newpath
translate
0.6 setlinewidth
1 setlinejoin
0 setlinecap
0 0 m
0 -2 l

gsave
0.000 setgray
fill
grestore
stroke
grestore
} bind def
448.179 47.52 o
grestore
0.800 setlinewidth
[2.96 1.28] 0 setdash
0.502 setgray
gsave
446.4 332.6 72 47.52 clipbox
456.447203 47.52 m
456.447203 380.16 l
stroke
grestore
0.600 setlinewidth
[] 0 setdash
0.000 setgray
gsave
/o {
gsave
newpath
translate
0.6 setlinewidth
1 setlinejoin
0 setlinecap
0 0 m
0 -2 l

gsave
0.000 setgray
fill
grestore
stroke
grestore
} bind def
456.447 47.52 o
grestore
0.800 setlinewidth
[2.96 1.28] 0 setdash
0.502 setgray
gsave
446.4 332.6 72 47.52 clipbox
463.202861 47.52 m
463.202861 380.16 l
stroke
grestore
0.600 setlinewidth
[] 0 setdash
0.000 setgray
gsave
/o {
gsave
newpath
translate
0.6 setlinewidth
1 setlinejoin
0 setlinecap
0 0 m
0 -2 l

gsave
0.000 setgray
fill
grestore
stroke
grestore
} bind def
463.203 47.52 o
grestore
0.800 setlinewidth
[2.96 1.28] 0 setdash
0.502 setgray
gsave
446.4 332.6 72 47.52 clipbox
468.914689 47.52 m
468.914689 380.16 l
stroke
grestore
0.600 setlinewidth
[] 0 setdash
0.000 setgray
gsave
/o {
gsave
newpath
translate
0.6 setlinewidth
1 setlinejoin
0 setlinecap
0 0 m
0 -2 l

gsave
0.000 setgray
fill
grestore
stroke
grestore
} bind def
468.915 47.52 o
grestore
0.800 setlinewidth
[2.96 1.28] 0 setdash
0.502 setgray
gsave
446.4 332.6 72 47.52 clipbox
473.862499 47.52 m
473.862499 380.16 l
stroke
grestore
0.600 setlinewidth
[] 0 setdash
0.000 setgray
gsave
/o {
gsave
newpath
translate
0.6 setlinewidth
1 setlinejoin
0 setlinecap
0 0 m
0 -2 l

gsave
0.000 setgray
fill
grestore
stroke
grestore
} bind def
473.862 47.52 o
grestore
0.800 setlinewidth
[2.96 1.28] 0 setdash
0.502 setgray
gsave
446.4 332.6 72 47.52 clipbox
478.226777 47.52 m
478.226777 380.16 l
stroke
grestore
0.600 setlinewidth
[] 0 setdash
0.000 setgray
gsave
/o {
gsave
newpath
translate
0.6 setlinewidth
1 setlinejoin
0 setlinecap
0 0 m
0 -2 l

gsave
0.000 setgray
fill
grestore
stroke
grestore
} bind def
478.227 47.52 o
grestore
0.800 setlinewidth
[2.96 1.28] 0 setdash
0.502 setgray
gsave
446.4 332.6 72 47.52 clipbox
507.814311 47.52 m
507.814311 380.16 l
stroke
grestore
0.600 setlinewidth
[] 0 setdash
0.000 setgray
gsave
/o {
gsave
newpath
translate
0.6 setlinewidth
1 setlinejoin
0 setlinecap
0 0 m
0 -2 l

gsave
0.000 setgray
fill
grestore
stroke
grestore
} bind def
507.814 47.52 o
grestore
/DejaVuSans findfont
12.000 scalefont
setfont
gsave
255.035937 15.395000 translate
0.000000 rotate
0.000000 0.000000 m /E glyphshow
7.582031 0.000000 m /n glyphshow
15.187500 0.000000 m /e glyphshow
22.570312 0.000000 m /r glyphshow
27.503906 0.000000 m /g glyphshow
35.121094 0.000000 m /y glyphshow
42.222656 0.000000 m /space glyphshow
46.037109 0.000000 m /parenleft glyphshow
50.718750 0.000000 m /G glyphshow
60.017578 0.000000 m /e glyphshow
67.400391 0.000000 m /V glyphshow
75.609375 0.000000 m /parenright glyphshow
grestore
0.800 setlinewidth
gsave
/o {
gsave
newpath
translate
0.8 setlinewidth
1 setlinejoin
0 setlinecap
0 0 m
-3.5 0 l

gsave
0.000 setgray
fill
grestore
stroke
grestore
} bind def
72 62.64 o
grestore
gsave
43.000000 57.890000 translate
0.000000 rotate
/DejaVuSans findfont
12.0 scalefont
setfont
0.000000 0.171875 moveto
/one glyphshow

7.634766 0.171875 moveto
/zero glyphshow

/DejaVuSans findfont
8.4 scalefont
setfont
15.384375 4.765625 moveto
/zero glyphshow


grestore
gsave
/o {
gsave
newpath
translate
0.8 setlinewidth
1 setlinejoin
0 setlinecap
0 0 m
-3.5 0 l

gsave
0.000 setgray
fill
grestore
stroke
grestore
} bind def
72 116.788 o
grestore
gsave
43.000000 112.038216 translate
0.000000 rotate
/DejaVuSans findfont
12.0 scalefont
setfont
0.000000 0.281250 moveto
/one glyphshow

7.634766 0.281250 moveto
/zero glyphshow

/DejaVuSans findfont
8.4 scalefont
setfont
15.384375 4.875000 moveto
/one glyphshow


grestore
gsave
/o {
gsave
newpath
translate
0.8 setlinewidth
1 setlinejoin
0 setlinecap
0 0 m
-3.5 0 l

gsave
0.000 setgray
fill
grestore
stroke
grestore
} bind def
72 170.936 o
grestore
gsave
43.000000 166.186432 translate
0.000000 rotate
/DejaVuSans findfont
12.0 scalefont
setfont
0.000000 0.171875 moveto
/one glyphshow

7.634766 0.171875 moveto
/zero glyphshow

/DejaVuSans findfont
8.4 scalefont
setfont
15.384375 4.765625 moveto
/two glyphshow


grestore
gsave
/o {
gsave
newpath
translate
0.8 setlinewidth
1 setlinejoin
0 setlinecap
0 0 m
-3.5 0 l

gsave
0.000 setgray
fill
grestore
stroke
grestore
} bind def
72 225.085 o
grestore
gsave
43.000000 220.334648 translate
0.000000 rotate
/DejaVuSans findfont
12.0 scalefont
setfont
0.000000 0.171875 moveto
/one glyphshow

7.634766 0.171875 moveto
/zero glyphshow

/DejaVuSans findfont
8.4 scalefont
setfont
15.384375 4.765625 moveto
/three glyphshow


grestore
gsave
/o {
gsave
newpath
translate
0.8 setlinewidth
1 setlinejoin
0 setlinecap
0 0 m
-3.5 0 l

gsave
0.000 setgray
fill
grestore
stroke
grestore
} bind def
72 279.233 o
grestore
gsave
43.000000 274.482864 translate
0.000000 rotate
/DejaVuSans findfont
12.0 scalefont
setfont
0.000000 0.281250 moveto
/one glyphshow

7.634766 0.281250 moveto
/zero glyphshow

/DejaVuSans findfont
8.4 scalefont
setfont
15.384375 4.875000 moveto
/four glyphshow


grestore
gsave
/o {
gsave
newpath
translate
0.8 setlinewidth
1 setlinejoin
0 setlinecap
0 0 m
-3.5 0 l

gsave
0.000 setgray
fill
grestore
stroke
grestore
} bind def
72 333.381 o
grestore
gsave
43.000000 328.631080 translate
0.000000 rotate
/DejaVuSans findfont
12.0 scalefont
setfont
0.000000 0.281250 moveto
/one glyphshow

7.634766 0.281250 moveto
/zero glyphshow

/DejaVuSans findfont
8.4 scalefont
setfont
15.384375 4.875000 moveto
/five glyphshow


grestore
[2.96 1.28] 0 setdash
0.502 setgray
gsave
446.4 332.6 72 47.52 clipbox
72 50.627286 m
518.4 50.627286 l
stroke
grestore
0.600 setlinewidth
[] 0 setdash
0.000 setgray
gsave
/o {
gsave
newpath
translate
0.6 setlinewidth
1 setlinejoin
0 setlinecap
0 0 m
-2 0 l

gsave
0.000 setgray
fill
grestore
stroke
grestore
} bind def
72 50.6273 o
grestore
0.800 setlinewidth
[2.96 1.28] 0 setdash
0.502 setgray
gsave
446.4 332.6 72 47.52 clipbox
72 54.252335 m
518.4 54.252335 l
stroke
grestore
0.600 setlinewidth
[] 0 setdash
0.000 setgray
gsave
/o {
gsave
newpath
translate
0.6 setlinewidth
1 setlinejoin
0 setlinecap
0 0 m
-2 0 l

gsave
0.000 setgray
fill
grestore
stroke
grestore
} bind def
72 54.2523 o
grestore
0.800 setlinewidth
[2.96 1.28] 0 setdash
0.502 setgray
gsave
446.4 332.6 72 47.52 clipbox
72 57.392496 m
518.4 57.392496 l
stroke
grestore
0.600 setlinewidth
[] 0 setdash
0.000 setgray
gsave
/o {
gsave
newpath
translate
0.6 setlinewidth
1 setlinejoin
0 setlinecap
0 0 m
-2 0 l

gsave
0.000 setgray
fill
grestore
stroke
grestore
} bind def
72 57.3925 o
grestore
0.800 setlinewidth
[2.96 1.28] 0 setdash
0.502 setgray
gsave
446.4 332.6 72 47.52 clipbox
72 60.162314 m
518.4 60.162314 l
stroke
grestore
0.600 setlinewidth
[] 0 setdash
0.000 setgray
gsave
/o {
gsave
newpath
translate
0.6 setlinewidth
1 setlinejoin
0 setlinecap
0 0 m
-2 0 l

gsave
0.000 setgray
fill
grestore
stroke
grestore
} bind def
72 60.1623 o
grestore
0.800 setlinewidth
[2.96 1.28] 0 setdash
0.502 setgray
gsave
446.4 332.6 72 47.52 clipbox
72 78.940237 m
518.4 78.940237 l
stroke
grestore
0.600 setlinewidth
[] 0 setdash
0.000 setgray
gsave
/o {
gsave
newpath
translate
0.6 setlinewidth
1 setlinejoin
0 setlinecap
0 0 m
-2 0 l

gsave
0.000 setgray
fill
grestore
stroke
grestore
} bind def
72 78.9402 o
grestore
0.800 setlinewidth
[2.96 1.28] 0 setdash
0.502 setgray
gsave
446.4 332.6 72 47.52 clipbox
72 88.475265 m
518.4 88.475265 l
stroke
grestore
0.600 setlinewidth
[] 0 setdash
0.000 setgray
gsave
/o {
gsave
newpath
translate
0.6 setlinewidth
1 setlinejoin
0 setlinecap
0 0 m
-2 0 l

gsave
0.000 setgray
fill
grestore
stroke
grestore
} bind def
72 88.4753 o
grestore
0.800 setlinewidth
[2.96 1.28] 0 setdash
0.502 setgray
gsave
446.4 332.6 72 47.52 clipbox
72 95.240475 m
518.4 95.240475 l
stroke
grestore
0.600 setlinewidth
[] 0 setdash
0.000 setgray
gsave
/o {
gsave
newpath
translate
0.6 setlinewidth
1 setlinejoin
0 setlinecap
0 0 m
-2 0 l

gsave
0.000 setgray
fill
grestore
stroke
grestore
} bind def
72 95.2405 o
grestore
0.800 setlinewidth
[2.96 1.28] 0 setdash
0.502 setgray
gsave
446.4 332.6 72 47.52 clipbox
72 100.487979 m
518.4 100.487979 l
stroke
grestore
0.600 setlinewidth
[] 0 setdash
0.000 setgray
gsave
/o {
gsave
newpath
translate
0.6 setlinewidth
1 setlinejoin
0 setlinecap
0 0 m
-2 0 l

gsave
0.000 setgray
fill
grestore
stroke
grestore
} bind def
72 100.488 o
grestore
0.800 setlinewidth
[2.96 1.28] 0 setdash
0.502 setgray
gsave
446.4 332.6 72 47.52 clipbox
72 104.775502 m
518.4 104.775502 l
stroke
grestore
0.600 setlinewidth
[] 0 setdash
0.000 setgray
gsave
/o {
gsave
newpath
translate
0.6 setlinewidth
1 setlinejoin
0 setlinecap
0 0 m
-2 0 l

gsave
0.000 setgray
fill
grestore
stroke
grestore
} bind def
72 104.776 o
grestore
0.800 setlinewidth
[2.96 1.28] 0 setdash
0.502 setgray
gsave
446.4 332.6 72 47.52 clipbox
72 108.400551 m
518.4 108.400551 l
stroke
grestore
0.600 setlinewidth
[] 0 setdash
0.000 setgray
gsave
/o {
gsave
newpath
translate
0.6 setlinewidth
1 setlinejoin
0 setlinecap
0 0 m
-2 0 l

gsave
0.000 setgray
fill
grestore
stroke
grestore
} bind def
72 108.401 o
grestore
0.800 setlinewidth
[2.96 1.28] 0 setdash
0.502 setgray
gsave
446.4 332.6 72 47.52 clipbox
72 111.540712 m
518.4 111.540712 l
stroke
grestore
0.600 setlinewidth
[] 0 setdash
0.000 setgray
gsave
/o {
gsave
newpath
translate
0.6 setlinewidth
1 setlinejoin
0 setlinecap
0 0 m
-2 0 l

gsave
0.000 setgray
fill
grestore
stroke
grestore
} bind def
72 111.541 o
grestore
0.800 setlinewidth
[2.96 1.28] 0 setdash
0.502 setgray
gsave
446.4 332.6 72 47.52 clipbox
72 114.31053 m
518.4 114.31053 l
stroke
grestore
0.600 setlinewidth
[] 0 setdash
0.000 setgray
gsave
/o {
gsave
newpath
translate
0.6 setlinewidth
1 setlinejoin
0 setlinecap
0 0 m
-2 0 l

gsave
0.000 setgray
fill
grestore
stroke
grestore
} bind def
72 114.311 o
grestore
0.800 setlinewidth
[2.96 1.28] 0 setdash
0.502 setgray
gsave
446.4 332.6 72 47.52 clipbox
72 133.088453 m
518.4 133.088453 l
stroke
grestore
0.600 setlinewidth
[] 0 setdash
0.000 setgray
gsave
/o {
gsave
newpath
translate
0.6 setlinewidth
1 setlinejoin
0 setlinecap
0 0 m
-2 0 l

gsave
0.000 setgray
fill
grestore
stroke
grestore
} bind def
72 133.088 o
grestore
0.800 setlinewidth
[2.96 1.28] 0 setdash
0.502 setgray
gsave
446.4 332.6 72 47.52 clipbox
72 142.623481 m
518.4 142.623481 l
stroke
grestore
0.600 setlinewidth
[] 0 setdash
0.000 setgray
gsave
/o {
gsave
newpath
translate
0.6 setlinewidth
1 setlinejoin
0 setlinecap
0 0 m
-2 0 l

gsave
0.000 setgray
fill
grestore
stroke
grestore
} bind def
72 142.623 o
grestore
0.800 setlinewidth
[2.96 1.28] 0 setdash
0.502 setgray
gsave
446.4 332.6 72 47.52 clipbox
72 149.388691 m
518.4 149.388691 l
stroke
grestore
0.600 setlinewidth
[] 0 setdash
0.000 setgray
gsave
/o {
gsave
newpath
translate
0.6 setlinewidth
1 setlinejoin
0 setlinecap
0 0 m
-2 0 l

gsave
0.000 setgray
fill
grestore
stroke
grestore
} bind def
72 149.389 o
grestore
0.800 setlinewidth
[2.96 1.28] 0 setdash
0.502 setgray
gsave
446.4 332.6 72 47.52 clipbox
72 154.636195 m
518.4 154.636195 l
stroke
grestore
0.600 setlinewidth
[] 0 setdash
0.000 setgray
gsave
/o {
gsave
newpath
translate
0.6 setlinewidth
1 setlinejoin
0 setlinecap
0 0 m
-2 0 l

gsave
0.000 setgray
fill
grestore
stroke
grestore
} bind def
72 154.636 o
grestore
0.800 setlinewidth
[2.96 1.28] 0 setdash
0.502 setgray
gsave
446.4 332.6 72 47.52 clipbox
72 158.923718 m
518.4 158.923718 l
stroke
grestore
0.600 setlinewidth
[] 0 setdash
0.000 setgray
gsave
/o {
gsave
newpath
translate
0.6 setlinewidth
1 setlinejoin
0 setlinecap
0 0 m
-2 0 l

gsave
0.000 setgray
fill
grestore
stroke
grestore
} bind def
72 158.924 o
grestore
0.800 setlinewidth
[2.96 1.28] 0 setdash
0.502 setgray
gsave
446.4 332.6 72 47.52 clipbox
72 162.548767 m
518.4 162.548767 l
stroke
grestore
0.600 setlinewidth
[] 0 setdash
0.000 setgray
gsave
/o {
gsave
newpath
translate
0.6 setlinewidth
1 setlinejoin
0 setlinecap
0 0 m
-2 0 l

gsave
0.000 setgray
fill
grestore
stroke
grestore
} bind def
72 162.549 o
grestore
0.800 setlinewidth
[2.96 1.28] 0 setdash
0.502 setgray
gsave
446.4 332.6 72 47.52 clipbox
72 165.688928 m
518.4 165.688928 l
stroke
grestore
0.600 setlinewidth
[] 0 setdash
0.000 setgray
gsave
/o {
gsave
newpath
translate
0.6 setlinewidth
1 setlinejoin
0 setlinecap
0 0 m
-2 0 l

gsave
0.000 setgray
fill
grestore
stroke
grestore
} bind def
72 165.689 o
grestore
0.800 setlinewidth
[2.96 1.28] 0 setdash
0.502 setgray
gsave
446.4 332.6 72 47.52 clipbox
72 168.458746 m
518.4 168.458746 l
stroke
grestore
0.600 setlinewidth
[] 0 setdash
0.000 setgray
gsave
/o {
gsave
newpath
translate
0.6 setlinewidth
1 setlinejoin
0 setlinecap
0 0 m
-2 0 l

gsave
0.000 setgray
fill
grestore
stroke
grestore
} bind def
72 168.459 o
grestore
0.800 setlinewidth
[2.96 1.28] 0 setdash
0.502 setgray
gsave
446.4 332.6 72 47.52 clipbox
72 187.236669 m
518.4 187.236669 l
stroke
grestore
0.600 setlinewidth
[] 0 setdash
0.000 setgray
gsave
/o {
gsave
newpath
translate
0.6 setlinewidth
1 setlinejoin
0 setlinecap
0 0 m
-2 0 l

gsave
0.000 setgray
fill
grestore
stroke
grestore
} bind def
72 187.237 o
grestore
0.800 setlinewidth
[2.96 1.28] 0 setdash
0.502 setgray
gsave
446.4 332.6 72 47.52 clipbox
72 196.771697 m
518.4 196.771697 l
stroke
grestore
0.600 setlinewidth
[] 0 setdash
0.000 setgray
gsave
/o {
gsave
newpath
translate
0.6 setlinewidth
1 setlinejoin
0 setlinecap
0 0 m
-2 0 l

gsave
0.000 setgray
fill
grestore
stroke
grestore
} bind def
72 196.772 o
grestore
0.800 setlinewidth
[2.96 1.28] 0 setdash
0.502 setgray
gsave
446.4 332.6 72 47.52 clipbox
72 203.536907 m
518.4 203.536907 l
stroke
grestore
0.600 setlinewidth
[] 0 setdash
0.000 setgray
gsave
/o {
gsave
newpath
translate
0.6 setlinewidth
1 setlinejoin
0 setlinecap
0 0 m
-2 0 l

gsave
0.000 setgray
fill
grestore
stroke
grestore
} bind def
72 203.537 o
grestore
0.800 setlinewidth
[2.96 1.28] 0 setdash
0.502 setgray
gsave
446.4 332.6 72 47.52 clipbox
72 208.784411 m
518.4 208.784411 l
stroke
grestore
0.600 setlinewidth
[] 0 setdash
0.000 setgray
gsave
/o {
gsave
newpath
translate
0.6 setlinewidth
1 setlinejoin
0 setlinecap
0 0 m
-2 0 l

gsave
0.000 setgray
fill
grestore
stroke
grestore
} bind def
72 208.784 o
grestore
0.800 setlinewidth
[2.96 1.28] 0 setdash
0.502 setgray
gsave
446.4 332.6 72 47.52 clipbox
72 213.071934 m
518.4 213.071934 l
stroke
grestore
0.600 setlinewidth
[] 0 setdash
0.000 setgray
gsave
/o {
gsave
newpath
translate
0.6 setlinewidth
1 setlinejoin
0 setlinecap
0 0 m
-2 0 l

gsave
0.000 setgray
fill
grestore
stroke
grestore
} bind def
72 213.072 o
grestore
0.800 setlinewidth
[2.96 1.28] 0 setdash
0.502 setgray
gsave
446.4 332.6 72 47.52 clipbox
72 216.696983 m
518.4 216.696983 l
stroke
grestore
0.600 setlinewidth
[] 0 setdash
0.000 setgray
gsave
/o {
gsave
newpath
translate
0.6 setlinewidth
1 setlinejoin
0 setlinecap
0 0 m
-2 0 l

gsave
0.000 setgray
fill
grestore
stroke
grestore
} bind def
72 216.697 o
grestore
0.800 setlinewidth
[2.96 1.28] 0 setdash
0.502 setgray
gsave
446.4 332.6 72 47.52 clipbox
72 219.837144 m
518.4 219.837144 l
stroke
grestore
0.600 setlinewidth
[] 0 setdash
0.000 setgray
gsave
/o {
gsave
newpath
translate
0.6 setlinewidth
1 setlinejoin
0 setlinecap
0 0 m
-2 0 l

gsave
0.000 setgray
fill
grestore
stroke
grestore
} bind def
72 219.837 o
grestore
0.800 setlinewidth
[2.96 1.28] 0 setdash
0.502 setgray
gsave
446.4 332.6 72 47.52 clipbox
72 222.606962 m
518.4 222.606962 l
stroke
grestore
0.600 setlinewidth
[] 0 setdash
0.000 setgray
gsave
/o {
gsave
newpath
translate
0.6 setlinewidth
1 setlinejoin
0 setlinecap
0 0 m
-2 0 l

gsave
0.000 setgray
fill
grestore
stroke
grestore
} bind def
72 222.607 o
grestore
0.800 setlinewidth
[2.96 1.28] 0 setdash
0.502 setgray
gsave
446.4 332.6 72 47.52 clipbox
72 241.384886 m
518.4 241.384886 l
stroke
grestore
0.600 setlinewidth
[] 0 setdash
0.000 setgray
gsave
/o {
gsave
newpath
translate
0.6 setlinewidth
1 setlinejoin
0 setlinecap
0 0 m
-2 0 l

gsave
0.000 setgray
fill
grestore
stroke
grestore
} bind def
72 241.385 o
grestore
0.800 setlinewidth
[2.96 1.28] 0 setdash
0.502 setgray
gsave
446.4 332.6 72 47.52 clipbox
72 250.919913 m
518.4 250.919913 l
stroke
grestore
0.600 setlinewidth
[] 0 setdash
0.000 setgray
gsave
/o {
gsave
newpath
translate
0.6 setlinewidth
1 setlinejoin
0 setlinecap
0 0 m
-2 0 l

gsave
0.000 setgray
fill
grestore
stroke
grestore
} bind def
72 250.92 o
grestore
0.800 setlinewidth
[2.96 1.28] 0 setdash
0.502 setgray
gsave
446.4 332.6 72 47.52 clipbox
72 257.685123 m
518.4 257.685123 l
stroke
grestore
0.600 setlinewidth
[] 0 setdash
0.000 setgray
gsave
/o {
gsave
newpath
translate
0.6 setlinewidth
1 setlinejoin
0 setlinecap
0 0 m
-2 0 l

gsave
0.000 setgray
fill
grestore
stroke
grestore
} bind def
72 257.685 o
grestore
0.800 setlinewidth
[2.96 1.28] 0 setdash
0.502 setgray
gsave
446.4 332.6 72 47.52 clipbox
72 262.932627 m
518.4 262.932627 l
stroke
grestore
0.600 setlinewidth
[] 0 setdash
0.000 setgray
gsave
/o {
gsave
newpath
translate
0.6 setlinewidth
1 setlinejoin
0 setlinecap
0 0 m
-2 0 l

gsave
0.000 setgray
fill
grestore
stroke
grestore
} bind def
72 262.933 o
grestore
0.800 setlinewidth
[2.96 1.28] 0 setdash
0.502 setgray
gsave
446.4 332.6 72 47.52 clipbox
72 267.22015 m
518.4 267.22015 l
stroke
grestore
0.600 setlinewidth
[] 0 setdash
0.000 setgray
gsave
/o {
gsave
newpath
translate
0.6 setlinewidth
1 setlinejoin
0 setlinecap
0 0 m
-2 0 l

gsave
0.000 setgray
fill
grestore
stroke
grestore
} bind def
72 267.22 o
grestore
0.800 setlinewidth
[2.96 1.28] 0 setdash
0.502 setgray
gsave
446.4 332.6 72 47.52 clipbox
72 270.8452 m
518.4 270.8452 l
stroke
grestore
0.600 setlinewidth
[] 0 setdash
0.000 setgray
gsave
/o {
gsave
newpath
translate
0.6 setlinewidth
1 setlinejoin
0 setlinecap
0 0 m
-2 0 l

gsave
0.000 setgray
fill
grestore
stroke
grestore
} bind def
72 270.845 o
grestore
0.800 setlinewidth
[2.96 1.28] 0 setdash
0.502 setgray
gsave
446.4 332.6 72 47.52 clipbox
72 273.98536 m
518.4 273.98536 l
stroke
grestore
0.600 setlinewidth
[] 0 setdash
0.000 setgray
gsave
/o {
gsave
newpath
translate
0.6 setlinewidth
1 setlinejoin
0 setlinecap
0 0 m
-2 0 l

gsave
0.000 setgray
fill
grestore
stroke
grestore
} bind def
72 273.985 o
grestore
0.800 setlinewidth
[2.96 1.28] 0 setdash
0.502 setgray
gsave
446.4 332.6 72 47.52 clipbox
72 276.755178 m
518.4 276.755178 l
stroke
grestore
0.600 setlinewidth
[] 0 setdash
0.000 setgray
gsave
/o {
gsave
newpath
translate
0.6 setlinewidth
1 setlinejoin
0 setlinecap
0 0 m
-2 0 l

gsave
0.000 setgray
fill
grestore
stroke
grestore
} bind def
72 276.755 o
grestore
0.800 setlinewidth
[2.96 1.28] 0 setdash
0.502 setgray
gsave
446.4 332.6 72 47.52 clipbox
72 295.533102 m
518.4 295.533102 l
stroke
grestore
0.600 setlinewidth
[] 0 setdash
0.000 setgray
gsave
/o {
gsave
newpath
translate
0.6 setlinewidth
1 setlinejoin
0 setlinecap
0 0 m
-2 0 l

gsave
0.000 setgray
fill
grestore
stroke
grestore
} bind def
72 295.533 o
grestore
0.800 setlinewidth
[2.96 1.28] 0 setdash
0.502 setgray
gsave
446.4 332.6 72 47.52 clipbox
72 305.068129 m
518.4 305.068129 l
stroke
grestore
0.600 setlinewidth
[] 0 setdash
0.000 setgray
gsave
/o {
gsave
newpath
translate
0.6 setlinewidth
1 setlinejoin
0 setlinecap
0 0 m
-2 0 l

gsave
0.000 setgray
fill
grestore
stroke
grestore
} bind def
72 305.068 o
grestore
0.800 setlinewidth
[2.96 1.28] 0 setdash
0.502 setgray
gsave
446.4 332.6 72 47.52 clipbox
72 311.833339 m
518.4 311.833339 l
stroke
grestore
0.600 setlinewidth
[] 0 setdash
0.000 setgray
gsave
/o {
gsave
newpath
translate
0.6 setlinewidth
1 setlinejoin
0 setlinecap
0 0 m
-2 0 l

gsave
0.000 setgray
fill
grestore
stroke
grestore
} bind def
72 311.833 o
grestore
0.800 setlinewidth
[2.96 1.28] 0 setdash
0.502 setgray
gsave
446.4 332.6 72 47.52 clipbox
72 317.080843 m
518.4 317.080843 l
stroke
grestore
0.600 setlinewidth
[] 0 setdash
0.000 setgray
gsave
/o {
gsave
newpath
translate
0.6 setlinewidth
1 setlinejoin
0 setlinecap
0 0 m
-2 0 l

gsave
0.000 setgray
fill
grestore
stroke
grestore
} bind def
72 317.081 o
grestore
0.800 setlinewidth
[2.96 1.28] 0 setdash
0.502 setgray
gsave
446.4 332.6 72 47.52 clipbox
72 321.368366 m
518.4 321.368366 l
stroke
grestore
0.600 setlinewidth
[] 0 setdash
0.000 setgray
gsave
/o {
gsave
newpath
translate
0.6 setlinewidth
1 setlinejoin
0 setlinecap
0 0 m
-2 0 l

gsave
0.000 setgray
fill
grestore
stroke
grestore
} bind def
72 321.368 o
grestore
0.800 setlinewidth
[2.96 1.28] 0 setdash
0.502 setgray
gsave
446.4 332.6 72 47.52 clipbox
72 324.993416 m
518.4 324.993416 l
stroke
grestore
0.600 setlinewidth
[] 0 setdash
0.000 setgray
gsave
/o {
gsave
newpath
translate
0.6 setlinewidth
1 setlinejoin
0 setlinecap
0 0 m
-2 0 l

gsave
0.000 setgray
fill
grestore
stroke
grestore
} bind def
72 324.993 o
grestore
0.800 setlinewidth
[2.96 1.28] 0 setdash
0.502 setgray
gsave
446.4 332.6 72 47.52 clipbox
72 328.133576 m
518.4 328.133576 l
stroke
grestore
0.600 setlinewidth
[] 0 setdash
0.000 setgray
gsave
/o {
gsave
newpath
translate
0.6 setlinewidth
1 setlinejoin
0 setlinecap
0 0 m
-2 0 l

gsave
0.000 setgray
fill
grestore
stroke
grestore
} bind def
72 328.134 o
grestore
0.800 setlinewidth
[2.96 1.28] 0 setdash
0.502 setgray
gsave
446.4 332.6 72 47.52 clipbox
72 330.903394 m
518.4 330.903394 l
stroke
grestore
0.600 setlinewidth
[] 0 setdash
0.000 setgray
gsave
/o {
gsave
newpath
translate
0.6 setlinewidth
1 setlinejoin
0 setlinecap
0 0 m
-2 0 l

gsave
0.000 setgray
fill
grestore
stroke
grestore
} bind def
72 330.903 o
grestore
0.800 setlinewidth
[2.96 1.28] 0 setdash
0.502 setgray
gsave
446.4 332.6 72 47.52 clipbox
72 349.681318 m
518.4 349.681318 l
stroke
grestore
0.600 setlinewidth
[] 0 setdash
0.000 setgray
gsave
/o {
gsave
newpath
translate
0.6 setlinewidth
1 setlinejoin
0 setlinecap
0 0 m
-2 0 l

gsave
0.000 setgray
fill
grestore
stroke
grestore
} bind def
72 349.681 o
grestore
0.800 setlinewidth
[2.96 1.28] 0 setdash
0.502 setgray
gsave
446.4 332.6 72 47.52 clipbox
72 359.216345 m
518.4 359.216345 l
stroke
grestore
0.600 setlinewidth
[] 0 setdash
0.000 setgray
gsave
/o {
gsave
newpath
translate
0.6 setlinewidth
1 setlinejoin
0 setlinecap
0 0 m
-2 0 l

gsave
0.000 setgray
fill
grestore
stroke
grestore
} bind def
72 359.216 o
grestore
0.800 setlinewidth
[2.96 1.28] 0 setdash
0.502 setgray
gsave
446.4 332.6 72 47.52 clipbox
72 365.981555 m
518.4 365.981555 l
stroke
grestore
0.600 setlinewidth
[] 0 setdash
0.000 setgray
gsave
/o {
gsave
newpath
translate
0.6 setlinewidth
1 setlinejoin
0 setlinecap
0 0 m
-2 0 l

gsave
0.000 setgray
fill
grestore
stroke
grestore
} bind def
72 365.982 o
grestore
0.800 setlinewidth
[2.96 1.28] 0 setdash
0.502 setgray
gsave
446.4 332.6 72 47.52 clipbox
72 371.229059 m
518.4 371.229059 l
stroke
grestore
0.600 setlinewidth
[] 0 setdash
0.000 setgray
gsave
/o {
gsave
newpath
translate
0.6 setlinewidth
1 setlinejoin
0 setlinecap
0 0 m
-2 0 l

gsave
0.000 setgray
fill
grestore
stroke
grestore
} bind def
72 371.229 o
grestore
0.800 setlinewidth
[2.96 1.28] 0 setdash
0.502 setgray
gsave
446.4 332.6 72 47.52 clipbox
72 375.516583 m
518.4 375.516583 l
stroke
grestore
0.600 setlinewidth
[] 0 setdash
0.000 setgray
gsave
/o {
gsave
newpath
translate
0.6 setlinewidth
1 setlinejoin
0 setlinecap
0 0 m
-2 0 l

gsave
0.000 setgray
fill
grestore
stroke
grestore
} bind def
72 375.517 o
grestore
0.800 setlinewidth
[2.96 1.28] 0 setdash
0.502 setgray
gsave
446.4 332.6 72 47.52 clipbox
72 379.141632 m
518.4 379.141632 l
stroke
grestore
0.600 setlinewidth
[] 0 setdash
0.000 setgray
gsave
/o {
gsave
newpath
translate
0.6 setlinewidth
1 setlinejoin
0 setlinecap
0 0 m
-2 0 l

gsave
0.000 setgray
fill
grestore
stroke
grestore
} bind def
72 379.142 o
grestore
gsave
36.500000 173.840000 translate
90.000000 rotate
/DejaVuSans findfont
12.0 scalefont
setfont
0.000000 0.171875 moveto
/C glyphshow

8.378906 0.171875 moveto
/o glyphshow

15.720703 0.171875 moveto
/u glyphshow

23.326172 0.171875 moveto
/n glyphshow

30.931641 0.171875 moveto
/t glyphshow

35.636719 0.171875 moveto
/s glyphshow

41.888672 0.171875 moveto
/space glyphshow

45.703125 0.171875 moveto
/parenleft glyphshow

50.384766 0.171875 moveto
/m glyphshow

/DejaVuSans findfont
8.4 scalefont
setfont
62.189062 4.765625 moveto
/minus glyphshow

69.227344 4.765625 moveto
/two glyphshow

/DejaVuSans findfont
12.0 scalefont
setfont
74.899805 0.171875 moveto
/parenright glyphshow


grestore
0.800 setlinewidth
0 setlinejoin
2 setlinecap
[] 0 setdash
gsave
72 47.52 m
72 380.16 l
stroke
grestore
gsave
518.4 47.52 m
518.4 380.16 l
stroke
grestore
gsave
72 47.52 m
518.4 47.52 l
stroke
grestore
gsave
72 380.16 m
518.4 380.16 l
stroke
grestore
1.000 setlinewidth
0 setlinecap
0.800 setgray
gsave
354.459375 335.31 m
510 335.31 l
511.6 335.31 512.4 336.11 512.4 337.71 c
512.4 371.76 l
512.4 373.36 511.6 374.16 510 374.16 c
354.459375 374.16 l
352.859375 374.16 352.059375 373.36 352.059375 371.76 c
352.059375 337.71 l
352.059375 336.11 352.859375 335.31 354.459375 335.31 c
cl
gsave
1.000 setgray
fill
grestore
stroke
grestore
3.000 setlinewidth
0.122 0.467 0.706 setrgbcolor
gsave
356.859375 360.235 m
380.859375 360.235 l
380.859375 368.635 l
356.859375 368.635 l
cl
stroke
grestore
0.000 setgray
gsave
390.459375 360.235000 translate
0.000000 rotate
0.000000 0.000000 m /F glyphshow
6.902344 0.000000 m /i glyphshow
10.236328 0.000000 m /n glyphshow
17.841797 0.000000 m /a glyphshow
25.195312 0.000000 m /l glyphshow
28.529297 0.000000 m /space glyphshow
32.343750 0.000000 m /m glyphshow
44.033203 0.000000 m /u glyphshow
51.638672 0.000000 m /o glyphshow
58.980469 0.000000 m /n glyphshow
66.585938 0.000000 m /space glyphshow
70.400391 0.000000 m /e glyphshow
77.783203 0.000000 m /n glyphshow
85.388672 0.000000 m /e glyphshow
92.771484 0.000000 m /r glyphshow
97.705078 0.000000 m /g glyphshow
105.322266 0.000000 m /y glyphshow
grestore
1.000 0.498 0.055 setrgbcolor
gsave
356.859375 342.61 m
380.859375 342.61 l
380.859375 351.01 l
356.859375 351.01 l
cl
stroke
grestore
0.000 setgray
gsave
390.459375 342.610000 translate
0.000000 rotate
0.000000 0.000000 m /I glyphshow
3.539062 0.000000 m /n glyphshow
11.144531 0.000000 m /i glyphshow
14.478516 0.000000 m /t glyphshow
19.183594 0.000000 m /i glyphshow
22.517578 0.000000 m /a glyphshow
29.871094 0.000000 m /l glyphshow
33.205078 0.000000 m /space glyphshow
37.019531 0.000000 m /m glyphshow
48.708984 0.000000 m /u glyphshow
56.314453 0.000000 m /o glyphshow
63.656250 0.000000 m /n glyphshow
71.261719 0.000000 m /space glyphshow
75.076172 0.000000 m /e glyphshow
82.458984 0.000000 m /n glyphshow
90.064453 0.000000 m /e glyphshow
97.447266 0.000000 m /r glyphshow
102.380859 0.000000 m /g glyphshow
109.998047 0.000000 m /y glyphshow
grestore

end
showpage
