\relax 
\providecommand\hyper@newdestlabel[2]{}
\providecommand\HyperFirstAtBeginDocument{\AtBeginDocument}
\HyperFirstAtBeginDocument{\ifx\hyper@anchor\@undefined
\global\let\oldcontentsline\contentsline
\gdef\contentsline#1#2#3#4{\oldcontentsline{#1}{#2}{#3}}
\global\let\oldnewlabel\newlabel
\gdef\newlabel#1#2{\newlabelxx{#1}#2}
\gdef\newlabelxx#1#2#3#4#5#6{\oldnewlabel{#1}{{#2}{#3}}}
\AtEndDocument{\ifx\hyper@anchor\@undefined
\let\contentsline\oldcontentsline
\let\newlabel\oldnewlabel
\fi}
\fi}
\global\let\hyper@last\relax 
\gdef\HyperFirstAtBeginDocument#1{#1}
\providecommand\HyField@AuxAddToFields[1]{}
\providecommand\HyField@AuxAddToCoFields[2]{}
\abx@aux@sortscheme{none}
\abx@aux@refcontext{none/global/}
\@writefile{toc}{\boolfalse {citerequest}\boolfalse {citetracker}\boolfalse {pagetracker}\boolfalse {backtracker}\relax }
\@writefile{lof}{\boolfalse {citerequest}\boolfalse {citetracker}\boolfalse {pagetracker}\boolfalse {backtracker}\relax }
\@writefile{lot}{\boolfalse {citerequest}\boolfalse {citetracker}\boolfalse {pagetracker}\boolfalse {backtracker}\relax }
\@input{Content/content.aux}
\abx@aux@cite{asorey2017muon}
\abx@aux@segm{0}{0}{asorey2017muon}
\abx@aux@cite{sierra2018astroparticle}
\abx@aux@segm{0}{0}{sierra2018astroparticle}
\abx@aux@segm{0}{0}{asorey2017muon}
\abx@aux@cite{AlejaThesis}
\abx@aux@segm{0}{0}{AlejaThesis}
\abx@aux@cite{heck1998corsika}
\abx@aux@segm{0}{0}{heck1998corsika}
\abx@aux@cite{QGSJet}
\abx@aux@segm{0}{0}{QGSJet}
\abx@aux@cite{GHEISHA}
\abx@aux@segm{0}{0}{GHEISHA}
\abx@aux@cite{Kudryavtsev:2008qh}
\abx@aux@segm{0}{0}{Kudryavtsev:2008qh}
\abx@aux@segm{0}{0}{asorey2017muon}
\abx@aux@segm{0}{0}{AlejaThesis}
\abx@aux@cite{AlejaResults}
\abx@aux@segm{0}{0}{AlejaResults}
\abx@aux@segm{0}{0}{Kudryavtsev:2008qh}
\abx@aux@segm{0}{0}{Kudryavtsev:2008qh}
\abx@aux@segm{0}{0}{Kudryavtsev:2008qh}
\@input{Content/appendix.aux}
\abx@aux@segm{0}{0}{QGSJet}
\abx@aux@segm{0}{0}{GHEISHA}
\abx@aux@segm{0}{0}{AlejaResults}
\abx@aux@segm{0}{0}{AlejaThesis}
\abx@aux@segm{0}{0}{AlejaResults}
\abx@aux@segm{0}{0}{AlejaThesis}
\abx@aux@refcontextdefaultsdone
\abx@aux@defaultrefcontext{0}{asorey2017muon}{none/global/}
\abx@aux@defaultrefcontext{0}{sierra2018astroparticle}{none/global/}
\abx@aux@defaultrefcontext{0}{AlejaThesis}{none/global/}
\abx@aux@defaultrefcontext{0}{heck1998corsika}{none/global/}
\abx@aux@defaultrefcontext{0}{QGSJet}{none/global/}
\abx@aux@defaultrefcontext{0}{GHEISHA}{none/global/}
\abx@aux@defaultrefcontext{0}{Kudryavtsev:2008qh}{none/global/}
\abx@aux@defaultrefcontext{0}{AlejaResults}{none/global/}
