%!PS-Adobe-3.0 EPSF-3.0
%%Title: /home/hmoss/FinalMuonReportPlots/June2019/FixedPhi/FinalEnergyVDistance_84Day.eps
%%Creator: matplotlib version 2.2.3, http://matplotlib.org/
%%CreationDate: Sun Jun  2 16:49:16 2019
%%Orientation: portrait
%%BoundingBox: 18 180 594 612
%%EndComments
%%BeginProlog
/mpldict 8 dict def
mpldict begin
/m { moveto } bind def
/l { lineto } bind def
/r { rlineto } bind def
/c { curveto } bind def
/cl { closepath } bind def
/box {
m
1 index 0 r
0 exch r
neg 0 r
cl
} bind def
/clipbox {
box
clip
newpath
} bind def
%!PS-Adobe-3.0 Resource-Font
%%Title: DejaVu Sans
%%Copyright: Copyright (c) 2003 by Bitstream, Inc. All Rights Reserved. Copyright (c) 2006 by Tavmjong Bah. All Rights Reserved. DejaVu changes are in public domain 
%%Creator: Converted from TrueType to type 3 by PPR
25 dict begin
/_d{bind def}bind def
/_m{moveto}_d
/_l{lineto}_d
/_cl{closepath eofill}_d
/_c{curveto}_d
/_sc{7 -1 roll{setcachedevice}{pop pop pop pop pop pop}ifelse}_d
/_e{exec}_d
/FontName /DejaVuSans def
/PaintType 0 def
/FontMatrix[.001 0 0 .001 0 0]def
/FontBBox[-1021 -463 1793 1232]def
/FontType 3 def
/Encoding [ /space /parenleft /parenright /zero /one /two /three /four /five /seven /C /E /G /V /d /e /g /h /m /n /o /p /r /s /t /u /y /minus ] def
/FontInfo 10 dict dup begin
/FamilyName (DejaVu Sans) def
/FullName (DejaVu Sans) def
/Notice (Copyright (c) 2003 by Bitstream, Inc. All Rights Reserved. Copyright (c) 2006 by Tavmjong Bah. All Rights Reserved. DejaVu changes are in public domain ) def
/Weight (Book) def
/Version (Version 2.35) def
/ItalicAngle 0.0 def
/isFixedPitch false def
/UnderlinePosition -130 def
/UnderlineThickness 90 def
end readonly def
/CharStrings 29 dict dup begin
/.notdef 0 def
/space{318 0 0 0 0 0 _sc
}_d
/parenleft{390 0 86 -131 310 759 _sc
310 759 _m
266 683 234 609 213 536 _c
191 463 181 389 181 314 _c
181 238 191 164 213 91 _c
234 17 266 -56 310 -131 _c
232 -131 _l
183 -54 146 20 122 94 _c
98 168 86 241 86 314 _c
86 386 98 459 122 533 _c
146 607 182 682 232 759 _c
310 759 _l
_cl}_d
/parenright{390 0 80 -131 304 759 _sc
80 759 _m
158 759 _l
206 682 243 607 267 533 _c
291 459 304 386 304 314 _c
304 241 291 168 267 94 _c
243 20 206 -54 158 -131 _c
80 -131 _l
123 -56 155 17 177 91 _c
198 164 209 238 209 314 _c
209 389 198 463 177 536 _c
155 609 123 683 80 759 _c
_cl}_d
/zero{636 0 66 -13 570 742 _sc
318 664 _m
267 664 229 639 203 589 _c
177 539 165 464 165 364 _c
165 264 177 189 203 139 _c
229 89 267 64 318 64 _c
369 64 407 89 433 139 _c
458 189 471 264 471 364 _c
471 464 458 539 433 589 _c
407 639 369 664 318 664 _c
318 742 _m
399 742 461 709 505 645 _c
548 580 570 486 570 364 _c
570 241 548 147 505 83 _c
461 19 399 -13 318 -13 _c
236 -13 173 19 130 83 _c
87 147 66 241 66 364 _c
66 486 87 580 130 645 _c
173 709 236 742 318 742 _c
_cl}_d
/one{636 0 110 0 544 729 _sc
124 83 _m
285 83 _l
285 639 _l
110 604 _l
110 694 _l
284 729 _l
383 729 _l
383 83 _l
544 83 _l
544 0 _l
124 0 _l
124 83 _l
_cl}_d
/two{{636 0 73 0 536 742 _sc
192 83 _m
536 83 _l
536 0 _l
73 0 _l
73 83 _l
110 121 161 173 226 239 _c
290 304 331 346 348 365 _c
380 400 402 430 414 455 _c
426 479 433 504 433 528 _c
433 566 419 598 392 622 _c
365 646 330 659 286 659 _c
255 659 222 653 188 643 _c
154 632 117 616 78 594 _c
78 694 _l
118 710 155 722 189 730 _c
223 738 255 742 284 742 _c
}_e{359 742 419 723 464 685 _c
509 647 532 597 532 534 _c
532 504 526 475 515 449 _c
504 422 484 390 454 354 _c
446 344 420 317 376 272 _c
332 227 271 164 192 83 _c
_cl}_e}_d
/three{{636 0 76 -13 556 742 _sc
406 393 _m
453 383 490 362 516 330 _c
542 298 556 258 556 212 _c
556 140 531 84 482 45 _c
432 6 362 -13 271 -13 _c
240 -13 208 -10 176 -4 _c
144 1 110 10 76 22 _c
76 117 _l
103 101 133 89 166 81 _c
198 73 232 69 268 69 _c
330 69 377 81 409 105 _c
441 129 458 165 458 212 _c
458 254 443 288 413 312 _c
383 336 341 349 287 349 _c
}_e{202 349 _l
202 430 _l
291 430 _l
339 430 376 439 402 459 _c
428 478 441 506 441 543 _c
441 580 427 609 401 629 _c
374 649 336 659 287 659 _c
260 659 231 656 200 650 _c
169 644 135 635 98 623 _c
98 711 _l
135 721 170 729 203 734 _c
235 739 266 742 296 742 _c
370 742 429 725 473 691 _c
517 657 539 611 539 553 _c
539 513 527 479 504 451 _c
481 423 448 403 406 393 _c
_cl}_e}_d
/four{636 0 49 0 580 729 _sc
378 643 _m
129 254 _l
378 254 _l
378 643 _l
352 729 _m
476 729 _l
476 254 _l
580 254 _l
580 172 _l
476 172 _l
476 0 _l
378 0 _l
378 172 _l
49 172 _l
49 267 _l
352 729 _l
_cl}_d
/five{{636 0 77 -13 549 729 _sc
108 729 _m
495 729 _l
495 646 _l
198 646 _l
198 467 _l
212 472 227 476 241 478 _c
255 480 270 482 284 482 _c
365 482 429 459 477 415 _c
525 370 549 310 549 234 _c
549 155 524 94 475 51 _c
426 8 357 -13 269 -13 _c
238 -13 207 -10 175 -6 _c
143 -1 111 6 77 17 _c
77 116 _l
106 100 136 88 168 80 _c
199 72 232 69 267 69 _c
}_e{323 69 368 83 401 113 _c
433 143 450 183 450 234 _c
450 284 433 324 401 354 _c
368 384 323 399 267 399 _c
241 399 214 396 188 390 _c
162 384 135 375 108 363 _c
108 729 _l
_cl}_e}_d
/seven{636 0 82 0 551 729 _sc
82 729 _m
551 729 _l
551 687 _l
286 0 _l
183 0 _l
432 646 _l
82 646 _l
82 729 _l
_cl}_d
/C{{698 0 56 -13 644 742 _sc
644 673 _m
644 569 _l
610 599 575 622 537 638 _c
499 653 460 661 418 661 _c
334 661 270 635 226 584 _c
182 533 160 460 160 364 _c
160 268 182 194 226 143 _c
270 92 334 67 418 67 _c
460 67 499 74 537 90 _c
575 105 610 128 644 159 _c
644 56 _l
609 32 572 15 534 4 _c
496 -7 455 -13 412 -13 _c
302 -13 215 20 151 87 _c
}_e{87 154 56 246 56 364 _c
56 481 87 573 151 641 _c
215 708 302 742 412 742 _c
456 742 497 736 535 725 _c
573 713 610 696 644 673 _c
_cl}_e}_d
/E{632 0 98 0 568 729 _sc
98 729 _m
559 729 _l
559 646 _l
197 646 _l
197 430 _l
544 430 _l
544 347 _l
197 347 _l
197 83 _l
568 83 _l
568 0 _l
98 0 _l
98 729 _l
_cl}_d
/G{{775 0 56 -13 693 742 _sc
595 104 _m
595 300 _l
434 300 _l
434 381 _l
693 381 _l
693 68 _l
655 40 613 20 567 7 _c
521 -6 472 -13 420 -13 _c
306 -13 216 20 152 86 _c
88 152 56 245 56 364 _c
56 482 88 575 152 642 _c
216 708 306 742 420 742 _c
467 742 512 736 555 724 _c
598 712 638 695 674 673 _c
674 568 _l
637 598 598 621 557 637 _c
516 653 473 661 428 661 _c
}_e{338 661 271 636 227 586 _c
182 536 160 462 160 364 _c
160 265 182 191 227 141 _c
271 91 338 67 428 67 _c
462 67 493 70 521 76 _c
549 82 573 91 595 104 _c
_cl}_e}_d
/V{684 0 8 0 676 729 _sc
286 0 _m
8 729 _l
111 729 _l
342 115 _l
573 729 _l
676 729 _l
398 0 _l
286 0 _l
_cl}_d
/d{{635 0 55 -13 544 760 _sc
454 464 _m
454 760 _l
544 760 _l
544 0 _l
454 0 _l
454 82 _l
435 49 411 25 382 10 _c
353 -5 319 -13 279 -13 _c
213 -13 159 13 117 65 _c
75 117 55 187 55 273 _c
55 359 75 428 117 481 _c
159 533 213 560 279 560 _c
319 560 353 552 382 536 _c
411 520 435 496 454 464 _c
148 273 _m
148 207 161 155 188 117 _c
215 79 253 61 301 61 _c
}_e{348 61 385 79 413 117 _c
440 155 454 207 454 273 _c
454 339 440 390 413 428 _c
385 466 348 485 301 485 _c
253 485 215 466 188 428 _c
161 390 148 339 148 273 _c
_cl}_e}_d
/e{{615 0 55 -13 562 560 _sc
562 296 _m
562 252 _l
149 252 _l
153 190 171 142 205 110 _c
238 78 284 62 344 62 _c
378 62 412 66 444 74 _c
476 82 509 95 541 113 _c
541 28 _l
509 14 476 3 442 -3 _c
408 -9 373 -13 339 -13 _c
251 -13 182 12 131 62 _c
80 112 55 181 55 268 _c
55 357 79 428 127 481 _c
175 533 241 560 323 560 _c
397 560 455 536 498 489 _c
}_e{540 441 562 377 562 296 _c
472 322 _m
471 371 457 410 431 440 _c
404 469 368 484 324 484 _c
274 484 234 469 204 441 _c
174 413 156 373 152 322 _c
472 322 _l
_cl}_e}_d
/g{{635 0 55 -207 544 560 _sc
454 280 _m
454 344 440 395 414 431 _c
387 467 349 485 301 485 _c
253 485 215 467 188 431 _c
161 395 148 344 148 280 _c
148 215 161 165 188 129 _c
215 93 253 75 301 75 _c
349 75 387 93 414 129 _c
440 165 454 215 454 280 _c
544 68 _m
544 -24 523 -93 482 -139 _c
440 -184 377 -207 292 -207 _c
260 -207 231 -204 203 -200 _c
175 -195 147 -188 121 -178 _c
}_e{121 -91 _l
147 -105 173 -115 199 -122 _c
225 -129 251 -133 278 -133 _c
336 -133 380 -117 410 -87 _c
439 -56 454 -10 454 52 _c
454 96 _l
435 64 411 40 382 24 _c
353 8 319 0 279 0 _c
211 0 157 25 116 76 _c
75 127 55 195 55 280 _c
55 364 75 432 116 483 _c
157 534 211 560 279 560 _c
319 560 353 552 382 536 _c
411 520 435 496 454 464 _c
454 547 _l
544 547 _l
}_e{544 68 _l
_cl}_e}_d
/h{634 0 91 0 549 760 _sc
549 330 _m
549 0 _l
459 0 _l
459 327 _l
459 379 448 417 428 443 _c
408 469 378 482 338 482 _c
289 482 251 466 223 435 _c
195 404 181 362 181 309 _c
181 0 _l
91 0 _l
91 760 _l
181 760 _l
181 462 _l
202 494 227 519 257 535 _c
286 551 320 560 358 560 _c
420 560 468 540 500 501 _c
532 462 549 405 549 330 _c
_cl}_d
/m{{974 0 91 0 889 560 _sc
520 442 _m
542 482 569 511 600 531 _c
631 550 668 560 711 560 _c
767 560 811 540 842 500 _c
873 460 889 403 889 330 _c
889 0 _l
799 0 _l
799 327 _l
799 379 789 418 771 444 _c
752 469 724 482 686 482 _c
639 482 602 466 575 435 _c
548 404 535 362 535 309 _c
535 0 _l
445 0 _l
445 327 _l
445 379 435 418 417 444 _c
398 469 369 482 331 482 _c
}_e{285 482 248 466 221 435 _c
194 404 181 362 181 309 _c
181 0 _l
91 0 _l
91 547 _l
181 547 _l
181 462 _l
201 495 226 520 255 536 _c
283 552 317 560 357 560 _c
397 560 430 550 458 530 _c
486 510 506 480 520 442 _c
_cl}_e}_d
/n{634 0 91 0 549 560 _sc
549 330 _m
549 0 _l
459 0 _l
459 327 _l
459 379 448 417 428 443 _c
408 469 378 482 338 482 _c
289 482 251 466 223 435 _c
195 404 181 362 181 309 _c
181 0 _l
91 0 _l
91 547 _l
181 547 _l
181 462 _l
202 494 227 519 257 535 _c
286 551 320 560 358 560 _c
420 560 468 540 500 501 _c
532 462 549 405 549 330 _c
_cl}_d
/o{612 0 55 -13 557 560 _sc
306 484 _m
258 484 220 465 192 427 _c
164 389 150 338 150 273 _c
150 207 163 156 191 118 _c
219 80 257 62 306 62 _c
354 62 392 80 420 118 _c
448 156 462 207 462 273 _c
462 337 448 389 420 427 _c
392 465 354 484 306 484 _c
306 560 _m
384 560 445 534 490 484 _c
534 433 557 363 557 273 _c
557 183 534 113 490 63 _c
445 12 384 -13 306 -13 _c
227 -13 165 12 121 63 _c
77 113 55 183 55 273 _c
55 363 77 433 121 484 _c
165 534 227 560 306 560 _c
_cl}_d
/p{{635 0 91 -207 580 560 _sc
181 82 _m
181 -207 _l
91 -207 _l
91 547 _l
181 547 _l
181 464 _l
199 496 223 520 252 536 _c
281 552 316 560 356 560 _c
422 560 476 533 518 481 _c
559 428 580 359 580 273 _c
580 187 559 117 518 65 _c
476 13 422 -13 356 -13 _c
316 -13 281 -5 252 10 _c
223 25 199 49 181 82 _c
487 273 _m
487 339 473 390 446 428 _c
418 466 381 485 334 485 _c
}_e{286 485 249 466 222 428 _c
194 390 181 339 181 273 _c
181 207 194 155 222 117 _c
249 79 286 61 334 61 _c
381 61 418 79 446 117 _c
473 155 487 207 487 273 _c
_cl}_e}_d
/r{411 0 91 0 411 560 _sc
411 463 _m
401 469 390 473 378 476 _c
366 478 353 480 339 480 _c
288 480 249 463 222 430 _c
194 397 181 350 181 288 _c
181 0 _l
91 0 _l
91 547 _l
181 547 _l
181 462 _l
199 495 224 520 254 536 _c
284 552 321 560 365 560 _c
371 560 378 559 386 559 _c
393 558 401 557 411 555 _c
411 463 _l
_cl}_d
/s{{521 0 54 -13 472 560 _sc
443 531 _m
443 446 _l
417 458 391 468 364 475 _c
336 481 308 485 279 485 _c
234 485 200 478 178 464 _c
156 450 145 430 145 403 _c
145 382 153 366 169 354 _c
185 342 217 330 265 320 _c
296 313 _l
360 299 405 279 432 255 _c
458 230 472 195 472 151 _c
472 100 452 60 412 31 _c
372 1 316 -13 246 -13 _c
216 -13 186 -10 154 -5 _c
}_e{122 0 89 8 54 20 _c
54 113 _l
87 95 120 82 152 74 _c
184 65 216 61 248 61 _c
290 61 323 68 346 82 _c
368 96 380 117 380 144 _c
380 168 371 187 355 200 _c
339 213 303 226 247 238 _c
216 245 _l
160 257 119 275 95 299 _c
70 323 58 356 58 399 _c
58 450 76 490 112 518 _c
148 546 200 560 268 560 _c
301 560 332 557 362 552 _c
391 547 418 540 443 531 _c
}_e{_cl}_e}_d
/t{392 0 27 0 368 702 _sc
183 702 _m
183 547 _l
368 547 _l
368 477 _l
183 477 _l
183 180 _l
183 135 189 106 201 94 _c
213 81 238 75 276 75 _c
368 75 _l
368 0 _l
276 0 _l
206 0 158 13 132 39 _c
106 65 93 112 93 180 _c
93 477 _l
27 477 _l
27 547 _l
93 547 _l
93 702 _l
183 702 _l
_cl}_d
/u{634 0 85 -13 543 560 _sc
85 216 _m
85 547 _l
175 547 _l
175 219 _l
175 167 185 129 205 103 _c
225 77 255 64 296 64 _c
344 64 383 79 411 110 _c
439 141 453 183 453 237 _c
453 547 _l
543 547 _l
543 0 _l
453 0 _l
453 84 _l
431 50 405 26 377 10 _c
348 -5 315 -13 277 -13 _c
214 -13 166 6 134 45 _c
101 83 85 140 85 216 _c
311 560 _m
311 560 _l
_cl}_d
/y{592 0 30 -207 562 547 _sc
322 -50 _m
296 -114 271 -157 247 -177 _c
223 -197 191 -207 151 -207 _c
79 -207 _l
79 -132 _l
132 -132 _l
156 -132 175 -126 189 -114 _c
203 -102 218 -75 235 -31 _c
251 9 _l
30 547 _l
125 547 _l
296 119 _l
467 547 _l
562 547 _l
322 -50 _l
_cl}_d
/minus{838 0 106 272 732 355 _sc
106 355 _m
732 355 _l
732 272 _l
106 272 _l
106 355 _l
_cl}_d
end readonly def

/BuildGlyph
 {exch begin
 CharStrings exch
 2 copy known not{pop /.notdef}if
 true 3 1 roll get exec
 end}_d

/BuildChar {
 1 index /Encoding get exch get
 1 index /BuildGlyph get exec
}_d

FontName currentdict end definefont pop
end
%%EndProlog
mpldict begin
18 180 translate
576 432 0 0 clipbox
gsave
0 0 m
576 0 l
576 432 l
0 432 l
cl
1.000 setgray
fill
grestore
gsave
72 47.52 m
518.4 47.52 l
518.4 380.16 l
72 380.16 l
cl
1.000 setgray
fill
grestore
gsave
446.4 332.6 72 47.52 clipbox
57.710461 -68977.693755 m
344.347926 -68977.693755 l
344.347926 362.286536 l
57.710461 362.286536 l
cl
0.122 0.467 0.706 setrgbcolor
fill
grestore
gsave
446.4 332.6 72 47.52 clipbox
344.347926 -68977.693755 m
370.023385 -68977.693755 l
370.023385 211.861568 l
344.347926 211.861568 l
cl
0.122 0.467 0.706 setrgbcolor
fill
grestore
gsave
446.4 332.6 72 47.52 clipbox
370.023385 -68977.693755 m
385.044602 -68977.693755 l
385.044602 155.32131 l
370.023385 155.32131 l
cl
0.122 0.467 0.706 setrgbcolor
fill
grestore
gsave
446.4 332.6 72 47.52 clipbox
385.044602 -68977.693755 m
395.702891 -68977.693755 l
395.702891 116.363822 l
385.044602 116.363822 l
cl
0.122 0.467 0.706 setrgbcolor
fill
grestore
gsave
446.4 332.6 72 47.52 clipbox
395.702891 -68977.693755 m
403.970339 -68977.693755 l
403.970339 62.64 l
395.702891 62.64 l
cl
0.122 0.467 0.706 setrgbcolor
fill
grestore
gsave
446.4 332.6 72 47.52 clipbox
403.970339 -68977.693755 m
410.725458 -68977.693755 l
410.725458 104.206423 l
403.970339 104.206423 l
cl
0.122 0.467 0.706 setrgbcolor
fill
grestore
gsave
446.4 332.6 72 47.52 clipbox
410.725458 -68977.693755 m
416.4369 -68977.693755 l
416.4369 -68977.693755 l
410.725458 -68977.693755 l
cl
0.122 0.467 0.706 setrgbcolor
fill
grestore
gsave
446.4 332.6 72 47.52 clipbox
416.4369 -68977.693755 m
421.384421 -68977.693755 l
421.384421 83.423211 l
416.4369 83.423211 l
cl
0.122 0.467 0.706 setrgbcolor
fill
grestore
gsave
446.4 332.6 72 47.52 clipbox
421.384421 -68977.693755 m
425.748474 -68977.693755 l
425.748474 -68977.693755 l
421.384421 -68977.693755 l
cl
0.122 0.467 0.706 setrgbcolor
fill
grestore
gsave
446.4 332.6 72 47.52 clipbox
425.748474 -68977.693755 m
429.652274 -68977.693755 l
429.652274 83.423211 l
425.748474 83.423211 l
cl
0.122 0.467 0.706 setrgbcolor
fill
grestore
gsave
446.4 332.6 72 47.52 clipbox
57.705659 -68977.693755 m
332.275569 -68977.693755 l
332.275569 365.04 l
57.705659 365.04 l
cl
1.000 0.498 0.055 setrgbcolor
fill
grestore
gsave
446.4 332.6 72 47.52 clipbox
332.275569 -68977.693755 m
357.94791 -68977.693755 l
357.94791 228.314275 l
332.275569 228.314275 l
cl
1.000 0.498 0.055 setrgbcolor
fill
grestore
gsave
446.4 332.6 72 47.52 clipbox
357.94791 -68977.693755 m
372.968088 -68977.693755 l
372.968088 176.104521 l
357.94791 176.104521 l
cl
1.000 0.498 0.055 setrgbcolor
fill
grestore
gsave
446.4 332.6 72 47.52 clipbox
372.968088 -68977.693755 m
383.625857 -68977.693755 l
383.625857 141.769062 l
372.968088 141.769062 l
cl
1.000 0.498 0.055 setrgbcolor
fill
grestore
gsave
446.4 332.6 72 47.52 clipbox
383.625857 -68977.693755 m
391.892993 -68977.693755 l
391.892993 120.985851 l
383.625857 120.985851 l
cl
1.000 0.498 0.055 setrgbcolor
fill
grestore
gsave
446.4 332.6 72 47.52 clipbox
391.892993 -68977.693755 m
398.647904 -68977.693755 l
398.647904 104.206423 l
391.892993 104.206423 l
cl
1.000 0.498 0.055 setrgbcolor
fill
grestore
gsave
446.4 332.6 72 47.52 clipbox
398.647904 -68977.693755 m
404.359198 -68977.693755 l
404.359198 62.64 l
398.647904 62.64 l
cl
1.000 0.498 0.055 setrgbcolor
fill
grestore
gsave
446.4 332.6 72 47.52 clipbox
404.359198 -68977.693755 m
409.306607 -68977.693755 l
409.306607 -68977.693755 l
404.359198 -68977.693755 l
cl
1.000 0.498 0.055 setrgbcolor
fill
grestore
gsave
446.4 332.6 72 47.52 clipbox
409.306607 -68977.693755 m
413.670574 -68977.693755 l
413.670574 62.64 l
409.306607 62.64 l
cl
1.000 0.498 0.055 setrgbcolor
fill
grestore
gsave
446.4 332.6 72 47.52 clipbox
413.670574 -68977.693755 m
417.574304 -68977.693755 l
417.574304 83.423211 l
413.670574 83.423211 l
cl
1.000 0.498 0.055 setrgbcolor
fill
grestore
gsave
446.4 332.6 72 47.52 clipbox
57.754214 -68977.693755 m
315.093156 -68977.693755 l
315.093156 342.220773 l
57.754214 342.220773 l
cl
0.173 0.627 0.173 setrgbcolor
fill
grestore
gsave
446.4 332.6 72 47.52 clipbox
315.093156 -68977.693755 m
340.758858 -68977.693755 l
340.758858 226.083043 l
315.093156 226.083043 l
cl
0.173 0.627 0.173 setrgbcolor
fill
grestore
gsave
446.4 332.6 72 47.52 clipbox
340.758858 -68977.693755 m
355.776821 -68977.693755 l
355.776821 186.867072 l
340.758858 186.867072 l
cl
0.173 0.627 0.173 setrgbcolor
fill
grestore
gsave
446.4 332.6 72 47.52 clipbox
355.776821 -68977.693755 m
366.433482 -68977.693755 l
366.433482 141.769062 l
355.776821 141.769062 l
cl
0.173 0.627 0.173 setrgbcolor
fill
grestore
gsave
446.4 332.6 72 47.52 clipbox
366.433482 -68977.693755 m
374.699954 -68977.693755 l
374.699954 110.897122 l
366.433482 110.897122 l
cl
0.173 0.627 0.173 setrgbcolor
fill
grestore
gsave
446.4 332.6 72 47.52 clipbox
374.699954 -68977.693755 m
381.454422 -68977.693755 l
381.454422 104.206423 l
374.699954 104.206423 l
cl
0.173 0.627 0.173 setrgbcolor
fill
grestore
gsave
446.4 332.6 72 47.52 clipbox
381.454422 -68977.693755 m
387.165399 -68977.693755 l
387.165399 62.64 l
381.454422 62.64 l
cl
0.173 0.627 0.173 setrgbcolor
fill
grestore
gsave
446.4 332.6 72 47.52 clipbox
387.165399 -68977.693755 m
392.112571 -68977.693755 l
392.112571 62.64 l
387.165399 62.64 l
cl
0.173 0.627 0.173 setrgbcolor
fill
grestore
gsave
446.4 332.6 72 47.52 clipbox
392.112571 -68977.693755 m
396.476353 -68977.693755 l
396.476353 110.897122 l
392.112571 110.897122 l
cl
0.173 0.627 0.173 setrgbcolor
fill
grestore
gsave
446.4 332.6 72 47.52 clipbox
396.476353 -68977.693755 m
400.379936 -68977.693755 l
400.379936 83.423211 l
396.476353 83.423211 l
cl
0.173 0.627 0.173 setrgbcolor
fill
grestore
gsave
446.4 332.6 72 47.52 clipbox
57.722021 -68977.693755 m
338.194194 -68977.693755 l
338.194194 330.378723 l
57.722021 330.378723 l
cl
0.839 0.153 0.157 setrgbcolor
fill
grestore
gsave
446.4 332.6 72 47.52 clipbox
338.194194 -68977.693755 m
363.868187 -68977.693755 l
363.868187 187.804143 l
338.194194 187.804143 l
cl
0.839 0.153 0.157 setrgbcolor
fill
grestore
gsave
446.4 332.6 72 47.52 clipbox
363.868187 -68977.693755 m
378.888916 -68977.693755 l
378.888916 149.304433 l
363.868187 149.304433 l
cl
0.839 0.153 0.157 setrgbcolor
fill
grestore
gsave
446.4 332.6 72 47.52 clipbox
378.888916 -68977.693755 m
389.54696 -68977.693755 l
389.54696 124.989634 l
378.888916 124.989634 l
cl
0.839 0.153 0.157 setrgbcolor
fill
grestore
gsave
446.4 332.6 72 47.52 clipbox
389.54696 -68977.693755 m
397.814261 -68977.693755 l
397.814261 62.64 l
389.54696 62.64 l
cl
0.839 0.153 0.157 setrgbcolor
fill
grestore
gsave
446.4 332.6 72 47.52 clipbox
397.814261 -68977.693755 m
404.569282 -68977.693755 l
404.569282 95.580611 l
397.814261 95.580611 l
cl
0.839 0.153 0.157 setrgbcolor
fill
grestore
gsave
446.4 332.6 72 47.52 clipbox
404.569282 -68977.693755 m
410.280654 -68977.693755 l
410.280654 62.64 l
404.569282 62.64 l
cl
0.839 0.153 0.157 setrgbcolor
fill
grestore
gsave
446.4 332.6 72 47.52 clipbox
410.280654 -68977.693755 m
415.228123 -68977.693755 l
415.228123 -68977.693755 l
410.280654 -68977.693755 l
cl
0.839 0.153 0.157 setrgbcolor
fill
grestore
gsave
446.4 332.6 72 47.52 clipbox
415.228123 -68977.693755 m
419.592135 -68977.693755 l
419.592135 -68977.693755 l
415.228123 -68977.693755 l
cl
0.839 0.153 0.157 setrgbcolor
fill
grestore
gsave
446.4 332.6 72 47.52 clipbox
419.592135 -68977.693755 m
423.495903 -68977.693755 l
423.495903 62.64 l
419.592135 62.64 l
cl
0.839 0.153 0.157 setrgbcolor
fill
grestore
gsave
446.4 332.6 72 47.52 clipbox
57.703772 -68977.693755 m
318.408012 -68977.693755 l
318.408012 311.282414 l
57.703772 311.282414 l
cl
0.580 0.404 0.741 setrgbcolor
fill
grestore
gsave
446.4 332.6 72 47.52 clipbox
318.408012 -68977.693755 m
344.075264 -68977.693755 l
344.075264 202.467793 l
318.408012 202.467793 l
cl
0.580 0.404 0.741 setrgbcolor
fill
grestore
gsave
446.4 332.6 72 47.52 clipbox
344.075264 -68977.693755 m
359.093745 -68977.693755 l
359.093745 145.772845 l
344.075264 145.772845 l
cl
0.580 0.404 0.741 setrgbcolor
fill
grestore
gsave
446.4 332.6 72 47.52 clipbox
359.093745 -68977.693755 m
369.750665 -68977.693755 l
369.750665 124.989634 l
359.093745 124.989634 l
cl
0.580 0.404 0.741 setrgbcolor
fill
grestore
gsave
446.4 332.6 72 47.52 clipbox
369.750665 -68977.693755 m
378.017291 -68977.693755 l
378.017291 83.423211 l
369.750665 83.423211 l
cl
0.580 0.404 0.741 setrgbcolor
fill
grestore
gsave
446.4 332.6 72 47.52 clipbox
378.017291 -68977.693755 m
384.771862 -68977.693755 l
384.771862 62.64 l
378.017291 62.64 l
cl
0.580 0.404 0.741 setrgbcolor
fill
grestore
gsave
446.4 332.6 72 47.52 clipbox
384.771862 -68977.693755 m
390.482913 -68977.693755 l
390.482913 83.423211 l
384.771862 83.423211 l
cl
0.580 0.404 0.741 setrgbcolor
fill
grestore
gsave
446.4 332.6 72 47.52 clipbox
390.482913 -68977.693755 m
395.430141 -68977.693755 l
395.430141 -68977.693755 l
390.482913 -68977.693755 l
cl
0.580 0.404 0.741 setrgbcolor
fill
grestore
gsave
446.4 332.6 72 47.52 clipbox
395.430141 -68977.693755 m
399.793966 -68977.693755 l
399.793966 62.64 l
395.430141 62.64 l
cl
0.580 0.404 0.741 setrgbcolor
fill
grestore
gsave
446.4 332.6 72 47.52 clipbox
399.793966 -68977.693755 m
403.697583 -68977.693755 l
403.697583 62.64 l
399.793966 62.64 l
cl
0.580 0.404 0.741 setrgbcolor
fill
grestore
0.800 setlinewidth
1 setlinejoin
0 setlinecap
[] 0 setdash
0.000 setgray
gsave
/o {
gsave
newpath
translate
0.8 setlinewidth
1 setlinejoin
0 setlinecap
0 0 m
0 -3.5 l

gsave
0.000 setgray
fill
grestore
stroke
grestore
} bind def
140.855 47.52 o
grestore
gsave
129.855075 31.020000 translate
0.000000 rotate
/DejaVuSans findfont
12.0 scalefont
setfont
0.000000 0.171875 moveto
/one glyphshow

7.634766 0.171875 moveto
/zero glyphshow

/DejaVuSans findfont
8.4 scalefont
setfont
15.384375 4.765625 moveto
/zero glyphshow


grestore
gsave
/o {
gsave
newpath
translate
0.8 setlinewidth
1 setlinejoin
0 setlinecap
0 0 m
0 -3.5 l

gsave
0.000 setgray
fill
grestore
stroke
grestore
} bind def
226.174 47.52 o
grestore
gsave
215.173995 31.020000 translate
0.000000 rotate
/DejaVuSans findfont
12.0 scalefont
setfont
0.000000 0.281250 moveto
/one glyphshow

7.634766 0.281250 moveto
/zero glyphshow

/DejaVuSans findfont
8.4 scalefont
setfont
15.384375 4.875000 moveto
/one glyphshow


grestore
gsave
/o {
gsave
newpath
translate
0.8 setlinewidth
1 setlinejoin
0 setlinecap
0 0 m
0 -3.5 l

gsave
0.000 setgray
fill
grestore
stroke
grestore
} bind def
311.493 47.52 o
grestore
gsave
300.492916 31.020000 translate
0.000000 rotate
/DejaVuSans findfont
12.0 scalefont
setfont
0.000000 0.171875 moveto
/one glyphshow

7.634766 0.171875 moveto
/zero glyphshow

/DejaVuSans findfont
8.4 scalefont
setfont
15.384375 4.765625 moveto
/two glyphshow


grestore
gsave
/o {
gsave
newpath
translate
0.8 setlinewidth
1 setlinejoin
0 setlinecap
0 0 m
0 -3.5 l

gsave
0.000 setgray
fill
grestore
stroke
grestore
} bind def
396.812 47.52 o
grestore
gsave
385.811836 31.020000 translate
0.000000 rotate
/DejaVuSans findfont
12.0 scalefont
setfont
0.000000 0.171875 moveto
/one glyphshow

7.634766 0.171875 moveto
/zero glyphshow

/DejaVuSans findfont
8.4 scalefont
setfont
15.384375 4.765625 moveto
/three glyphshow


grestore
gsave
/o {
gsave
newpath
translate
0.8 setlinewidth
1 setlinejoin
0 setlinecap
0 0 m
0 -3.5 l

gsave
0.000 setgray
fill
grestore
stroke
grestore
} bind def
482.131 47.52 o
grestore
gsave
471.130757 31.020000 translate
0.000000 rotate
/DejaVuSans findfont
12.0 scalefont
setfont
0.000000 0.281250 moveto
/one glyphshow

7.634766 0.281250 moveto
/zero glyphshow

/DejaVuSans findfont
8.4 scalefont
setfont
15.384375 4.875000 moveto
/four glyphshow


grestore
[2.96 1.28] 0 setdash
0.502 setgray
gsave
446.4 332.6 72 47.52 clipbox
81.219708 47.52 m
81.219708 380.16 l
stroke
grestore
0.600 setlinewidth
[] 0 setdash
0.000 setgray
gsave
/o {
gsave
newpath
translate
0.6 setlinewidth
1 setlinejoin
0 setlinecap
0 0 m
0 -2 l

gsave
0.000 setgray
fill
grestore
stroke
grestore
} bind def
81.2197 47.52 o
grestore
0.800 setlinewidth
[2.96 1.28] 0 setdash
0.502 setgray
gsave
446.4 332.6 72 47.52 clipbox
96.243624 47.52 m
96.243624 380.16 l
stroke
grestore
0.600 setlinewidth
[] 0 setdash
0.000 setgray
gsave
/o {
gsave
newpath
translate
0.6 setlinewidth
1 setlinejoin
0 setlinecap
0 0 m
0 -2 l

gsave
0.000 setgray
fill
grestore
stroke
grestore
} bind def
96.2436 47.52 o
grestore
0.800 setlinewidth
[2.96 1.28] 0 setdash
0.502 setgray
gsave
446.4 332.6 72 47.52 clipbox
106.903263 47.52 m
106.903263 380.16 l
stroke
grestore
0.600 setlinewidth
[] 0 setdash
0.000 setgray
gsave
/o {
gsave
newpath
translate
0.6 setlinewidth
1 setlinejoin
0 setlinecap
0 0 m
0 -2 l

gsave
0.000 setgray
fill
grestore
stroke
grestore
} bind def
106.903 47.52 o
grestore
0.800 setlinewidth
[2.96 1.28] 0 setdash
0.502 setgray
gsave
446.4 332.6 72 47.52 clipbox
115.17152 47.52 m
115.17152 380.16 l
stroke
grestore
0.600 setlinewidth
[] 0 setdash
0.000 setgray
gsave
/o {
gsave
newpath
translate
0.6 setlinewidth
1 setlinejoin
0 setlinecap
0 0 m
0 -2 l

gsave
0.000 setgray
fill
grestore
stroke
grestore
} bind def
115.172 47.52 o
grestore
0.800 setlinewidth
[2.96 1.28] 0 setdash
0.502 setgray
gsave
446.4 332.6 72 47.52 clipbox
121.927179 47.52 m
121.927179 380.16 l
stroke
grestore
0.600 setlinewidth
[] 0 setdash
0.000 setgray
gsave
/o {
gsave
newpath
translate
0.6 setlinewidth
1 setlinejoin
0 setlinecap
0 0 m
0 -2 l

gsave
0.000 setgray
fill
grestore
stroke
grestore
} bind def
121.927 47.52 o
grestore
0.800 setlinewidth
[2.96 1.28] 0 setdash
0.502 setgray
gsave
446.4 332.6 72 47.52 clipbox
127.639006 47.52 m
127.639006 380.16 l
stroke
grestore
0.600 setlinewidth
[] 0 setdash
0.000 setgray
gsave
/o {
gsave
newpath
translate
0.6 setlinewidth
1 setlinejoin
0 setlinecap
0 0 m
0 -2 l

gsave
0.000 setgray
fill
grestore
stroke
grestore
} bind def
127.639 47.52 o
grestore
0.800 setlinewidth
[2.96 1.28] 0 setdash
0.502 setgray
gsave
446.4 332.6 72 47.52 clipbox
132.586817 47.52 m
132.586817 380.16 l
stroke
grestore
0.600 setlinewidth
[] 0 setdash
0.000 setgray
gsave
/o {
gsave
newpath
translate
0.6 setlinewidth
1 setlinejoin
0 setlinecap
0 0 m
0 -2 l

gsave
0.000 setgray
fill
grestore
stroke
grestore
} bind def
132.587 47.52 o
grestore
0.800 setlinewidth
[2.96 1.28] 0 setdash
0.502 setgray
gsave
446.4 332.6 72 47.52 clipbox
136.951095 47.52 m
136.951095 380.16 l
stroke
grestore
0.600 setlinewidth
[] 0 setdash
0.000 setgray
gsave
/o {
gsave
newpath
translate
0.6 setlinewidth
1 setlinejoin
0 setlinecap
0 0 m
0 -2 l

gsave
0.000 setgray
fill
grestore
stroke
grestore
} bind def
136.951 47.52 o
grestore
0.800 setlinewidth
[2.96 1.28] 0 setdash
0.502 setgray
gsave
446.4 332.6 72 47.52 clipbox
166.538629 47.52 m
166.538629 380.16 l
stroke
grestore
0.600 setlinewidth
[] 0 setdash
0.000 setgray
gsave
/o {
gsave
newpath
translate
0.6 setlinewidth
1 setlinejoin
0 setlinecap
0 0 m
0 -2 l

gsave
0.000 setgray
fill
grestore
stroke
grestore
} bind def
166.539 47.52 o
grestore
0.800 setlinewidth
[2.96 1.28] 0 setdash
0.502 setgray
gsave
446.4 332.6 72 47.52 clipbox
181.562545 47.52 m
181.562545 380.16 l
stroke
grestore
0.600 setlinewidth
[] 0 setdash
0.000 setgray
gsave
/o {
gsave
newpath
translate
0.6 setlinewidth
1 setlinejoin
0 setlinecap
0 0 m
0 -2 l

gsave
0.000 setgray
fill
grestore
stroke
grestore
} bind def
181.563 47.52 o
grestore
0.800 setlinewidth
[2.96 1.28] 0 setdash
0.502 setgray
gsave
446.4 332.6 72 47.52 clipbox
192.222183 47.52 m
192.222183 380.16 l
stroke
grestore
0.600 setlinewidth
[] 0 setdash
0.000 setgray
gsave
/o {
gsave
newpath
translate
0.6 setlinewidth
1 setlinejoin
0 setlinecap
0 0 m
0 -2 l

gsave
0.000 setgray
fill
grestore
stroke
grestore
} bind def
192.222 47.52 o
grestore
0.800 setlinewidth
[2.96 1.28] 0 setdash
0.502 setgray
gsave
446.4 332.6 72 47.52 clipbox
200.490441 47.52 m
200.490441 380.16 l
stroke
grestore
0.600 setlinewidth
[] 0 setdash
0.000 setgray
gsave
/o {
gsave
newpath
translate
0.6 setlinewidth
1 setlinejoin
0 setlinecap
0 0 m
0 -2 l

gsave
0.000 setgray
fill
grestore
stroke
grestore
} bind def
200.49 47.52 o
grestore
0.800 setlinewidth
[2.96 1.28] 0 setdash
0.502 setgray
gsave
446.4 332.6 72 47.52 clipbox
207.246099 47.52 m
207.246099 380.16 l
stroke
grestore
0.600 setlinewidth
[] 0 setdash
0.000 setgray
gsave
/o {
gsave
newpath
translate
0.6 setlinewidth
1 setlinejoin
0 setlinecap
0 0 m
0 -2 l

gsave
0.000 setgray
fill
grestore
stroke
grestore
} bind def
207.246 47.52 o
grestore
0.800 setlinewidth
[2.96 1.28] 0 setdash
0.502 setgray
gsave
446.4 332.6 72 47.52 clipbox
212.957927 47.52 m
212.957927 380.16 l
stroke
grestore
0.600 setlinewidth
[] 0 setdash
0.000 setgray
gsave
/o {
gsave
newpath
translate
0.6 setlinewidth
1 setlinejoin
0 setlinecap
0 0 m
0 -2 l

gsave
0.000 setgray
fill
grestore
stroke
grestore
} bind def
212.958 47.52 o
grestore
0.800 setlinewidth
[2.96 1.28] 0 setdash
0.502 setgray
gsave
446.4 332.6 72 47.52 clipbox
217.905737 47.52 m
217.905737 380.16 l
stroke
grestore
0.600 setlinewidth
[] 0 setdash
0.000 setgray
gsave
/o {
gsave
newpath
translate
0.6 setlinewidth
1 setlinejoin
0 setlinecap
0 0 m
0 -2 l

gsave
0.000 setgray
fill
grestore
stroke
grestore
} bind def
217.906 47.52 o
grestore
0.800 setlinewidth
[2.96 1.28] 0 setdash
0.502 setgray
gsave
446.4 332.6 72 47.52 clipbox
222.270015 47.52 m
222.270015 380.16 l
stroke
grestore
0.600 setlinewidth
[] 0 setdash
0.000 setgray
gsave
/o {
gsave
newpath
translate
0.6 setlinewidth
1 setlinejoin
0 setlinecap
0 0 m
0 -2 l

gsave
0.000 setgray
fill
grestore
stroke
grestore
} bind def
222.27 47.52 o
grestore
0.800 setlinewidth
[2.96 1.28] 0 setdash
0.502 setgray
gsave
446.4 332.6 72 47.52 clipbox
251.857549 47.52 m
251.857549 380.16 l
stroke
grestore
0.600 setlinewidth
[] 0 setdash
0.000 setgray
gsave
/o {
gsave
newpath
translate
0.6 setlinewidth
1 setlinejoin
0 setlinecap
0 0 m
0 -2 l

gsave
0.000 setgray
fill
grestore
stroke
grestore
} bind def
251.858 47.52 o
grestore
0.800 setlinewidth
[2.96 1.28] 0 setdash
0.502 setgray
gsave
446.4 332.6 72 47.52 clipbox
266.881466 47.52 m
266.881466 380.16 l
stroke
grestore
0.600 setlinewidth
[] 0 setdash
0.000 setgray
gsave
/o {
gsave
newpath
translate
0.6 setlinewidth
1 setlinejoin
0 setlinecap
0 0 m
0 -2 l

gsave
0.000 setgray
fill
grestore
stroke
grestore
} bind def
266.881 47.52 o
grestore
0.800 setlinewidth
[2.96 1.28] 0 setdash
0.502 setgray
gsave
446.4 332.6 72 47.52 clipbox
277.541104 47.52 m
277.541104 380.16 l
stroke
grestore
0.600 setlinewidth
[] 0 setdash
0.000 setgray
gsave
/o {
gsave
newpath
translate
0.6 setlinewidth
1 setlinejoin
0 setlinecap
0 0 m
0 -2 l

gsave
0.000 setgray
fill
grestore
stroke
grestore
} bind def
277.541 47.52 o
grestore
0.800 setlinewidth
[2.96 1.28] 0 setdash
0.502 setgray
gsave
446.4 332.6 72 47.52 clipbox
285.809361 47.52 m
285.809361 380.16 l
stroke
grestore
0.600 setlinewidth
[] 0 setdash
0.000 setgray
gsave
/o {
gsave
newpath
translate
0.6 setlinewidth
1 setlinejoin
0 setlinecap
0 0 m
0 -2 l

gsave
0.000 setgray
fill
grestore
stroke
grestore
} bind def
285.809 47.52 o
grestore
0.800 setlinewidth
[2.96 1.28] 0 setdash
0.502 setgray
gsave
446.4 332.6 72 47.52 clipbox
292.56502 47.52 m
292.56502 380.16 l
stroke
grestore
0.600 setlinewidth
[] 0 setdash
0.000 setgray
gsave
/o {
gsave
newpath
translate
0.6 setlinewidth
1 setlinejoin
0 setlinecap
0 0 m
0 -2 l

gsave
0.000 setgray
fill
grestore
stroke
grestore
} bind def
292.565 47.52 o
grestore
0.800 setlinewidth
[2.96 1.28] 0 setdash
0.502 setgray
gsave
446.4 332.6 72 47.52 clipbox
298.276848 47.52 m
298.276848 380.16 l
stroke
grestore
0.600 setlinewidth
[] 0 setdash
0.000 setgray
gsave
/o {
gsave
newpath
translate
0.6 setlinewidth
1 setlinejoin
0 setlinecap
0 0 m
0 -2 l

gsave
0.000 setgray
fill
grestore
stroke
grestore
} bind def
298.277 47.52 o
grestore
0.800 setlinewidth
[2.96 1.28] 0 setdash
0.502 setgray
gsave
446.4 332.6 72 47.52 clipbox
303.224658 47.52 m
303.224658 380.16 l
stroke
grestore
0.600 setlinewidth
[] 0 setdash
0.000 setgray
gsave
/o {
gsave
newpath
translate
0.6 setlinewidth
1 setlinejoin
0 setlinecap
0 0 m
0 -2 l

gsave
0.000 setgray
fill
grestore
stroke
grestore
} bind def
303.225 47.52 o
grestore
0.800 setlinewidth
[2.96 1.28] 0 setdash
0.502 setgray
gsave
446.4 332.6 72 47.52 clipbox
307.588936 47.52 m
307.588936 380.16 l
stroke
grestore
0.600 setlinewidth
[] 0 setdash
0.000 setgray
gsave
/o {
gsave
newpath
translate
0.6 setlinewidth
1 setlinejoin
0 setlinecap
0 0 m
0 -2 l

gsave
0.000 setgray
fill
grestore
stroke
grestore
} bind def
307.589 47.52 o
grestore
0.800 setlinewidth
[2.96 1.28] 0 setdash
0.502 setgray
gsave
446.4 332.6 72 47.52 clipbox
337.17647 47.52 m
337.17647 380.16 l
stroke
grestore
0.600 setlinewidth
[] 0 setdash
0.000 setgray
gsave
/o {
gsave
newpath
translate
0.6 setlinewidth
1 setlinejoin
0 setlinecap
0 0 m
0 -2 l

gsave
0.000 setgray
fill
grestore
stroke
grestore
} bind def
337.176 47.52 o
grestore
0.800 setlinewidth
[2.96 1.28] 0 setdash
0.502 setgray
gsave
446.4 332.6 72 47.52 clipbox
352.200386 47.52 m
352.200386 380.16 l
stroke
grestore
0.600 setlinewidth
[] 0 setdash
0.000 setgray
gsave
/o {
gsave
newpath
translate
0.6 setlinewidth
1 setlinejoin
0 setlinecap
0 0 m
0 -2 l

gsave
0.000 setgray
fill
grestore
stroke
grestore
} bind def
352.2 47.52 o
grestore
0.800 setlinewidth
[2.96 1.28] 0 setdash
0.502 setgray
gsave
446.4 332.6 72 47.52 clipbox
362.860024 47.52 m
362.860024 380.16 l
stroke
grestore
0.600 setlinewidth
[] 0 setdash
0.000 setgray
gsave
/o {
gsave
newpath
translate
0.6 setlinewidth
1 setlinejoin
0 setlinecap
0 0 m
0 -2 l

gsave
0.000 setgray
fill
grestore
stroke
grestore
} bind def
362.86 47.52 o
grestore
0.800 setlinewidth
[2.96 1.28] 0 setdash
0.502 setgray
gsave
446.4 332.6 72 47.52 clipbox
371.128282 47.52 m
371.128282 380.16 l
stroke
grestore
0.600 setlinewidth
[] 0 setdash
0.000 setgray
gsave
/o {
gsave
newpath
translate
0.6 setlinewidth
1 setlinejoin
0 setlinecap
0 0 m
0 -2 l

gsave
0.000 setgray
fill
grestore
stroke
grestore
} bind def
371.128 47.52 o
grestore
0.800 setlinewidth
[2.96 1.28] 0 setdash
0.502 setgray
gsave
446.4 332.6 72 47.52 clipbox
377.88394 47.52 m
377.88394 380.16 l
stroke
grestore
0.600 setlinewidth
[] 0 setdash
0.000 setgray
gsave
/o {
gsave
newpath
translate
0.6 setlinewidth
1 setlinejoin
0 setlinecap
0 0 m
0 -2 l

gsave
0.000 setgray
fill
grestore
stroke
grestore
} bind def
377.884 47.52 o
grestore
0.800 setlinewidth
[2.96 1.28] 0 setdash
0.502 setgray
gsave
446.4 332.6 72 47.52 clipbox
383.595768 47.52 m
383.595768 380.16 l
stroke
grestore
0.600 setlinewidth
[] 0 setdash
0.000 setgray
gsave
/o {
gsave
newpath
translate
0.6 setlinewidth
1 setlinejoin
0 setlinecap
0 0 m
0 -2 l

gsave
0.000 setgray
fill
grestore
stroke
grestore
} bind def
383.596 47.52 o
grestore
0.800 setlinewidth
[2.96 1.28] 0 setdash
0.502 setgray
gsave
446.4 332.6 72 47.52 clipbox
388.543579 47.52 m
388.543579 380.16 l
stroke
grestore
0.600 setlinewidth
[] 0 setdash
0.000 setgray
gsave
/o {
gsave
newpath
translate
0.6 setlinewidth
1 setlinejoin
0 setlinecap
0 0 m
0 -2 l

gsave
0.000 setgray
fill
grestore
stroke
grestore
} bind def
388.544 47.52 o
grestore
0.800 setlinewidth
[2.96 1.28] 0 setdash
0.502 setgray
gsave
446.4 332.6 72 47.52 clipbox
392.907857 47.52 m
392.907857 380.16 l
stroke
grestore
0.600 setlinewidth
[] 0 setdash
0.000 setgray
gsave
/o {
gsave
newpath
translate
0.6 setlinewidth
1 setlinejoin
0 setlinecap
0 0 m
0 -2 l

gsave
0.000 setgray
fill
grestore
stroke
grestore
} bind def
392.908 47.52 o
grestore
0.800 setlinewidth
[2.96 1.28] 0 setdash
0.502 setgray
gsave
446.4 332.6 72 47.52 clipbox
422.495391 47.52 m
422.495391 380.16 l
stroke
grestore
0.600 setlinewidth
[] 0 setdash
0.000 setgray
gsave
/o {
gsave
newpath
translate
0.6 setlinewidth
1 setlinejoin
0 setlinecap
0 0 m
0 -2 l

gsave
0.000 setgray
fill
grestore
stroke
grestore
} bind def
422.495 47.52 o
grestore
0.800 setlinewidth
[2.96 1.28] 0 setdash
0.502 setgray
gsave
446.4 332.6 72 47.52 clipbox
437.519307 47.52 m
437.519307 380.16 l
stroke
grestore
0.600 setlinewidth
[] 0 setdash
0.000 setgray
gsave
/o {
gsave
newpath
translate
0.6 setlinewidth
1 setlinejoin
0 setlinecap
0 0 m
0 -2 l

gsave
0.000 setgray
fill
grestore
stroke
grestore
} bind def
437.519 47.52 o
grestore
0.800 setlinewidth
[2.96 1.28] 0 setdash
0.502 setgray
gsave
446.4 332.6 72 47.52 clipbox
448.178945 47.52 m
448.178945 380.16 l
stroke
grestore
0.600 setlinewidth
[] 0 setdash
0.000 setgray
gsave
/o {
gsave
newpath
translate
0.6 setlinewidth
1 setlinejoin
0 setlinecap
0 0 m
0 -2 l

gsave
0.000 setgray
fill
grestore
stroke
grestore
} bind def
448.179 47.52 o
grestore
0.800 setlinewidth
[2.96 1.28] 0 setdash
0.502 setgray
gsave
446.4 332.6 72 47.52 clipbox
456.447203 47.52 m
456.447203 380.16 l
stroke
grestore
0.600 setlinewidth
[] 0 setdash
0.000 setgray
gsave
/o {
gsave
newpath
translate
0.6 setlinewidth
1 setlinejoin
0 setlinecap
0 0 m
0 -2 l

gsave
0.000 setgray
fill
grestore
stroke
grestore
} bind def
456.447 47.52 o
grestore
0.800 setlinewidth
[2.96 1.28] 0 setdash
0.502 setgray
gsave
446.4 332.6 72 47.52 clipbox
463.202861 47.52 m
463.202861 380.16 l
stroke
grestore
0.600 setlinewidth
[] 0 setdash
0.000 setgray
gsave
/o {
gsave
newpath
translate
0.6 setlinewidth
1 setlinejoin
0 setlinecap
0 0 m
0 -2 l

gsave
0.000 setgray
fill
grestore
stroke
grestore
} bind def
463.203 47.52 o
grestore
0.800 setlinewidth
[2.96 1.28] 0 setdash
0.502 setgray
gsave
446.4 332.6 72 47.52 clipbox
468.914689 47.52 m
468.914689 380.16 l
stroke
grestore
0.600 setlinewidth
[] 0 setdash
0.000 setgray
gsave
/o {
gsave
newpath
translate
0.6 setlinewidth
1 setlinejoin
0 setlinecap
0 0 m
0 -2 l

gsave
0.000 setgray
fill
grestore
stroke
grestore
} bind def
468.915 47.52 o
grestore
0.800 setlinewidth
[2.96 1.28] 0 setdash
0.502 setgray
gsave
446.4 332.6 72 47.52 clipbox
473.862499 47.52 m
473.862499 380.16 l
stroke
grestore
0.600 setlinewidth
[] 0 setdash
0.000 setgray
gsave
/o {
gsave
newpath
translate
0.6 setlinewidth
1 setlinejoin
0 setlinecap
0 0 m
0 -2 l

gsave
0.000 setgray
fill
grestore
stroke
grestore
} bind def
473.862 47.52 o
grestore
0.800 setlinewidth
[2.96 1.28] 0 setdash
0.502 setgray
gsave
446.4 332.6 72 47.52 clipbox
478.226777 47.52 m
478.226777 380.16 l
stroke
grestore
0.600 setlinewidth
[] 0 setdash
0.000 setgray
gsave
/o {
gsave
newpath
translate
0.6 setlinewidth
1 setlinejoin
0 setlinecap
0 0 m
0 -2 l

gsave
0.000 setgray
fill
grestore
stroke
grestore
} bind def
478.227 47.52 o
grestore
0.800 setlinewidth
[2.96 1.28] 0 setdash
0.502 setgray
gsave
446.4 332.6 72 47.52 clipbox
507.814311 47.52 m
507.814311 380.16 l
stroke
grestore
0.600 setlinewidth
[] 0 setdash
0.000 setgray
gsave
/o {
gsave
newpath
translate
0.6 setlinewidth
1 setlinejoin
0 setlinecap
0 0 m
0 -2 l

gsave
0.000 setgray
fill
grestore
stroke
grestore
} bind def
507.814 47.52 o
grestore
/DejaVuSans findfont
12.000 scalefont
setfont
gsave
255.035937 15.395000 translate
0.000000 rotate
0.000000 0.000000 m /E glyphshow
7.582031 0.000000 m /n glyphshow
15.187500 0.000000 m /e glyphshow
22.570312 0.000000 m /r glyphshow
27.503906 0.000000 m /g glyphshow
35.121094 0.000000 m /y glyphshow
42.222656 0.000000 m /space glyphshow
46.037109 0.000000 m /parenleft glyphshow
50.718750 0.000000 m /G glyphshow
60.017578 0.000000 m /e glyphshow
67.400391 0.000000 m /V glyphshow
75.609375 0.000000 m /parenright glyphshow
grestore
0.800 setlinewidth
gsave
/o {
gsave
newpath
translate
0.8 setlinewidth
1 setlinejoin
0 setlinecap
0 0 m
-3.5 0 l

gsave
0.000 setgray
fill
grestore
stroke
grestore
} bind def
72 62.64 o
grestore
gsave
43.000000 57.890000 translate
0.000000 rotate
/DejaVuSans findfont
12.0 scalefont
setfont
0.000000 0.171875 moveto
/one glyphshow

7.634766 0.171875 moveto
/zero glyphshow

/DejaVuSans findfont
8.4 scalefont
setfont
15.384375 4.765625 moveto
/zero glyphshow


grestore
gsave
/o {
gsave
newpath
translate
0.8 setlinewidth
1 setlinejoin
0 setlinecap
0 0 m
-3.5 0 l

gsave
0.000 setgray
fill
grestore
stroke
grestore
} bind def
72 131.68 o
grestore
gsave
43.000000 126.930334 translate
0.000000 rotate
/DejaVuSans findfont
12.0 scalefont
setfont
0.000000 0.281250 moveto
/one glyphshow

7.634766 0.281250 moveto
/zero glyphshow

/DejaVuSans findfont
8.4 scalefont
setfont
15.384375 4.875000 moveto
/one glyphshow


grestore
gsave
/o {
gsave
newpath
translate
0.8 setlinewidth
1 setlinejoin
0 setlinecap
0 0 m
-3.5 0 l

gsave
0.000 setgray
fill
grestore
stroke
grestore
} bind def
72 200.721 o
grestore
gsave
43.000000 195.970668 translate
0.000000 rotate
/DejaVuSans findfont
12.0 scalefont
setfont
0.000000 0.171875 moveto
/one glyphshow

7.634766 0.171875 moveto
/zero glyphshow

/DejaVuSans findfont
8.4 scalefont
setfont
15.384375 4.765625 moveto
/two glyphshow


grestore
gsave
/o {
gsave
newpath
translate
0.8 setlinewidth
1 setlinejoin
0 setlinecap
0 0 m
-3.5 0 l

gsave
0.000 setgray
fill
grestore
stroke
grestore
} bind def
72 269.761 o
grestore
gsave
43.000000 265.011001 translate
0.000000 rotate
/DejaVuSans findfont
12.0 scalefont
setfont
0.000000 0.171875 moveto
/one glyphshow

7.634766 0.171875 moveto
/zero glyphshow

/DejaVuSans findfont
8.4 scalefont
setfont
15.384375 4.765625 moveto
/three glyphshow


grestore
gsave
/o {
gsave
newpath
translate
0.8 setlinewidth
1 setlinejoin
0 setlinecap
0 0 m
-3.5 0 l

gsave
0.000 setgray
fill
grestore
stroke
grestore
} bind def
72 338.801 o
grestore
gsave
43.000000 334.051335 translate
0.000000 rotate
/DejaVuSans findfont
12.0 scalefont
setfont
0.000000 0.281250 moveto
/one glyphshow

7.634766 0.281250 moveto
/zero glyphshow

/DejaVuSans findfont
8.4 scalefont
setfont
15.384375 4.875000 moveto
/four glyphshow


grestore
[2.96 1.28] 0 setdash
0.502 setgray
gsave
446.4 332.6 72 47.52 clipbox
72 47.323488 m
518.4 47.323488 l
stroke
grestore
0.600 setlinewidth
[] 0 setdash
0.000 setgray
gsave
/o {
gsave
newpath
translate
0.6 setlinewidth
1 setlinejoin
0 setlinecap
0 0 m
-2 0 l

gsave
0.000 setgray
fill
grestore
stroke
grestore
} bind def
72 47.3235 o
grestore
0.800 setlinewidth
[2.96 1.28] 0 setdash
0.502 setgray
gsave
446.4 332.6 72 47.52 clipbox
72 51.945517 m
518.4 51.945517 l
stroke
grestore
0.600 setlinewidth
[] 0 setdash
0.000 setgray
gsave
/o {
gsave
newpath
translate
0.6 setlinewidth
1 setlinejoin
0 setlinecap
0 0 m
-2 0 l

gsave
0.000 setgray
fill
grestore
stroke
grestore
} bind def
72 51.9455 o
grestore
0.800 setlinewidth
[2.96 1.28] 0 setdash
0.502 setgray
gsave
446.4 332.6 72 47.52 clipbox
72 55.9493 m
518.4 55.9493 l
stroke
grestore
0.600 setlinewidth
[] 0 setdash
0.000 setgray
gsave
/o {
gsave
newpath
translate
0.6 setlinewidth
1 setlinejoin
0 setlinecap
0 0 m
-2 0 l

gsave
0.000 setgray
fill
grestore
stroke
grestore
} bind def
72 55.9493 o
grestore
0.800 setlinewidth
[2.96 1.28] 0 setdash
0.502 setgray
gsave
446.4 332.6 72 47.52 clipbox
72 59.480888 m
518.4 59.480888 l
stroke
grestore
0.600 setlinewidth
[] 0 setdash
0.000 setgray
gsave
/o {
gsave
newpath
translate
0.6 setlinewidth
1 setlinejoin
0 setlinecap
0 0 m
-2 0 l

gsave
0.000 setgray
fill
grestore
stroke
grestore
} bind def
72 59.4809 o
grestore
0.800 setlinewidth
[2.96 1.28] 0 setdash
0.502 setgray
gsave
446.4 332.6 72 47.52 clipbox
72 83.423211 m
518.4 83.423211 l
stroke
grestore
0.600 setlinewidth
[] 0 setdash
0.000 setgray
gsave
/o {
gsave
newpath
translate
0.6 setlinewidth
1 setlinejoin
0 setlinecap
0 0 m
-2 0 l

gsave
0.000 setgray
fill
grestore
stroke
grestore
} bind def
72 83.4232 o
grestore
0.800 setlinewidth
[2.96 1.28] 0 setdash
0.502 setgray
gsave
446.4 332.6 72 47.52 clipbox
72 95.580611 m
518.4 95.580611 l
stroke
grestore
0.600 setlinewidth
[] 0 setdash
0.000 setgray
gsave
/o {
gsave
newpath
translate
0.6 setlinewidth
1 setlinejoin
0 setlinecap
0 0 m
-2 0 l

gsave
0.000 setgray
fill
grestore
stroke
grestore
} bind def
72 95.5806 o
grestore
0.800 setlinewidth
[2.96 1.28] 0 setdash
0.502 setgray
gsave
446.4 332.6 72 47.52 clipbox
72 104.206423 m
518.4 104.206423 l
stroke
grestore
0.600 setlinewidth
[] 0 setdash
0.000 setgray
gsave
/o {
gsave
newpath
translate
0.6 setlinewidth
1 setlinejoin
0 setlinecap
0 0 m
-2 0 l

gsave
0.000 setgray
fill
grestore
stroke
grestore
} bind def
72 104.206 o
grestore
0.800 setlinewidth
[2.96 1.28] 0 setdash
0.502 setgray
gsave
446.4 332.6 72 47.52 clipbox
72 110.897122 m
518.4 110.897122 l
stroke
grestore
0.600 setlinewidth
[] 0 setdash
0.000 setgray
gsave
/o {
gsave
newpath
translate
0.6 setlinewidth
1 setlinejoin
0 setlinecap
0 0 m
-2 0 l

gsave
0.000 setgray
fill
grestore
stroke
grestore
} bind def
72 110.897 o
grestore
0.800 setlinewidth
[2.96 1.28] 0 setdash
0.502 setgray
gsave
446.4 332.6 72 47.52 clipbox
72 116.363822 m
518.4 116.363822 l
stroke
grestore
0.600 setlinewidth
[] 0 setdash
0.000 setgray
gsave
/o {
gsave
newpath
translate
0.6 setlinewidth
1 setlinejoin
0 setlinecap
0 0 m
-2 0 l

gsave
0.000 setgray
fill
grestore
stroke
grestore
} bind def
72 116.364 o
grestore
0.800 setlinewidth
[2.96 1.28] 0 setdash
0.502 setgray
gsave
446.4 332.6 72 47.52 clipbox
72 120.985851 m
518.4 120.985851 l
stroke
grestore
0.600 setlinewidth
[] 0 setdash
0.000 setgray
gsave
/o {
gsave
newpath
translate
0.6 setlinewidth
1 setlinejoin
0 setlinecap
0 0 m
-2 0 l

gsave
0.000 setgray
fill
grestore
stroke
grestore
} bind def
72 120.986 o
grestore
0.800 setlinewidth
[2.96 1.28] 0 setdash
0.502 setgray
gsave
446.4 332.6 72 47.52 clipbox
72 124.989634 m
518.4 124.989634 l
stroke
grestore
0.600 setlinewidth
[] 0 setdash
0.000 setgray
gsave
/o {
gsave
newpath
translate
0.6 setlinewidth
1 setlinejoin
0 setlinecap
0 0 m
-2 0 l

gsave
0.000 setgray
fill
grestore
stroke
grestore
} bind def
72 124.99 o
grestore
0.800 setlinewidth
[2.96 1.28] 0 setdash
0.502 setgray
gsave
446.4 332.6 72 47.52 clipbox
72 128.521221 m
518.4 128.521221 l
stroke
grestore
0.600 setlinewidth
[] 0 setdash
0.000 setgray
gsave
/o {
gsave
newpath
translate
0.6 setlinewidth
1 setlinejoin
0 setlinecap
0 0 m
-2 0 l

gsave
0.000 setgray
fill
grestore
stroke
grestore
} bind def
72 128.521 o
grestore
0.800 setlinewidth
[2.96 1.28] 0 setdash
0.502 setgray
gsave
446.4 332.6 72 47.52 clipbox
72 152.463545 m
518.4 152.463545 l
stroke
grestore
0.600 setlinewidth
[] 0 setdash
0.000 setgray
gsave
/o {
gsave
newpath
translate
0.6 setlinewidth
1 setlinejoin
0 setlinecap
0 0 m
-2 0 l

gsave
0.000 setgray
fill
grestore
stroke
grestore
} bind def
72 152.464 o
grestore
0.800 setlinewidth
[2.96 1.28] 0 setdash
0.502 setgray
gsave
446.4 332.6 72 47.52 clipbox
72 164.620944 m
518.4 164.620944 l
stroke
grestore
0.600 setlinewidth
[] 0 setdash
0.000 setgray
gsave
/o {
gsave
newpath
translate
0.6 setlinewidth
1 setlinejoin
0 setlinecap
0 0 m
-2 0 l

gsave
0.000 setgray
fill
grestore
stroke
grestore
} bind def
72 164.621 o
grestore
0.800 setlinewidth
[2.96 1.28] 0 setdash
0.502 setgray
gsave
446.4 332.6 72 47.52 clipbox
72 173.246756 m
518.4 173.246756 l
stroke
grestore
0.600 setlinewidth
[] 0 setdash
0.000 setgray
gsave
/o {
gsave
newpath
translate
0.6 setlinewidth
1 setlinejoin
0 setlinecap
0 0 m
-2 0 l

gsave
0.000 setgray
fill
grestore
stroke
grestore
} bind def
72 173.247 o
grestore
0.800 setlinewidth
[2.96 1.28] 0 setdash
0.502 setgray
gsave
446.4 332.6 72 47.52 clipbox
72 179.937456 m
518.4 179.937456 l
stroke
grestore
0.600 setlinewidth
[] 0 setdash
0.000 setgray
gsave
/o {
gsave
newpath
translate
0.6 setlinewidth
1 setlinejoin
0 setlinecap
0 0 m
-2 0 l

gsave
0.000 setgray
fill
grestore
stroke
grestore
} bind def
72 179.937 o
grestore
0.800 setlinewidth
[2.96 1.28] 0 setdash
0.502 setgray
gsave
446.4 332.6 72 47.52 clipbox
72 185.404156 m
518.4 185.404156 l
stroke
grestore
0.600 setlinewidth
[] 0 setdash
0.000 setgray
gsave
/o {
gsave
newpath
translate
0.6 setlinewidth
1 setlinejoin
0 setlinecap
0 0 m
-2 0 l

gsave
0.000 setgray
fill
grestore
stroke
grestore
} bind def
72 185.404 o
grestore
0.800 setlinewidth
[2.96 1.28] 0 setdash
0.502 setgray
gsave
446.4 332.6 72 47.52 clipbox
72 190.026184 m
518.4 190.026184 l
stroke
grestore
0.600 setlinewidth
[] 0 setdash
0.000 setgray
gsave
/o {
gsave
newpath
translate
0.6 setlinewidth
1 setlinejoin
0 setlinecap
0 0 m
-2 0 l

gsave
0.000 setgray
fill
grestore
stroke
grestore
} bind def
72 190.026 o
grestore
0.800 setlinewidth
[2.96 1.28] 0 setdash
0.502 setgray
gsave
446.4 332.6 72 47.52 clipbox
72 194.029968 m
518.4 194.029968 l
stroke
grestore
0.600 setlinewidth
[] 0 setdash
0.000 setgray
gsave
/o {
gsave
newpath
translate
0.6 setlinewidth
1 setlinejoin
0 setlinecap
0 0 m
-2 0 l

gsave
0.000 setgray
fill
grestore
stroke
grestore
} bind def
72 194.03 o
grestore
0.800 setlinewidth
[2.96 1.28] 0 setdash
0.502 setgray
gsave
446.4 332.6 72 47.52 clipbox
72 197.561555 m
518.4 197.561555 l
stroke
grestore
0.600 setlinewidth
[] 0 setdash
0.000 setgray
gsave
/o {
gsave
newpath
translate
0.6 setlinewidth
1 setlinejoin
0 setlinecap
0 0 m
-2 0 l

gsave
0.000 setgray
fill
grestore
stroke
grestore
} bind def
72 197.562 o
grestore
0.800 setlinewidth
[2.96 1.28] 0 setdash
0.502 setgray
gsave
446.4 332.6 72 47.52 clipbox
72 221.503879 m
518.4 221.503879 l
stroke
grestore
0.600 setlinewidth
[] 0 setdash
0.000 setgray
gsave
/o {
gsave
newpath
translate
0.6 setlinewidth
1 setlinejoin
0 setlinecap
0 0 m
-2 0 l

gsave
0.000 setgray
fill
grestore
stroke
grestore
} bind def
72 221.504 o
grestore
0.800 setlinewidth
[2.96 1.28] 0 setdash
0.502 setgray
gsave
446.4 332.6 72 47.52 clipbox
72 233.661278 m
518.4 233.661278 l
stroke
grestore
0.600 setlinewidth
[] 0 setdash
0.000 setgray
gsave
/o {
gsave
newpath
translate
0.6 setlinewidth
1 setlinejoin
0 setlinecap
0 0 m
-2 0 l

gsave
0.000 setgray
fill
grestore
stroke
grestore
} bind def
72 233.661 o
grestore
0.800 setlinewidth
[2.96 1.28] 0 setdash
0.502 setgray
gsave
446.4 332.6 72 47.52 clipbox
72 242.28709 m
518.4 242.28709 l
stroke
grestore
0.600 setlinewidth
[] 0 setdash
0.000 setgray
gsave
/o {
gsave
newpath
translate
0.6 setlinewidth
1 setlinejoin
0 setlinecap
0 0 m
-2 0 l

gsave
0.000 setgray
fill
grestore
stroke
grestore
} bind def
72 242.287 o
grestore
0.800 setlinewidth
[2.96 1.28] 0 setdash
0.502 setgray
gsave
446.4 332.6 72 47.52 clipbox
72 248.97779 m
518.4 248.97779 l
stroke
grestore
0.600 setlinewidth
[] 0 setdash
0.000 setgray
gsave
/o {
gsave
newpath
translate
0.6 setlinewidth
1 setlinejoin
0 setlinecap
0 0 m
-2 0 l

gsave
0.000 setgray
fill
grestore
stroke
grestore
} bind def
72 248.978 o
grestore
0.800 setlinewidth
[2.96 1.28] 0 setdash
0.502 setgray
gsave
446.4 332.6 72 47.52 clipbox
72 254.44449 m
518.4 254.44449 l
stroke
grestore
0.600 setlinewidth
[] 0 setdash
0.000 setgray
gsave
/o {
gsave
newpath
translate
0.6 setlinewidth
1 setlinejoin
0 setlinecap
0 0 m
-2 0 l

gsave
0.000 setgray
fill
grestore
stroke
grestore
} bind def
72 254.444 o
grestore
0.800 setlinewidth
[2.96 1.28] 0 setdash
0.502 setgray
gsave
446.4 332.6 72 47.52 clipbox
72 259.066518 m
518.4 259.066518 l
stroke
grestore
0.600 setlinewidth
[] 0 setdash
0.000 setgray
gsave
/o {
gsave
newpath
translate
0.6 setlinewidth
1 setlinejoin
0 setlinecap
0 0 m
-2 0 l

gsave
0.000 setgray
fill
grestore
stroke
grestore
} bind def
72 259.067 o
grestore
0.800 setlinewidth
[2.96 1.28] 0 setdash
0.502 setgray
gsave
446.4 332.6 72 47.52 clipbox
72 263.070302 m
518.4 263.070302 l
stroke
grestore
0.600 setlinewidth
[] 0 setdash
0.000 setgray
gsave
/o {
gsave
newpath
translate
0.6 setlinewidth
1 setlinejoin
0 setlinecap
0 0 m
-2 0 l

gsave
0.000 setgray
fill
grestore
stroke
grestore
} bind def
72 263.07 o
grestore
0.800 setlinewidth
[2.96 1.28] 0 setdash
0.502 setgray
gsave
446.4 332.6 72 47.52 clipbox
72 266.601889 m
518.4 266.601889 l
stroke
grestore
0.600 setlinewidth
[] 0 setdash
0.000 setgray
gsave
/o {
gsave
newpath
translate
0.6 setlinewidth
1 setlinejoin
0 setlinecap
0 0 m
-2 0 l

gsave
0.000 setgray
fill
grestore
stroke
grestore
} bind def
72 266.602 o
grestore
0.800 setlinewidth
[2.96 1.28] 0 setdash
0.502 setgray
gsave
446.4 332.6 72 47.52 clipbox
72 290.544213 m
518.4 290.544213 l
stroke
grestore
0.600 setlinewidth
[] 0 setdash
0.000 setgray
gsave
/o {
gsave
newpath
translate
0.6 setlinewidth
1 setlinejoin
0 setlinecap
0 0 m
-2 0 l

gsave
0.000 setgray
fill
grestore
stroke
grestore
} bind def
72 290.544 o
grestore
0.800 setlinewidth
[2.96 1.28] 0 setdash
0.502 setgray
gsave
446.4 332.6 72 47.52 clipbox
72 302.701612 m
518.4 302.701612 l
stroke
grestore
0.600 setlinewidth
[] 0 setdash
0.000 setgray
gsave
/o {
gsave
newpath
translate
0.6 setlinewidth
1 setlinejoin
0 setlinecap
0 0 m
-2 0 l

gsave
0.000 setgray
fill
grestore
stroke
grestore
} bind def
72 302.702 o
grestore
0.800 setlinewidth
[2.96 1.28] 0 setdash
0.502 setgray
gsave
446.4 332.6 72 47.52 clipbox
72 311.327424 m
518.4 311.327424 l
stroke
grestore
0.600 setlinewidth
[] 0 setdash
0.000 setgray
gsave
/o {
gsave
newpath
translate
0.6 setlinewidth
1 setlinejoin
0 setlinecap
0 0 m
-2 0 l

gsave
0.000 setgray
fill
grestore
stroke
grestore
} bind def
72 311.327 o
grestore
0.800 setlinewidth
[2.96 1.28] 0 setdash
0.502 setgray
gsave
446.4 332.6 72 47.52 clipbox
72 318.018124 m
518.4 318.018124 l
stroke
grestore
0.600 setlinewidth
[] 0 setdash
0.000 setgray
gsave
/o {
gsave
newpath
translate
0.6 setlinewidth
1 setlinejoin
0 setlinecap
0 0 m
-2 0 l

gsave
0.000 setgray
fill
grestore
stroke
grestore
} bind def
72 318.018 o
grestore
0.800 setlinewidth
[2.96 1.28] 0 setdash
0.502 setgray
gsave
446.4 332.6 72 47.52 clipbox
72 323.484823 m
518.4 323.484823 l
stroke
grestore
0.600 setlinewidth
[] 0 setdash
0.000 setgray
gsave
/o {
gsave
newpath
translate
0.6 setlinewidth
1 setlinejoin
0 setlinecap
0 0 m
-2 0 l

gsave
0.000 setgray
fill
grestore
stroke
grestore
} bind def
72 323.485 o
grestore
0.800 setlinewidth
[2.96 1.28] 0 setdash
0.502 setgray
gsave
446.4 332.6 72 47.52 clipbox
72 328.106852 m
518.4 328.106852 l
stroke
grestore
0.600 setlinewidth
[] 0 setdash
0.000 setgray
gsave
/o {
gsave
newpath
translate
0.6 setlinewidth
1 setlinejoin
0 setlinecap
0 0 m
-2 0 l

gsave
0.000 setgray
fill
grestore
stroke
grestore
} bind def
72 328.107 o
grestore
0.800 setlinewidth
[2.96 1.28] 0 setdash
0.502 setgray
gsave
446.4 332.6 72 47.52 clipbox
72 332.110635 m
518.4 332.110635 l
stroke
grestore
0.600 setlinewidth
[] 0 setdash
0.000 setgray
gsave
/o {
gsave
newpath
translate
0.6 setlinewidth
1 setlinejoin
0 setlinecap
0 0 m
-2 0 l

gsave
0.000 setgray
fill
grestore
stroke
grestore
} bind def
72 332.111 o
grestore
0.800 setlinewidth
[2.96 1.28] 0 setdash
0.502 setgray
gsave
446.4 332.6 72 47.52 clipbox
72 335.642223 m
518.4 335.642223 l
stroke
grestore
0.600 setlinewidth
[] 0 setdash
0.000 setgray
gsave
/o {
gsave
newpath
translate
0.6 setlinewidth
1 setlinejoin
0 setlinecap
0 0 m
-2 0 l

gsave
0.000 setgray
fill
grestore
stroke
grestore
} bind def
72 335.642 o
grestore
0.800 setlinewidth
[2.96 1.28] 0 setdash
0.502 setgray
gsave
446.4 332.6 72 47.52 clipbox
72 359.584546 m
518.4 359.584546 l
stroke
grestore
0.600 setlinewidth
[] 0 setdash
0.000 setgray
gsave
/o {
gsave
newpath
translate
0.6 setlinewidth
1 setlinejoin
0 setlinecap
0 0 m
-2 0 l

gsave
0.000 setgray
fill
grestore
stroke
grestore
} bind def
72 359.585 o
grestore
0.800 setlinewidth
[2.96 1.28] 0 setdash
0.502 setgray
gsave
446.4 332.6 72 47.52 clipbox
72 371.741946 m
518.4 371.741946 l
stroke
grestore
0.600 setlinewidth
[] 0 setdash
0.000 setgray
gsave
/o {
gsave
newpath
translate
0.6 setlinewidth
1 setlinejoin
0 setlinecap
0 0 m
-2 0 l

gsave
0.000 setgray
fill
grestore
stroke
grestore
} bind def
72 371.742 o
grestore
0.800 setlinewidth
[2.96 1.28] 0 setdash
0.502 setgray
gsave
446.4 332.6 72 47.52 clipbox
72 380.367758 m
518.4 380.367758 l
stroke
grestore
0.600 setlinewidth
[] 0 setdash
0.000 setgray
gsave
/o {
gsave
newpath
translate
0.6 setlinewidth
1 setlinejoin
0 setlinecap
0 0 m
-2 0 l

gsave
0.000 setgray
fill
grestore
stroke
grestore
} bind def
72 380.368 o
grestore
gsave
36.500000 173.840000 translate
90.000000 rotate
/DejaVuSans findfont
12.0 scalefont
setfont
0.000000 0.171875 moveto
/C glyphshow

8.378906 0.171875 moveto
/o glyphshow

15.720703 0.171875 moveto
/u glyphshow

23.326172 0.171875 moveto
/n glyphshow

30.931641 0.171875 moveto
/t glyphshow

35.636719 0.171875 moveto
/s glyphshow

41.888672 0.171875 moveto
/space glyphshow

45.703125 0.171875 moveto
/parenleft glyphshow

50.384766 0.171875 moveto
/m glyphshow

/DejaVuSans findfont
8.4 scalefont
setfont
62.189062 4.765625 moveto
/minus glyphshow

69.227344 4.765625 moveto
/two glyphshow

/DejaVuSans findfont
12.0 scalefont
setfont
74.899805 0.171875 moveto
/parenright glyphshow


grestore
0.800 setlinewidth
0 setlinejoin
2 setlinecap
[] 0 setdash
gsave
72 47.52 m
72 380.16 l
stroke
grestore
gsave
518.4 47.52 m
518.4 380.16 l
stroke
grestore
gsave
72 47.52 m
518.4 47.52 l
stroke
grestore
gsave
72 380.16 m
518.4 380.16 l
stroke
grestore
1.000 setlinewidth
0 setlinecap
0.800 setgray
gsave
433.178125 266.763125 m
510 266.763125 l
511.6 266.763125 512.4 267.563125 512.4 269.163125 c
512.4 371.76 l
512.4 373.36 511.6 374.16 510 374.16 c
433.178125 374.16 l
431.578125 374.16 430.778125 373.36 430.778125 371.76 c
430.778125 269.163125 l
430.778125 267.563125 431.578125 266.763125 433.178125 266.763125 c
cl
gsave
1.000 setgray
fill
grestore
stroke
grestore
0.000 setgray
/DejaVuSans findfont
10.000 scalefont
setfont
gsave
457.034375 361.766250 translate
0.000000 rotate
0.000000 0.000000 m /d glyphshow
6.347656 0.000000 m /e glyphshow
12.500000 0.000000 m /p glyphshow
18.847656 0.000000 m /t glyphshow
22.768555 0.000000 m /h glyphshow
grestore
gsave
435.578125 344.563125 m
459.578125 344.563125 l
459.578125 352.963125 l
435.578125 352.963125 l
cl
0.122 0.467 0.706 setrgbcolor
fill
grestore
/DejaVuSans findfont
12.000 scalefont
setfont
gsave
469.178125 344.563125 translate
0.000000 rotate
0.000000 0.000000 m /five glyphshow
7.634766 0.000000 m /zero glyphshow
15.269531 0.000000 m /space glyphshow
19.083984 0.000000 m /m glyphshow
grestore
gsave
435.578125 326.938125 m
459.578125 326.938125 l
459.578125 335.338125 l
435.578125 335.338125 l
cl
1.000 0.498 0.055 setrgbcolor
fill
grestore
gsave
469.178125 326.938125 translate
0.000000 rotate
0.000000 0.000000 m /one glyphshow
7.634766 0.000000 m /zero glyphshow
15.269531 0.000000 m /zero glyphshow
22.904297 0.000000 m /space glyphshow
26.718750 0.000000 m /m glyphshow
grestore
gsave
435.578125 309.313125 m
459.578125 309.313125 l
459.578125 317.713125 l
435.578125 317.713125 l
cl
0.173 0.627 0.173 setrgbcolor
fill
grestore
gsave
469.178125 309.313125 translate
0.000000 rotate
0.000000 0.000000 m /two glyphshow
7.634766 0.000000 m /zero glyphshow
15.269531 0.000000 m /zero glyphshow
22.904297 0.000000 m /space glyphshow
26.718750 0.000000 m /m glyphshow
grestore
gsave
435.578125 291.688125 m
459.578125 291.688125 l
459.578125 300.088125 l
435.578125 300.088125 l
cl
0.839 0.153 0.157 setrgbcolor
fill
grestore
gsave
469.178125 291.688125 translate
0.000000 rotate
0.000000 0.000000 m /five glyphshow
7.634766 0.000000 m /zero glyphshow
15.269531 0.000000 m /zero glyphshow
22.904297 0.000000 m /space glyphshow
26.718750 0.000000 m /m glyphshow
grestore
gsave
435.578125 274.063125 m
459.578125 274.063125 l
459.578125 282.463125 l
435.578125 282.463125 l
cl
0.580 0.404 0.741 setrgbcolor
fill
grestore
gsave
469.178125 274.063125 translate
0.000000 rotate
0.000000 0.000000 m /seven glyphshow
7.634766 0.000000 m /zero glyphshow
15.269531 0.000000 m /zero glyphshow
22.904297 0.000000 m /space glyphshow
26.718750 0.000000 m /m glyphshow
grestore

end
showpage
