%!PS-Adobe-3.0 EPSF-3.0
%%Title: /home/hmoss/FinalMuonReportPlots/June2019/FixedPhi/MachinMuonSpectrumAllDistances_Normalised.eps
%%Creator: matplotlib version 2.2.3, http://matplotlib.org/
%%CreationDate: Sun Jun  2 16:49:41 2019
%%Orientation: portrait
%%BoundingBox: -54 180 666 612
%%EndComments
%%BeginProlog
/mpldict 8 dict def
mpldict begin
/m { moveto } bind def
/l { lineto } bind def
/r { rlineto } bind def
/c { curveto } bind def
/cl { closepath } bind def
/box {
m
1 index 0 r
0 exch r
neg 0 r
cl
} bind def
/clipbox {
box
clip
newpath
} bind def
%!PS-Adobe-3.0 Resource-Font
%%Title: DejaVu Sans
%%Copyright: Copyright (c) 2003 by Bitstream, Inc. All Rights Reserved. Copyright (c) 2006 by Tavmjong Bah. All Rights Reserved. DejaVu changes are in public domain 
%%Creator: Converted from TrueType to type 3 by PPR
25 dict begin
/_d{bind def}bind def
/_m{moveto}_d
/_l{lineto}_d
/_cl{closepath eofill}_d
/_c{curveto}_d
/_sc{7 -1 roll{setcachedevice}{pop pop pop pop pop pop}ifelse}_d
/_e{exec}_d
/FontName /DejaVuSans def
/PaintType 0 def
/FontMatrix[.001 0 0 .001 0 0]def
/FontBBox[-1021 -463 1793 1232]def
/FontType 3 def
/Encoding [ /space /numbersign /parenleft /parenright /period /zero /one /two /three /five /six /seven /eight /nine /C /E /G /M /V /a /c /e /g /h /i /l /m /n /o /p /r /s /t /u /v /y /minus ] def
/FontInfo 10 dict dup begin
/FamilyName (DejaVu Sans) def
/FullName (DejaVu Sans) def
/Notice (Copyright (c) 2003 by Bitstream, Inc. All Rights Reserved. Copyright (c) 2006 by Tavmjong Bah. All Rights Reserved. DejaVu changes are in public domain ) def
/Weight (Book) def
/Version (Version 2.35) def
/ItalicAngle 0.0 def
/isFixedPitch false def
/UnderlinePosition -130 def
/UnderlineThickness 90 def
end readonly def
/CharStrings 38 dict dup begin
/.notdef 0 def
/space{318 0 0 0 0 0 _sc
}_d
/numbersign{{838 0 77 0 761 718 _sc
511 440 _m
369 440 _l
328 277 _l
471 277 _l
511 440 _l
438 718 _m
387 515 _l
530 515 _l
581 718 _l
659 718 _l
609 515 _l
761 515 _l
761 440 _l
590 440 _l
550 277 _l
705 277 _l
705 202 _l
531 202 _l
480 0 _l
402 0 _l
452 202 _l
309 202 _l
259 0 _l
180 0 _l
231 202 _l
77 202 _l
77 277 _l
249 277 _l
290 440 _l
133 440 _l
}_e{133 515 _l
309 515 _l
359 718 _l
438 718 _l
_cl}_e}_d
/parenleft{390 0 86 -131 310 759 _sc
310 759 _m
266 683 234 609 213 536 _c
191 463 181 389 181 314 _c
181 238 191 164 213 91 _c
234 17 266 -56 310 -131 _c
232 -131 _l
183 -54 146 20 122 94 _c
98 168 86 241 86 314 _c
86 386 98 459 122 533 _c
146 607 182 682 232 759 _c
310 759 _l
_cl}_d
/parenright{390 0 80 -131 304 759 _sc
80 759 _m
158 759 _l
206 682 243 607 267 533 _c
291 459 304 386 304 314 _c
304 241 291 168 267 94 _c
243 20 206 -54 158 -131 _c
80 -131 _l
123 -56 155 17 177 91 _c
198 164 209 238 209 314 _c
209 389 198 463 177 536 _c
155 609 123 683 80 759 _c
_cl}_d
/period{318 0 107 0 210 124 _sc
107 124 _m
210 124 _l
210 0 _l
107 0 _l
107 124 _l
_cl}_d
/zero{636 0 66 -13 570 742 _sc
318 664 _m
267 664 229 639 203 589 _c
177 539 165 464 165 364 _c
165 264 177 189 203 139 _c
229 89 267 64 318 64 _c
369 64 407 89 433 139 _c
458 189 471 264 471 364 _c
471 464 458 539 433 589 _c
407 639 369 664 318 664 _c
318 742 _m
399 742 461 709 505 645 _c
548 580 570 486 570 364 _c
570 241 548 147 505 83 _c
461 19 399 -13 318 -13 _c
236 -13 173 19 130 83 _c
87 147 66 241 66 364 _c
66 486 87 580 130 645 _c
173 709 236 742 318 742 _c
_cl}_d
/one{636 0 110 0 544 729 _sc
124 83 _m
285 83 _l
285 639 _l
110 604 _l
110 694 _l
284 729 _l
383 729 _l
383 83 _l
544 83 _l
544 0 _l
124 0 _l
124 83 _l
_cl}_d
/two{{636 0 73 0 536 742 _sc
192 83 _m
536 83 _l
536 0 _l
73 0 _l
73 83 _l
110 121 161 173 226 239 _c
290 304 331 346 348 365 _c
380 400 402 430 414 455 _c
426 479 433 504 433 528 _c
433 566 419 598 392 622 _c
365 646 330 659 286 659 _c
255 659 222 653 188 643 _c
154 632 117 616 78 594 _c
78 694 _l
118 710 155 722 189 730 _c
223 738 255 742 284 742 _c
}_e{359 742 419 723 464 685 _c
509 647 532 597 532 534 _c
532 504 526 475 515 449 _c
504 422 484 390 454 354 _c
446 344 420 317 376 272 _c
332 227 271 164 192 83 _c
_cl}_e}_d
/three{{636 0 76 -13 556 742 _sc
406 393 _m
453 383 490 362 516 330 _c
542 298 556 258 556 212 _c
556 140 531 84 482 45 _c
432 6 362 -13 271 -13 _c
240 -13 208 -10 176 -4 _c
144 1 110 10 76 22 _c
76 117 _l
103 101 133 89 166 81 _c
198 73 232 69 268 69 _c
330 69 377 81 409 105 _c
441 129 458 165 458 212 _c
458 254 443 288 413 312 _c
383 336 341 349 287 349 _c
}_e{202 349 _l
202 430 _l
291 430 _l
339 430 376 439 402 459 _c
428 478 441 506 441 543 _c
441 580 427 609 401 629 _c
374 649 336 659 287 659 _c
260 659 231 656 200 650 _c
169 644 135 635 98 623 _c
98 711 _l
135 721 170 729 203 734 _c
235 739 266 742 296 742 _c
370 742 429 725 473 691 _c
517 657 539 611 539 553 _c
539 513 527 479 504 451 _c
481 423 448 403 406 393 _c
_cl}_e}_d
/five{{636 0 77 -13 549 729 _sc
108 729 _m
495 729 _l
495 646 _l
198 646 _l
198 467 _l
212 472 227 476 241 478 _c
255 480 270 482 284 482 _c
365 482 429 459 477 415 _c
525 370 549 310 549 234 _c
549 155 524 94 475 51 _c
426 8 357 -13 269 -13 _c
238 -13 207 -10 175 -6 _c
143 -1 111 6 77 17 _c
77 116 _l
106 100 136 88 168 80 _c
199 72 232 69 267 69 _c
}_e{323 69 368 83 401 113 _c
433 143 450 183 450 234 _c
450 284 433 324 401 354 _c
368 384 323 399 267 399 _c
241 399 214 396 188 390 _c
162 384 135 375 108 363 _c
108 729 _l
_cl}_e}_d
/six{{636 0 70 -13 573 742 _sc
330 404 _m
286 404 251 388 225 358 _c
199 328 186 286 186 234 _c
186 181 199 139 225 109 _c
251 79 286 64 330 64 _c
374 64 409 79 435 109 _c
461 139 474 181 474 234 _c
474 286 461 328 435 358 _c
409 388 374 404 330 404 _c
526 713 _m
526 623 _l
501 635 476 644 451 650 _c
425 656 400 659 376 659 _c
310 659 260 637 226 593 _c
}_e{192 549 172 482 168 394 _c
187 422 211 444 240 459 _c
269 474 301 482 336 482 _c
409 482 467 459 509 415 _c
551 371 573 310 573 234 _c
573 159 550 99 506 54 _c
462 9 403 -13 330 -13 _c
246 -13 181 19 137 83 _c
92 147 70 241 70 364 _c
70 479 97 571 152 639 _c
206 707 280 742 372 742 _c
396 742 421 739 447 735 _c
472 730 498 723 526 713 _c
_cl}_e}_d
/seven{636 0 82 0 551 729 _sc
82 729 _m
551 729 _l
551 687 _l
286 0 _l
183 0 _l
432 646 _l
82 646 _l
82 729 _l
_cl}_d
/eight{{636 0 68 -13 568 742 _sc
318 346 _m
271 346 234 333 207 308 _c
180 283 167 249 167 205 _c
167 161 180 126 207 101 _c
234 76 271 64 318 64 _c
364 64 401 76 428 102 _c
455 127 469 161 469 205 _c
469 249 455 283 429 308 _c
402 333 365 346 318 346 _c
219 388 _m
177 398 144 418 120 447 _c
96 476 85 511 85 553 _c
85 611 105 657 147 691 _c
188 725 245 742 318 742 _c
}_e{390 742 447 725 489 691 _c
530 657 551 611 551 553 _c
551 511 539 476 515 447 _c
491 418 459 398 417 388 _c
464 377 501 355 528 323 _c
554 291 568 251 568 205 _c
568 134 546 80 503 43 _c
459 5 398 -13 318 -13 _c
237 -13 175 5 132 43 _c
89 80 68 134 68 205 _c
68 251 81 291 108 323 _c
134 355 171 377 219 388 _c
183 544 _m
183 506 194 476 218 455 _c
}_e{242 434 275 424 318 424 _c
360 424 393 434 417 455 _c
441 476 453 506 453 544 _c
453 582 441 611 417 632 _c
393 653 360 664 318 664 _c
275 664 242 653 218 632 _c
194 611 183 582 183 544 _c
_cl}_e}_d
/nine{{636 0 63 -13 566 742 _sc
110 15 _m
110 105 _l
134 93 159 84 185 78 _c
210 72 235 69 260 69 _c
324 69 374 90 408 134 _c
442 178 462 244 468 334 _c
448 306 424 284 396 269 _c
367 254 335 247 300 247 _c
226 247 168 269 126 313 _c
84 357 63 417 63 494 _c
63 568 85 628 129 674 _c
173 719 232 742 306 742 _c
390 742 455 709 499 645 _c
543 580 566 486 566 364 _c
}_e{566 248 538 157 484 89 _c
429 21 356 -13 264 -13 _c
239 -13 214 -10 189 -6 _c
163 -2 137 5 110 15 _c
306 324 _m
350 324 385 339 411 369 _c
437 399 450 441 450 494 _c
450 546 437 588 411 618 _c
385 648 350 664 306 664 _c
262 664 227 648 201 618 _c
175 588 162 546 162 494 _c
162 441 175 399 201 369 _c
227 339 262 324 306 324 _c
_cl}_e}_d
/C{{698 0 56 -13 644 742 _sc
644 673 _m
644 569 _l
610 599 575 622 537 638 _c
499 653 460 661 418 661 _c
334 661 270 635 226 584 _c
182 533 160 460 160 364 _c
160 268 182 194 226 143 _c
270 92 334 67 418 67 _c
460 67 499 74 537 90 _c
575 105 610 128 644 159 _c
644 56 _l
609 32 572 15 534 4 _c
496 -7 455 -13 412 -13 _c
302 -13 215 20 151 87 _c
}_e{87 154 56 246 56 364 _c
56 481 87 573 151 641 _c
215 708 302 742 412 742 _c
456 742 497 736 535 725 _c
573 713 610 696 644 673 _c
_cl}_e}_d
/E{632 0 98 0 568 729 _sc
98 729 _m
559 729 _l
559 646 _l
197 646 _l
197 430 _l
544 430 _l
544 347 _l
197 347 _l
197 83 _l
568 83 _l
568 0 _l
98 0 _l
98 729 _l
_cl}_d
/G{{775 0 56 -13 693 742 _sc
595 104 _m
595 300 _l
434 300 _l
434 381 _l
693 381 _l
693 68 _l
655 40 613 20 567 7 _c
521 -6 472 -13 420 -13 _c
306 -13 216 20 152 86 _c
88 152 56 245 56 364 _c
56 482 88 575 152 642 _c
216 708 306 742 420 742 _c
467 742 512 736 555 724 _c
598 712 638 695 674 673 _c
674 568 _l
637 598 598 621 557 637 _c
516 653 473 661 428 661 _c
}_e{338 661 271 636 227 586 _c
182 536 160 462 160 364 _c
160 265 182 191 227 141 _c
271 91 338 67 428 67 _c
462 67 493 70 521 76 _c
549 82 573 91 595 104 _c
_cl}_e}_d
/M{863 0 98 0 765 729 _sc
98 729 _m
245 729 _l
431 233 _l
618 729 _l
765 729 _l
765 0 _l
669 0 _l
669 640 _l
481 140 _l
382 140 _l
194 640 _l
194 0 _l
98 0 _l
98 729 _l
_cl}_d
/V{684 0 8 0 676 729 _sc
286 0 _m
8 729 _l
111 729 _l
342 115 _l
573 729 _l
676 729 _l
398 0 _l
286 0 _l
_cl}_d
/a{{613 0 60 -13 522 560 _sc
343 275 _m
270 275 220 266 192 250 _c
164 233 150 205 150 165 _c
150 133 160 107 181 89 _c
202 70 231 61 267 61 _c
317 61 357 78 387 114 _c
417 149 432 196 432 255 _c
432 275 _l
343 275 _l
522 312 _m
522 0 _l
432 0 _l
432 83 _l
411 49 385 25 355 10 _c
325 -5 287 -13 243 -13 _c
187 -13 142 2 109 33 _c
76 64 60 106 60 159 _c
}_e{60 220 80 266 122 298 _c
163 329 224 345 306 345 _c
432 345 _l
432 354 _l
432 395 418 427 391 450 _c
364 472 326 484 277 484 _c
245 484 215 480 185 472 _c
155 464 127 453 100 439 _c
100 522 _l
132 534 164 544 195 550 _c
226 556 256 560 286 560 _c
365 560 424 539 463 498 _c
502 457 522 395 522 312 _c
_cl}_e}_d
/c{{550 0 55 -13 488 560 _sc
488 526 _m
488 442 _l
462 456 437 466 411 473 _c
385 480 360 484 334 484 _c
276 484 230 465 198 428 _c
166 391 150 339 150 273 _c
150 206 166 154 198 117 _c
230 80 276 62 334 62 _c
360 62 385 65 411 72 _c
437 79 462 90 488 104 _c
488 21 _l
462 9 436 0 410 -5 _c
383 -10 354 -13 324 -13 _c
242 -13 176 12 128 64 _c
}_e{79 115 55 185 55 273 _c
55 362 79 432 128 483 _c
177 534 244 560 330 560 _c
358 560 385 557 411 551 _c
437 545 463 537 488 526 _c
_cl}_e}_d
/e{{615 0 55 -13 562 560 _sc
562 296 _m
562 252 _l
149 252 _l
153 190 171 142 205 110 _c
238 78 284 62 344 62 _c
378 62 412 66 444 74 _c
476 82 509 95 541 113 _c
541 28 _l
509 14 476 3 442 -3 _c
408 -9 373 -13 339 -13 _c
251 -13 182 12 131 62 _c
80 112 55 181 55 268 _c
55 357 79 428 127 481 _c
175 533 241 560 323 560 _c
397 560 455 536 498 489 _c
}_e{540 441 562 377 562 296 _c
472 322 _m
471 371 457 410 431 440 _c
404 469 368 484 324 484 _c
274 484 234 469 204 441 _c
174 413 156 373 152 322 _c
472 322 _l
_cl}_e}_d
/g{{635 0 55 -207 544 560 _sc
454 280 _m
454 344 440 395 414 431 _c
387 467 349 485 301 485 _c
253 485 215 467 188 431 _c
161 395 148 344 148 280 _c
148 215 161 165 188 129 _c
215 93 253 75 301 75 _c
349 75 387 93 414 129 _c
440 165 454 215 454 280 _c
544 68 _m
544 -24 523 -93 482 -139 _c
440 -184 377 -207 292 -207 _c
260 -207 231 -204 203 -200 _c
175 -195 147 -188 121 -178 _c
}_e{121 -91 _l
147 -105 173 -115 199 -122 _c
225 -129 251 -133 278 -133 _c
336 -133 380 -117 410 -87 _c
439 -56 454 -10 454 52 _c
454 96 _l
435 64 411 40 382 24 _c
353 8 319 0 279 0 _c
211 0 157 25 116 76 _c
75 127 55 195 55 280 _c
55 364 75 432 116 483 _c
157 534 211 560 279 560 _c
319 560 353 552 382 536 _c
411 520 435 496 454 464 _c
454 547 _l
544 547 _l
}_e{544 68 _l
_cl}_e}_d
/h{634 0 91 0 549 760 _sc
549 330 _m
549 0 _l
459 0 _l
459 327 _l
459 379 448 417 428 443 _c
408 469 378 482 338 482 _c
289 482 251 466 223 435 _c
195 404 181 362 181 309 _c
181 0 _l
91 0 _l
91 760 _l
181 760 _l
181 462 _l
202 494 227 519 257 535 _c
286 551 320 560 358 560 _c
420 560 468 540 500 501 _c
532 462 549 405 549 330 _c
_cl}_d
/i{278 0 94 0 184 760 _sc
94 547 _m
184 547 _l
184 0 _l
94 0 _l
94 547 _l
94 760 _m
184 760 _l
184 646 _l
94 646 _l
94 760 _l
_cl}_d
/l{278 0 94 0 184 760 _sc
94 760 _m
184 760 _l
184 0 _l
94 0 _l
94 760 _l
_cl}_d
/m{{974 0 91 0 889 560 _sc
520 442 _m
542 482 569 511 600 531 _c
631 550 668 560 711 560 _c
767 560 811 540 842 500 _c
873 460 889 403 889 330 _c
889 0 _l
799 0 _l
799 327 _l
799 379 789 418 771 444 _c
752 469 724 482 686 482 _c
639 482 602 466 575 435 _c
548 404 535 362 535 309 _c
535 0 _l
445 0 _l
445 327 _l
445 379 435 418 417 444 _c
398 469 369 482 331 482 _c
}_e{285 482 248 466 221 435 _c
194 404 181 362 181 309 _c
181 0 _l
91 0 _l
91 547 _l
181 547 _l
181 462 _l
201 495 226 520 255 536 _c
283 552 317 560 357 560 _c
397 560 430 550 458 530 _c
486 510 506 480 520 442 _c
_cl}_e}_d
/n{634 0 91 0 549 560 _sc
549 330 _m
549 0 _l
459 0 _l
459 327 _l
459 379 448 417 428 443 _c
408 469 378 482 338 482 _c
289 482 251 466 223 435 _c
195 404 181 362 181 309 _c
181 0 _l
91 0 _l
91 547 _l
181 547 _l
181 462 _l
202 494 227 519 257 535 _c
286 551 320 560 358 560 _c
420 560 468 540 500 501 _c
532 462 549 405 549 330 _c
_cl}_d
/o{612 0 55 -13 557 560 _sc
306 484 _m
258 484 220 465 192 427 _c
164 389 150 338 150 273 _c
150 207 163 156 191 118 _c
219 80 257 62 306 62 _c
354 62 392 80 420 118 _c
448 156 462 207 462 273 _c
462 337 448 389 420 427 _c
392 465 354 484 306 484 _c
306 560 _m
384 560 445 534 490 484 _c
534 433 557 363 557 273 _c
557 183 534 113 490 63 _c
445 12 384 -13 306 -13 _c
227 -13 165 12 121 63 _c
77 113 55 183 55 273 _c
55 363 77 433 121 484 _c
165 534 227 560 306 560 _c
_cl}_d
/p{{635 0 91 -207 580 560 _sc
181 82 _m
181 -207 _l
91 -207 _l
91 547 _l
181 547 _l
181 464 _l
199 496 223 520 252 536 _c
281 552 316 560 356 560 _c
422 560 476 533 518 481 _c
559 428 580 359 580 273 _c
580 187 559 117 518 65 _c
476 13 422 -13 356 -13 _c
316 -13 281 -5 252 10 _c
223 25 199 49 181 82 _c
487 273 _m
487 339 473 390 446 428 _c
418 466 381 485 334 485 _c
}_e{286 485 249 466 222 428 _c
194 390 181 339 181 273 _c
181 207 194 155 222 117 _c
249 79 286 61 334 61 _c
381 61 418 79 446 117 _c
473 155 487 207 487 273 _c
_cl}_e}_d
/r{411 0 91 0 411 560 _sc
411 463 _m
401 469 390 473 378 476 _c
366 478 353 480 339 480 _c
288 480 249 463 222 430 _c
194 397 181 350 181 288 _c
181 0 _l
91 0 _l
91 547 _l
181 547 _l
181 462 _l
199 495 224 520 254 536 _c
284 552 321 560 365 560 _c
371 560 378 559 386 559 _c
393 558 401 557 411 555 _c
411 463 _l
_cl}_d
/s{{521 0 54 -13 472 560 _sc
443 531 _m
443 446 _l
417 458 391 468 364 475 _c
336 481 308 485 279 485 _c
234 485 200 478 178 464 _c
156 450 145 430 145 403 _c
145 382 153 366 169 354 _c
185 342 217 330 265 320 _c
296 313 _l
360 299 405 279 432 255 _c
458 230 472 195 472 151 _c
472 100 452 60 412 31 _c
372 1 316 -13 246 -13 _c
216 -13 186 -10 154 -5 _c
}_e{122 0 89 8 54 20 _c
54 113 _l
87 95 120 82 152 74 _c
184 65 216 61 248 61 _c
290 61 323 68 346 82 _c
368 96 380 117 380 144 _c
380 168 371 187 355 200 _c
339 213 303 226 247 238 _c
216 245 _l
160 257 119 275 95 299 _c
70 323 58 356 58 399 _c
58 450 76 490 112 518 _c
148 546 200 560 268 560 _c
301 560 332 557 362 552 _c
391 547 418 540 443 531 _c
}_e{_cl}_e}_d
/t{392 0 27 0 368 702 _sc
183 702 _m
183 547 _l
368 547 _l
368 477 _l
183 477 _l
183 180 _l
183 135 189 106 201 94 _c
213 81 238 75 276 75 _c
368 75 _l
368 0 _l
276 0 _l
206 0 158 13 132 39 _c
106 65 93 112 93 180 _c
93 477 _l
27 477 _l
27 547 _l
93 547 _l
93 702 _l
183 702 _l
_cl}_d
/u{634 0 85 -13 543 560 _sc
85 216 _m
85 547 _l
175 547 _l
175 219 _l
175 167 185 129 205 103 _c
225 77 255 64 296 64 _c
344 64 383 79 411 110 _c
439 141 453 183 453 237 _c
453 547 _l
543 547 _l
543 0 _l
453 0 _l
453 84 _l
431 50 405 26 377 10 _c
348 -5 315 -13 277 -13 _c
214 -13 166 6 134 45 _c
101 83 85 140 85 216 _c
311 560 _m
311 560 _l
_cl}_d
/v{592 0 30 0 562 547 _sc
30 547 _m
125 547 _l
296 88 _l
467 547 _l
562 547 _l
357 0 _l
235 0 _l
30 547 _l
_cl}_d
/y{592 0 30 -207 562 547 _sc
322 -50 _m
296 -114 271 -157 247 -177 _c
223 -197 191 -207 151 -207 _c
79 -207 _l
79 -132 _l
132 -132 _l
156 -132 175 -126 189 -114 _c
203 -102 218 -75 235 -31 _c
251 9 _l
30 547 _l
125 547 _l
296 119 _l
467 547 _l
562 547 _l
322 -50 _l
_cl}_d
/minus{838 0 106 272 732 355 _sc
106 355 _m
732 355 _l
732 272 _l
106 272 _l
106 355 _l
_cl}_d
end readonly def

/BuildGlyph
 {exch begin
 CharStrings exch
 2 copy known not{pop /.notdef}if
 true 3 1 roll get exec
 end}_d

/BuildChar {
 1 index /Encoding get exch get
 1 index /BuildGlyph get exec
}_d

FontName currentdict end definefont pop
end
%%EndProlog
mpldict begin
-54 180 translate
720 432 0 0 clipbox
gsave
0 0 m
720 0 l
720 432 l
0 432 l
cl
1.000 setgray
fill
grestore
gsave
90 47.52 m
648 47.52 l
648 380.16 l
90 380.16 l
cl
1.000 setgray
fill
grestore
0.800 setlinewidth
1 setlinejoin
2 setlinecap
[] 0 setdash
0.690 setgray
gsave
558 332.6 90 47.52 clipbox
90 47.52 m
90 380.16 l
stroke
grestore
0 setlinecap
0.000 setgray
gsave
/o {
gsave
newpath
translate
0.8 setlinewidth
1 setlinejoin
0 setlinecap
0 0 m
0 -3.5 l

gsave
0.000 setgray
fill
grestore
stroke
grestore
} bind def
90 47.52 o
grestore
gsave
75.500000 31.020000 translate
0.000000 rotate
/DejaVuSans findfont
12.0 scalefont
setfont
0.000000 0.281250 moveto
/one glyphshow

7.634766 0.281250 moveto
/zero glyphshow

/DejaVuSans findfont
8.4 scalefont
setfont
15.384375 4.875000 moveto
/minus glyphshow

22.422656 4.875000 moveto
/one glyphshow


grestore
2 setlinecap
0.690 setgray
gsave
558 332.6 90 47.52 clipbox
229.5 47.52 m
229.5 380.16 l
stroke
grestore
0 setlinecap
0.000 setgray
gsave
/o {
gsave
newpath
translate
0.8 setlinewidth
1 setlinejoin
0 setlinecap
0 0 m
0 -3.5 l

gsave
0.000 setgray
fill
grestore
stroke
grestore
} bind def
229.5 47.52 o
grestore
gsave
218.500000 31.020000 translate
0.000000 rotate
/DejaVuSans findfont
12.0 scalefont
setfont
0.000000 0.171875 moveto
/one glyphshow

7.634766 0.171875 moveto
/zero glyphshow

/DejaVuSans findfont
8.4 scalefont
setfont
15.384375 4.765625 moveto
/zero glyphshow


grestore
2 setlinecap
0.690 setgray
gsave
558 332.6 90 47.52 clipbox
369 47.52 m
369 380.16 l
stroke
grestore
0 setlinecap
0.000 setgray
gsave
/o {
gsave
newpath
translate
0.8 setlinewidth
1 setlinejoin
0 setlinecap
0 0 m
0 -3.5 l

gsave
0.000 setgray
fill
grestore
stroke
grestore
} bind def
369 47.52 o
grestore
gsave
358.000000 31.020000 translate
0.000000 rotate
/DejaVuSans findfont
12.0 scalefont
setfont
0.000000 0.281250 moveto
/one glyphshow

7.634766 0.281250 moveto
/zero glyphshow

/DejaVuSans findfont
8.4 scalefont
setfont
15.384375 4.875000 moveto
/one glyphshow


grestore
2 setlinecap
0.690 setgray
gsave
558 332.6 90 47.52 clipbox
508.5 47.52 m
508.5 380.16 l
stroke
grestore
0 setlinecap
0.000 setgray
gsave
/o {
gsave
newpath
translate
0.8 setlinewidth
1 setlinejoin
0 setlinecap
0 0 m
0 -3.5 l

gsave
0.000 setgray
fill
grestore
stroke
grestore
} bind def
508.5 47.52 o
grestore
gsave
497.500000 31.020000 translate
0.000000 rotate
/DejaVuSans findfont
12.0 scalefont
setfont
0.000000 0.171875 moveto
/one glyphshow

7.634766 0.171875 moveto
/zero glyphshow

/DejaVuSans findfont
8.4 scalefont
setfont
15.384375 4.765625 moveto
/two glyphshow


grestore
2 setlinecap
0.690 setgray
gsave
558 332.6 90 47.52 clipbox
648 47.52 m
648 380.16 l
stroke
grestore
0 setlinecap
0.000 setgray
gsave
/o {
gsave
newpath
translate
0.8 setlinewidth
1 setlinejoin
0 setlinecap
0 0 m
0 -3.5 l

gsave
0.000 setgray
fill
grestore
stroke
grestore
} bind def
648 47.52 o
grestore
gsave
637.000000 31.020000 translate
0.000000 rotate
/DejaVuSans findfont
12.0 scalefont
setfont
0.000000 0.171875 moveto
/one glyphshow

7.634766 0.171875 moveto
/zero glyphshow

/DejaVuSans findfont
8.4 scalefont
setfont
15.384375 4.765625 moveto
/three glyphshow


grestore
[2.96 1.28] 0 setdash
0.690 setgray
gsave
558 332.6 90 47.52 clipbox
131.993684 47.52 m
131.993684 380.16 l
stroke
grestore
0.600 setlinewidth
[] 0 setdash
0.000 setgray
gsave
/o {
gsave
newpath
translate
0.6 setlinewidth
1 setlinejoin
0 setlinecap
0 0 m
0 -2 l

gsave
0.000 setgray
fill
grestore
stroke
grestore
} bind def
131.994 47.52 o
grestore
0.800 setlinewidth
[2.96 1.28] 0 setdash
0.690 setgray
gsave
558 332.6 90 47.52 clipbox
156.558415 47.52 m
156.558415 380.16 l
stroke
grestore
0.600 setlinewidth
[] 0 setdash
0.000 setgray
gsave
/o {
gsave
newpath
translate
0.6 setlinewidth
1 setlinejoin
0 setlinecap
0 0 m
0 -2 l

gsave
0.000 setgray
fill
grestore
stroke
grestore
} bind def
156.558 47.52 o
grestore
0.800 setlinewidth
[2.96 1.28] 0 setdash
0.690 setgray
gsave
558 332.6 90 47.52 clipbox
173.987369 47.52 m
173.987369 380.16 l
stroke
grestore
0.600 setlinewidth
[] 0 setdash
0.000 setgray
gsave
/o {
gsave
newpath
translate
0.6 setlinewidth
1 setlinejoin
0 setlinecap
0 0 m
0 -2 l

gsave
0.000 setgray
fill
grestore
stroke
grestore
} bind def
173.987 47.52 o
grestore
0.800 setlinewidth
[2.96 1.28] 0 setdash
0.690 setgray
gsave
558 332.6 90 47.52 clipbox
187.506316 47.52 m
187.506316 380.16 l
stroke
grestore
0.600 setlinewidth
[] 0 setdash
0.000 setgray
gsave
/o {
gsave
newpath
translate
0.6 setlinewidth
1 setlinejoin
0 setlinecap
0 0 m
0 -2 l

gsave
0.000 setgray
fill
grestore
stroke
grestore
} bind def
187.506 47.52 o
grestore
0.800 setlinewidth
[2.96 1.28] 0 setdash
0.690 setgray
gsave
558 332.6 90 47.52 clipbox
198.552099 47.52 m
198.552099 380.16 l
stroke
grestore
0.600 setlinewidth
[] 0 setdash
0.000 setgray
gsave
/o {
gsave
newpath
translate
0.6 setlinewidth
1 setlinejoin
0 setlinecap
0 0 m
0 -2 l

gsave
0.000 setgray
fill
grestore
stroke
grestore
} bind def
198.552 47.52 o
grestore
0.800 setlinewidth
[2.96 1.28] 0 setdash
0.690 setgray
gsave
558 332.6 90 47.52 clipbox
207.891177 47.52 m
207.891177 380.16 l
stroke
grestore
0.600 setlinewidth
[] 0 setdash
0.000 setgray
gsave
/o {
gsave
newpath
translate
0.6 setlinewidth
1 setlinejoin
0 setlinecap
0 0 m
0 -2 l

gsave
0.000 setgray
fill
grestore
stroke
grestore
} bind def
207.891 47.52 o
grestore
0.800 setlinewidth
[2.96 1.28] 0 setdash
0.690 setgray
gsave
558 332.6 90 47.52 clipbox
215.981053 47.52 m
215.981053 380.16 l
stroke
grestore
0.600 setlinewidth
[] 0 setdash
0.000 setgray
gsave
/o {
gsave
newpath
translate
0.6 setlinewidth
1 setlinejoin
0 setlinecap
0 0 m
0 -2 l

gsave
0.000 setgray
fill
grestore
stroke
grestore
} bind def
215.981 47.52 o
grestore
0.800 setlinewidth
[2.96 1.28] 0 setdash
0.690 setgray
gsave
558 332.6 90 47.52 clipbox
223.11683 47.52 m
223.11683 380.16 l
stroke
grestore
0.600 setlinewidth
[] 0 setdash
0.000 setgray
gsave
/o {
gsave
newpath
translate
0.6 setlinewidth
1 setlinejoin
0 setlinecap
0 0 m
0 -2 l

gsave
0.000 setgray
fill
grestore
stroke
grestore
} bind def
223.117 47.52 o
grestore
0.800 setlinewidth
[2.96 1.28] 0 setdash
0.690 setgray
gsave
558 332.6 90 47.52 clipbox
271.493684 47.52 m
271.493684 380.16 l
stroke
grestore
0.600 setlinewidth
[] 0 setdash
0.000 setgray
gsave
/o {
gsave
newpath
translate
0.6 setlinewidth
1 setlinejoin
0 setlinecap
0 0 m
0 -2 l

gsave
0.000 setgray
fill
grestore
stroke
grestore
} bind def
271.494 47.52 o
grestore
0.800 setlinewidth
[2.96 1.28] 0 setdash
0.690 setgray
gsave
558 332.6 90 47.52 clipbox
296.058415 47.52 m
296.058415 380.16 l
stroke
grestore
0.600 setlinewidth
[] 0 setdash
0.000 setgray
gsave
/o {
gsave
newpath
translate
0.6 setlinewidth
1 setlinejoin
0 setlinecap
0 0 m
0 -2 l

gsave
0.000 setgray
fill
grestore
stroke
grestore
} bind def
296.058 47.52 o
grestore
0.800 setlinewidth
[2.96 1.28] 0 setdash
0.690 setgray
gsave
558 332.6 90 47.52 clipbox
313.487369 47.52 m
313.487369 380.16 l
stroke
grestore
0.600 setlinewidth
[] 0 setdash
0.000 setgray
gsave
/o {
gsave
newpath
translate
0.6 setlinewidth
1 setlinejoin
0 setlinecap
0 0 m
0 -2 l

gsave
0.000 setgray
fill
grestore
stroke
grestore
} bind def
313.487 47.52 o
grestore
0.800 setlinewidth
[2.96 1.28] 0 setdash
0.690 setgray
gsave
558 332.6 90 47.52 clipbox
327.006316 47.52 m
327.006316 380.16 l
stroke
grestore
0.600 setlinewidth
[] 0 setdash
0.000 setgray
gsave
/o {
gsave
newpath
translate
0.6 setlinewidth
1 setlinejoin
0 setlinecap
0 0 m
0 -2 l

gsave
0.000 setgray
fill
grestore
stroke
grestore
} bind def
327.006 47.52 o
grestore
0.800 setlinewidth
[2.96 1.28] 0 setdash
0.690 setgray
gsave
558 332.6 90 47.52 clipbox
338.052099 47.52 m
338.052099 380.16 l
stroke
grestore
0.600 setlinewidth
[] 0 setdash
0.000 setgray
gsave
/o {
gsave
newpath
translate
0.6 setlinewidth
1 setlinejoin
0 setlinecap
0 0 m
0 -2 l

gsave
0.000 setgray
fill
grestore
stroke
grestore
} bind def
338.052 47.52 o
grestore
0.800 setlinewidth
[2.96 1.28] 0 setdash
0.690 setgray
gsave
558 332.6 90 47.52 clipbox
347.391177 47.52 m
347.391177 380.16 l
stroke
grestore
0.600 setlinewidth
[] 0 setdash
0.000 setgray
gsave
/o {
gsave
newpath
translate
0.6 setlinewidth
1 setlinejoin
0 setlinecap
0 0 m
0 -2 l

gsave
0.000 setgray
fill
grestore
stroke
grestore
} bind def
347.391 47.52 o
grestore
0.800 setlinewidth
[2.96 1.28] 0 setdash
0.690 setgray
gsave
558 332.6 90 47.52 clipbox
355.481053 47.52 m
355.481053 380.16 l
stroke
grestore
0.600 setlinewidth
[] 0 setdash
0.000 setgray
gsave
/o {
gsave
newpath
translate
0.6 setlinewidth
1 setlinejoin
0 setlinecap
0 0 m
0 -2 l

gsave
0.000 setgray
fill
grestore
stroke
grestore
} bind def
355.481 47.52 o
grestore
0.800 setlinewidth
[2.96 1.28] 0 setdash
0.690 setgray
gsave
558 332.6 90 47.52 clipbox
362.61683 47.52 m
362.61683 380.16 l
stroke
grestore
0.600 setlinewidth
[] 0 setdash
0.000 setgray
gsave
/o {
gsave
newpath
translate
0.6 setlinewidth
1 setlinejoin
0 setlinecap
0 0 m
0 -2 l

gsave
0.000 setgray
fill
grestore
stroke
grestore
} bind def
362.617 47.52 o
grestore
0.800 setlinewidth
[2.96 1.28] 0 setdash
0.690 setgray
gsave
558 332.6 90 47.52 clipbox
410.993684 47.52 m
410.993684 380.16 l
stroke
grestore
0.600 setlinewidth
[] 0 setdash
0.000 setgray
gsave
/o {
gsave
newpath
translate
0.6 setlinewidth
1 setlinejoin
0 setlinecap
0 0 m
0 -2 l

gsave
0.000 setgray
fill
grestore
stroke
grestore
} bind def
410.994 47.52 o
grestore
0.800 setlinewidth
[2.96 1.28] 0 setdash
0.690 setgray
gsave
558 332.6 90 47.52 clipbox
435.558415 47.52 m
435.558415 380.16 l
stroke
grestore
0.600 setlinewidth
[] 0 setdash
0.000 setgray
gsave
/o {
gsave
newpath
translate
0.6 setlinewidth
1 setlinejoin
0 setlinecap
0 0 m
0 -2 l

gsave
0.000 setgray
fill
grestore
stroke
grestore
} bind def
435.558 47.52 o
grestore
0.800 setlinewidth
[2.96 1.28] 0 setdash
0.690 setgray
gsave
558 332.6 90 47.52 clipbox
452.987369 47.52 m
452.987369 380.16 l
stroke
grestore
0.600 setlinewidth
[] 0 setdash
0.000 setgray
gsave
/o {
gsave
newpath
translate
0.6 setlinewidth
1 setlinejoin
0 setlinecap
0 0 m
0 -2 l

gsave
0.000 setgray
fill
grestore
stroke
grestore
} bind def
452.987 47.52 o
grestore
0.800 setlinewidth
[2.96 1.28] 0 setdash
0.690 setgray
gsave
558 332.6 90 47.52 clipbox
466.506316 47.52 m
466.506316 380.16 l
stroke
grestore
0.600 setlinewidth
[] 0 setdash
0.000 setgray
gsave
/o {
gsave
newpath
translate
0.6 setlinewidth
1 setlinejoin
0 setlinecap
0 0 m
0 -2 l

gsave
0.000 setgray
fill
grestore
stroke
grestore
} bind def
466.506 47.52 o
grestore
0.800 setlinewidth
[2.96 1.28] 0 setdash
0.690 setgray
gsave
558 332.6 90 47.52 clipbox
477.552099 47.52 m
477.552099 380.16 l
stroke
grestore
0.600 setlinewidth
[] 0 setdash
0.000 setgray
gsave
/o {
gsave
newpath
translate
0.6 setlinewidth
1 setlinejoin
0 setlinecap
0 0 m
0 -2 l

gsave
0.000 setgray
fill
grestore
stroke
grestore
} bind def
477.552 47.52 o
grestore
0.800 setlinewidth
[2.96 1.28] 0 setdash
0.690 setgray
gsave
558 332.6 90 47.52 clipbox
486.891177 47.52 m
486.891177 380.16 l
stroke
grestore
0.600 setlinewidth
[] 0 setdash
0.000 setgray
gsave
/o {
gsave
newpath
translate
0.6 setlinewidth
1 setlinejoin
0 setlinecap
0 0 m
0 -2 l

gsave
0.000 setgray
fill
grestore
stroke
grestore
} bind def
486.891 47.52 o
grestore
0.800 setlinewidth
[2.96 1.28] 0 setdash
0.690 setgray
gsave
558 332.6 90 47.52 clipbox
494.981053 47.52 m
494.981053 380.16 l
stroke
grestore
0.600 setlinewidth
[] 0 setdash
0.000 setgray
gsave
/o {
gsave
newpath
translate
0.6 setlinewidth
1 setlinejoin
0 setlinecap
0 0 m
0 -2 l

gsave
0.000 setgray
fill
grestore
stroke
grestore
} bind def
494.981 47.52 o
grestore
0.800 setlinewidth
[2.96 1.28] 0 setdash
0.690 setgray
gsave
558 332.6 90 47.52 clipbox
502.11683 47.52 m
502.11683 380.16 l
stroke
grestore
0.600 setlinewidth
[] 0 setdash
0.000 setgray
gsave
/o {
gsave
newpath
translate
0.6 setlinewidth
1 setlinejoin
0 setlinecap
0 0 m
0 -2 l

gsave
0.000 setgray
fill
grestore
stroke
grestore
} bind def
502.117 47.52 o
grestore
0.800 setlinewidth
[2.96 1.28] 0 setdash
0.690 setgray
gsave
558 332.6 90 47.52 clipbox
550.493684 47.52 m
550.493684 380.16 l
stroke
grestore
0.600 setlinewidth
[] 0 setdash
0.000 setgray
gsave
/o {
gsave
newpath
translate
0.6 setlinewidth
1 setlinejoin
0 setlinecap
0 0 m
0 -2 l

gsave
0.000 setgray
fill
grestore
stroke
grestore
} bind def
550.494 47.52 o
grestore
0.800 setlinewidth
[2.96 1.28] 0 setdash
0.690 setgray
gsave
558 332.6 90 47.52 clipbox
575.058415 47.52 m
575.058415 380.16 l
stroke
grestore
0.600 setlinewidth
[] 0 setdash
0.000 setgray
gsave
/o {
gsave
newpath
translate
0.6 setlinewidth
1 setlinejoin
0 setlinecap
0 0 m
0 -2 l

gsave
0.000 setgray
fill
grestore
stroke
grestore
} bind def
575.058 47.52 o
grestore
0.800 setlinewidth
[2.96 1.28] 0 setdash
0.690 setgray
gsave
558 332.6 90 47.52 clipbox
592.487369 47.52 m
592.487369 380.16 l
stroke
grestore
0.600 setlinewidth
[] 0 setdash
0.000 setgray
gsave
/o {
gsave
newpath
translate
0.6 setlinewidth
1 setlinejoin
0 setlinecap
0 0 m
0 -2 l

gsave
0.000 setgray
fill
grestore
stroke
grestore
} bind def
592.487 47.52 o
grestore
0.800 setlinewidth
[2.96 1.28] 0 setdash
0.690 setgray
gsave
558 332.6 90 47.52 clipbox
606.006316 47.52 m
606.006316 380.16 l
stroke
grestore
0.600 setlinewidth
[] 0 setdash
0.000 setgray
gsave
/o {
gsave
newpath
translate
0.6 setlinewidth
1 setlinejoin
0 setlinecap
0 0 m
0 -2 l

gsave
0.000 setgray
fill
grestore
stroke
grestore
} bind def
606.006 47.52 o
grestore
0.800 setlinewidth
[2.96 1.28] 0 setdash
0.690 setgray
gsave
558 332.6 90 47.52 clipbox
617.052099 47.52 m
617.052099 380.16 l
stroke
grestore
0.600 setlinewidth
[] 0 setdash
0.000 setgray
gsave
/o {
gsave
newpath
translate
0.6 setlinewidth
1 setlinejoin
0 setlinecap
0 0 m
0 -2 l

gsave
0.000 setgray
fill
grestore
stroke
grestore
} bind def
617.052 47.52 o
grestore
0.800 setlinewidth
[2.96 1.28] 0 setdash
0.690 setgray
gsave
558 332.6 90 47.52 clipbox
626.391177 47.52 m
626.391177 380.16 l
stroke
grestore
0.600 setlinewidth
[] 0 setdash
0.000 setgray
gsave
/o {
gsave
newpath
translate
0.6 setlinewidth
1 setlinejoin
0 setlinecap
0 0 m
0 -2 l

gsave
0.000 setgray
fill
grestore
stroke
grestore
} bind def
626.391 47.52 o
grestore
0.800 setlinewidth
[2.96 1.28] 0 setdash
0.690 setgray
gsave
558 332.6 90 47.52 clipbox
634.481053 47.52 m
634.481053 380.16 l
stroke
grestore
0.600 setlinewidth
[] 0 setdash
0.000 setgray
gsave
/o {
gsave
newpath
translate
0.6 setlinewidth
1 setlinejoin
0 setlinecap
0 0 m
0 -2 l

gsave
0.000 setgray
fill
grestore
stroke
grestore
} bind def
634.481 47.52 o
grestore
0.800 setlinewidth
[2.96 1.28] 0 setdash
0.690 setgray
gsave
558 332.6 90 47.52 clipbox
641.61683 47.52 m
641.61683 380.16 l
stroke
grestore
0.600 setlinewidth
[] 0 setdash
0.000 setgray
gsave
/o {
gsave
newpath
translate
0.6 setlinewidth
1 setlinejoin
0 setlinecap
0 0 m
0 -2 l

gsave
0.000 setgray
fill
grestore
stroke
grestore
} bind def
641.617 47.52 o
grestore
/DejaVuSans findfont
14.000 scalefont
setfont
gsave
322.164062 13.879375 translate
0.000000 rotate
0.000000 0.000000 m /E glyphshow
8.845703 0.000000 m /n glyphshow
17.718750 0.000000 m /e glyphshow
26.332031 0.000000 m /r glyphshow
32.087891 0.000000 m /g glyphshow
40.974609 0.000000 m /y glyphshow
49.259766 0.000000 m /space glyphshow
53.709961 0.000000 m /parenleft glyphshow
59.171875 0.000000 m /G glyphshow
70.020508 0.000000 m /e glyphshow
78.633789 0.000000 m /V glyphshow
88.210938 0.000000 m /parenright glyphshow
grestore
0.800 setlinewidth
2 setlinecap
0.690 setgray
gsave
558 332.6 90 47.52 clipbox
90 61.728362 m
648 61.728362 l
stroke
grestore
0 setlinecap
0.000 setgray
gsave
/o {
gsave
newpath
translate
0.8 setlinewidth
1 setlinejoin
0 setlinecap
0 0 m
-3.5 0 l

gsave
0.000 setgray
fill
grestore
stroke
grestore
} bind def
90 61.7284 o
grestore
gsave
54.000000 56.978362 translate
0.000000 rotate
/DejaVuSans findfont
12.0 scalefont
setfont
0.000000 0.171875 moveto
/one glyphshow

7.634766 0.171875 moveto
/zero glyphshow

/DejaVuSans findfont
8.4 scalefont
setfont
15.384375 4.765625 moveto
/minus glyphshow

22.422656 4.765625 moveto
/nine glyphshow


grestore
2 setlinecap
0.690 setgray
gsave
558 332.6 90 47.52 clipbox
90 144.957457 m
648 144.957457 l
stroke
grestore
0 setlinecap
0.000 setgray
gsave
/o {
gsave
newpath
translate
0.8 setlinewidth
1 setlinejoin
0 setlinecap
0 0 m
-3.5 0 l

gsave
0.000 setgray
fill
grestore
stroke
grestore
} bind def
90 144.957 o
grestore
gsave
54.000000 140.207457 translate
0.000000 rotate
/DejaVuSans findfont
12.0 scalefont
setfont
0.000000 0.171875 moveto
/one glyphshow

7.634766 0.171875 moveto
/zero glyphshow

/DejaVuSans findfont
8.4 scalefont
setfont
15.384375 4.765625 moveto
/minus glyphshow

22.422656 4.765625 moveto
/eight glyphshow


grestore
2 setlinecap
0.690 setgray
gsave
558 332.6 90 47.52 clipbox
90 228.186552 m
648 228.186552 l
stroke
grestore
0 setlinecap
0.000 setgray
gsave
/o {
gsave
newpath
translate
0.8 setlinewidth
1 setlinejoin
0 setlinecap
0 0 m
-3.5 0 l

gsave
0.000 setgray
fill
grestore
stroke
grestore
} bind def
90 228.187 o
grestore
gsave
54.000000 223.436552 translate
0.000000 rotate
/DejaVuSans findfont
12.0 scalefont
setfont
0.000000 0.281250 moveto
/one glyphshow

7.634766 0.281250 moveto
/zero glyphshow

/DejaVuSans findfont
8.4 scalefont
setfont
15.384375 4.875000 moveto
/minus glyphshow

22.422656 4.875000 moveto
/seven glyphshow


grestore
2 setlinecap
0.690 setgray
gsave
558 332.6 90 47.52 clipbox
90 311.415647 m
648 311.415647 l
stroke
grestore
0 setlinecap
0.000 setgray
gsave
/o {
gsave
newpath
translate
0.8 setlinewidth
1 setlinejoin
0 setlinecap
0 0 m
-3.5 0 l

gsave
0.000 setgray
fill
grestore
stroke
grestore
} bind def
90 311.416 o
grestore
gsave
54.000000 306.665647 translate
0.000000 rotate
/DejaVuSans findfont
12.0 scalefont
setfont
0.000000 0.171875 moveto
/one glyphshow

7.634766 0.171875 moveto
/zero glyphshow

/DejaVuSans findfont
8.4 scalefont
setfont
15.384375 4.765625 moveto
/minus glyphshow

22.422656 4.765625 moveto
/six glyphshow


grestore
[2.96 1.28] 0 setdash
0.690 setgray
gsave
558 332.6 90 47.52 clipbox
90 48.836012 m
648 48.836012 l
stroke
grestore
0.600 setlinewidth
[] 0 setdash
0.000 setgray
gsave
/o {
gsave
newpath
translate
0.6 setlinewidth
1 setlinejoin
0 setlinecap
0 0 m
-2 0 l

gsave
0.000 setgray
fill
grestore
stroke
grestore
} bind def
90 48.836 o
grestore
0.800 setlinewidth
[2.96 1.28] 0 setdash
0.690 setgray
gsave
558 332.6 90 47.52 clipbox
90 53.662629 m
648 53.662629 l
stroke
grestore
0.600 setlinewidth
[] 0 setdash
0.000 setgray
gsave
/o {
gsave
newpath
translate
0.6 setlinewidth
1 setlinejoin
0 setlinecap
0 0 m
-2 0 l

gsave
0.000 setgray
fill
grestore
stroke
grestore
} bind def
90 53.6626 o
grestore
0.800 setlinewidth
[2.96 1.28] 0 setdash
0.690 setgray
gsave
558 332.6 90 47.52 clipbox
90 57.920007 m
648 57.920007 l
stroke
grestore
0.600 setlinewidth
[] 0 setdash
0.000 setgray
gsave
/o {
gsave
newpath
translate
0.6 setlinewidth
1 setlinejoin
0 setlinecap
0 0 m
-2 0 l

gsave
0.000 setgray
fill
grestore
stroke
grestore
} bind def
90 57.92 o
grestore
0.800 setlinewidth
[2.96 1.28] 0 setdash
0.690 setgray
gsave
558 332.6 90 47.52 clipbox
90 86.782816 m
648 86.782816 l
stroke
grestore
0.600 setlinewidth
[] 0 setdash
0.000 setgray
gsave
/o {
gsave
newpath
translate
0.6 setlinewidth
1 setlinejoin
0 setlinecap
0 0 m
-2 0 l

gsave
0.000 setgray
fill
grestore
stroke
grestore
} bind def
90 86.7828 o
grestore
0.800 setlinewidth
[2.96 1.28] 0 setdash
0.690 setgray
gsave
558 332.6 90 47.52 clipbox
90 101.438732 m
648 101.438732 l
stroke
grestore
0.600 setlinewidth
[] 0 setdash
0.000 setgray
gsave
/o {
gsave
newpath
translate
0.6 setlinewidth
1 setlinejoin
0 setlinecap
0 0 m
-2 0 l

gsave
0.000 setgray
fill
grestore
stroke
grestore
} bind def
90 101.439 o
grestore
0.800 setlinewidth
[2.96 1.28] 0 setdash
0.690 setgray
gsave
558 332.6 90 47.52 clipbox
90 111.83727 m
648 111.83727 l
stroke
grestore
0.600 setlinewidth
[] 0 setdash
0.000 setgray
gsave
/o {
gsave
newpath
translate
0.6 setlinewidth
1 setlinejoin
0 setlinecap
0 0 m
-2 0 l

gsave
0.000 setgray
fill
grestore
stroke
grestore
} bind def
90 111.837 o
grestore
0.800 setlinewidth
[2.96 1.28] 0 setdash
0.690 setgray
gsave
558 332.6 90 47.52 clipbox
90 119.903003 m
648 119.903003 l
stroke
grestore
0.600 setlinewidth
[] 0 setdash
0.000 setgray
gsave
/o {
gsave
newpath
translate
0.6 setlinewidth
1 setlinejoin
0 setlinecap
0 0 m
-2 0 l

gsave
0.000 setgray
fill
grestore
stroke
grestore
} bind def
90 119.903 o
grestore
0.800 setlinewidth
[2.96 1.28] 0 setdash
0.690 setgray
gsave
558 332.6 90 47.52 clipbox
90 126.493186 m
648 126.493186 l
stroke
grestore
0.600 setlinewidth
[] 0 setdash
0.000 setgray
gsave
/o {
gsave
newpath
translate
0.6 setlinewidth
1 setlinejoin
0 setlinecap
0 0 m
-2 0 l

gsave
0.000 setgray
fill
grestore
stroke
grestore
} bind def
90 126.493 o
grestore
0.800 setlinewidth
[2.96 1.28] 0 setdash
0.690 setgray
gsave
558 332.6 90 47.52 clipbox
90 132.065107 m
648 132.065107 l
stroke
grestore
0.600 setlinewidth
[] 0 setdash
0.000 setgray
gsave
/o {
gsave
newpath
translate
0.6 setlinewidth
1 setlinejoin
0 setlinecap
0 0 m
-2 0 l

gsave
0.000 setgray
fill
grestore
stroke
grestore
} bind def
90 132.065 o
grestore
0.800 setlinewidth
[2.96 1.28] 0 setdash
0.690 setgray
gsave
558 332.6 90 47.52 clipbox
90 136.891724 m
648 136.891724 l
stroke
grestore
0.600 setlinewidth
[] 0 setdash
0.000 setgray
gsave
/o {
gsave
newpath
translate
0.6 setlinewidth
1 setlinejoin
0 setlinecap
0 0 m
-2 0 l

gsave
0.000 setgray
fill
grestore
stroke
grestore
} bind def
90 136.892 o
grestore
0.800 setlinewidth
[2.96 1.28] 0 setdash
0.690 setgray
gsave
558 332.6 90 47.52 clipbox
90 141.149102 m
648 141.149102 l
stroke
grestore
0.600 setlinewidth
[] 0 setdash
0.000 setgray
gsave
/o {
gsave
newpath
translate
0.6 setlinewidth
1 setlinejoin
0 setlinecap
0 0 m
-2 0 l

gsave
0.000 setgray
fill
grestore
stroke
grestore
} bind def
90 141.149 o
grestore
0.800 setlinewidth
[2.96 1.28] 0 setdash
0.690 setgray
gsave
558 332.6 90 47.52 clipbox
90 170.011911 m
648 170.011911 l
stroke
grestore
0.600 setlinewidth
[] 0 setdash
0.000 setgray
gsave
/o {
gsave
newpath
translate
0.6 setlinewidth
1 setlinejoin
0 setlinecap
0 0 m
-2 0 l

gsave
0.000 setgray
fill
grestore
stroke
grestore
} bind def
90 170.012 o
grestore
0.800 setlinewidth
[2.96 1.28] 0 setdash
0.690 setgray
gsave
558 332.6 90 47.52 clipbox
90 184.667827 m
648 184.667827 l
stroke
grestore
0.600 setlinewidth
[] 0 setdash
0.000 setgray
gsave
/o {
gsave
newpath
translate
0.6 setlinewidth
1 setlinejoin
0 setlinecap
0 0 m
-2 0 l

gsave
0.000 setgray
fill
grestore
stroke
grestore
} bind def
90 184.668 o
grestore
0.800 setlinewidth
[2.96 1.28] 0 setdash
0.690 setgray
gsave
558 332.6 90 47.52 clipbox
90 195.066365 m
648 195.066365 l
stroke
grestore
0.600 setlinewidth
[] 0 setdash
0.000 setgray
gsave
/o {
gsave
newpath
translate
0.6 setlinewidth
1 setlinejoin
0 setlinecap
0 0 m
-2 0 l

gsave
0.000 setgray
fill
grestore
stroke
grestore
} bind def
90 195.066 o
grestore
0.800 setlinewidth
[2.96 1.28] 0 setdash
0.690 setgray
gsave
558 332.6 90 47.52 clipbox
90 203.132098 m
648 203.132098 l
stroke
grestore
0.600 setlinewidth
[] 0 setdash
0.000 setgray
gsave
/o {
gsave
newpath
translate
0.6 setlinewidth
1 setlinejoin
0 setlinecap
0 0 m
-2 0 l

gsave
0.000 setgray
fill
grestore
stroke
grestore
} bind def
90 203.132 o
grestore
0.800 setlinewidth
[2.96 1.28] 0 setdash
0.690 setgray
gsave
558 332.6 90 47.52 clipbox
90 209.722281 m
648 209.722281 l
stroke
grestore
0.600 setlinewidth
[] 0 setdash
0.000 setgray
gsave
/o {
gsave
newpath
translate
0.6 setlinewidth
1 setlinejoin
0 setlinecap
0 0 m
-2 0 l

gsave
0.000 setgray
fill
grestore
stroke
grestore
} bind def
90 209.722 o
grestore
0.800 setlinewidth
[2.96 1.28] 0 setdash
0.690 setgray
gsave
558 332.6 90 47.52 clipbox
90 215.294202 m
648 215.294202 l
stroke
grestore
0.600 setlinewidth
[] 0 setdash
0.000 setgray
gsave
/o {
gsave
newpath
translate
0.6 setlinewidth
1 setlinejoin
0 setlinecap
0 0 m
-2 0 l

gsave
0.000 setgray
fill
grestore
stroke
grestore
} bind def
90 215.294 o
grestore
0.800 setlinewidth
[2.96 1.28] 0 setdash
0.690 setgray
gsave
558 332.6 90 47.52 clipbox
90 220.120819 m
648 220.120819 l
stroke
grestore
0.600 setlinewidth
[] 0 setdash
0.000 setgray
gsave
/o {
gsave
newpath
translate
0.6 setlinewidth
1 setlinejoin
0 setlinecap
0 0 m
-2 0 l

gsave
0.000 setgray
fill
grestore
stroke
grestore
} bind def
90 220.121 o
grestore
0.800 setlinewidth
[2.96 1.28] 0 setdash
0.690 setgray
gsave
558 332.6 90 47.52 clipbox
90 224.378197 m
648 224.378197 l
stroke
grestore
0.600 setlinewidth
[] 0 setdash
0.000 setgray
gsave
/o {
gsave
newpath
translate
0.6 setlinewidth
1 setlinejoin
0 setlinecap
0 0 m
-2 0 l

gsave
0.000 setgray
fill
grestore
stroke
grestore
} bind def
90 224.378 o
grestore
0.800 setlinewidth
[2.96 1.28] 0 setdash
0.690 setgray
gsave
558 332.6 90 47.52 clipbox
90 253.241006 m
648 253.241006 l
stroke
grestore
0.600 setlinewidth
[] 0 setdash
0.000 setgray
gsave
/o {
gsave
newpath
translate
0.6 setlinewidth
1 setlinejoin
0 setlinecap
0 0 m
-2 0 l

gsave
0.000 setgray
fill
grestore
stroke
grestore
} bind def
90 253.241 o
grestore
0.800 setlinewidth
[2.96 1.28] 0 setdash
0.690 setgray
gsave
558 332.6 90 47.52 clipbox
90 267.896922 m
648 267.896922 l
stroke
grestore
0.600 setlinewidth
[] 0 setdash
0.000 setgray
gsave
/o {
gsave
newpath
translate
0.6 setlinewidth
1 setlinejoin
0 setlinecap
0 0 m
-2 0 l

gsave
0.000 setgray
fill
grestore
stroke
grestore
} bind def
90 267.897 o
grestore
0.800 setlinewidth
[2.96 1.28] 0 setdash
0.690 setgray
gsave
558 332.6 90 47.52 clipbox
90 278.29546 m
648 278.29546 l
stroke
grestore
0.600 setlinewidth
[] 0 setdash
0.000 setgray
gsave
/o {
gsave
newpath
translate
0.6 setlinewidth
1 setlinejoin
0 setlinecap
0 0 m
-2 0 l

gsave
0.000 setgray
fill
grestore
stroke
grestore
} bind def
90 278.295 o
grestore
0.800 setlinewidth
[2.96 1.28] 0 setdash
0.690 setgray
gsave
558 332.6 90 47.52 clipbox
90 286.361193 m
648 286.361193 l
stroke
grestore
0.600 setlinewidth
[] 0 setdash
0.000 setgray
gsave
/o {
gsave
newpath
translate
0.6 setlinewidth
1 setlinejoin
0 setlinecap
0 0 m
-2 0 l

gsave
0.000 setgray
fill
grestore
stroke
grestore
} bind def
90 286.361 o
grestore
0.800 setlinewidth
[2.96 1.28] 0 setdash
0.690 setgray
gsave
558 332.6 90 47.52 clipbox
90 292.951376 m
648 292.951376 l
stroke
grestore
0.600 setlinewidth
[] 0 setdash
0.000 setgray
gsave
/o {
gsave
newpath
translate
0.6 setlinewidth
1 setlinejoin
0 setlinecap
0 0 m
-2 0 l

gsave
0.000 setgray
fill
grestore
stroke
grestore
} bind def
90 292.951 o
grestore
0.800 setlinewidth
[2.96 1.28] 0 setdash
0.690 setgray
gsave
558 332.6 90 47.52 clipbox
90 298.523297 m
648 298.523297 l
stroke
grestore
0.600 setlinewidth
[] 0 setdash
0.000 setgray
gsave
/o {
gsave
newpath
translate
0.6 setlinewidth
1 setlinejoin
0 setlinecap
0 0 m
-2 0 l

gsave
0.000 setgray
fill
grestore
stroke
grestore
} bind def
90 298.523 o
grestore
0.800 setlinewidth
[2.96 1.28] 0 setdash
0.690 setgray
gsave
558 332.6 90 47.52 clipbox
90 303.349914 m
648 303.349914 l
stroke
grestore
0.600 setlinewidth
[] 0 setdash
0.000 setgray
gsave
/o {
gsave
newpath
translate
0.6 setlinewidth
1 setlinejoin
0 setlinecap
0 0 m
-2 0 l

gsave
0.000 setgray
fill
grestore
stroke
grestore
} bind def
90 303.35 o
grestore
0.800 setlinewidth
[2.96 1.28] 0 setdash
0.690 setgray
gsave
558 332.6 90 47.52 clipbox
90 307.607292 m
648 307.607292 l
stroke
grestore
0.600 setlinewidth
[] 0 setdash
0.000 setgray
gsave
/o {
gsave
newpath
translate
0.6 setlinewidth
1 setlinejoin
0 setlinecap
0 0 m
-2 0 l

gsave
0.000 setgray
fill
grestore
stroke
grestore
} bind def
90 307.607 o
grestore
0.800 setlinewidth
[2.96 1.28] 0 setdash
0.690 setgray
gsave
558 332.6 90 47.52 clipbox
90 336.470101 m
648 336.470101 l
stroke
grestore
0.600 setlinewidth
[] 0 setdash
0.000 setgray
gsave
/o {
gsave
newpath
translate
0.6 setlinewidth
1 setlinejoin
0 setlinecap
0 0 m
-2 0 l

gsave
0.000 setgray
fill
grestore
stroke
grestore
} bind def
90 336.47 o
grestore
0.800 setlinewidth
[2.96 1.28] 0 setdash
0.690 setgray
gsave
558 332.6 90 47.52 clipbox
90 351.126017 m
648 351.126017 l
stroke
grestore
0.600 setlinewidth
[] 0 setdash
0.000 setgray
gsave
/o {
gsave
newpath
translate
0.6 setlinewidth
1 setlinejoin
0 setlinecap
0 0 m
-2 0 l

gsave
0.000 setgray
fill
grestore
stroke
grestore
} bind def
90 351.126 o
grestore
0.800 setlinewidth
[2.96 1.28] 0 setdash
0.690 setgray
gsave
558 332.6 90 47.52 clipbox
90 361.524555 m
648 361.524555 l
stroke
grestore
0.600 setlinewidth
[] 0 setdash
0.000 setgray
gsave
/o {
gsave
newpath
translate
0.6 setlinewidth
1 setlinejoin
0 setlinecap
0 0 m
-2 0 l

gsave
0.000 setgray
fill
grestore
stroke
grestore
} bind def
90 361.525 o
grestore
0.800 setlinewidth
[2.96 1.28] 0 setdash
0.690 setgray
gsave
558 332.6 90 47.52 clipbox
90 369.590288 m
648 369.590288 l
stroke
grestore
0.600 setlinewidth
[] 0 setdash
0.000 setgray
gsave
/o {
gsave
newpath
translate
0.6 setlinewidth
1 setlinejoin
0 setlinecap
0 0 m
-2 0 l

gsave
0.000 setgray
fill
grestore
stroke
grestore
} bind def
90 369.59 o
grestore
0.800 setlinewidth
[2.96 1.28] 0 setdash
0.690 setgray
gsave
558 332.6 90 47.52 clipbox
90 376.180471 m
648 376.180471 l
stroke
grestore
0.600 setlinewidth
[] 0 setdash
0.000 setgray
gsave
/o {
gsave
newpath
translate
0.6 setlinewidth
1 setlinejoin
0 setlinecap
0 0 m
-2 0 l

gsave
0.000 setgray
fill
grestore
stroke
grestore
} bind def
90 376.18 o
grestore
gsave
47.093750 148.340000 translate
90.000000 rotate
/DejaVuSans findfont
14.0 scalefont
setfont
0.000000 0.367188 moveto
/numbersign glyphshow

11.730469 0.367188 moveto
/space glyphshow

16.180664 0.367188 moveto
/m glyphshow

29.818359 0.367188 moveto
/u glyphshow

38.691406 0.367188 moveto
/o glyphshow

47.256836 0.367188 moveto
/n glyphshow

56.129883 0.367188 moveto
/s glyphshow

63.423828 0.367188 moveto
/space glyphshow

67.874023 0.367188 moveto
/c glyphshow

75.571289 0.367188 moveto
/m glyphshow

/DejaVuSans findfont
9.8 scalefont
setfont
89.342969 5.726562 moveto
/minus glyphshow

97.554297 5.726562 moveto
/two glyphshow

/DejaVuSans findfont
14.0 scalefont
setfont
104.172168 0.367188 moveto
/space glyphshow

108.622363 0.367188 moveto
/s glyphshow

/DejaVuSans findfont
9.8 scalefont
setfont
116.050293 5.726562 moveto
/minus glyphshow

124.261621 5.726562 moveto
/one glyphshow


grestore
2.000 setlinewidth
2 setlinecap
0.122 0.467 0.706 setrgbcolor
gsave
558 332.6 90 47.52 clipbox
90 365.04 m
229.5 317.212048 l
369 232.714405 l
508.5 62.64 l
stroke
grestore
0.800 setlinewidth
0 setlinejoin
[] 0 setdash
0.000 setgray
gsave
90 47.52 m
90 380.16 l
stroke
grestore
gsave
648 47.52 m
648 380.16 l
stroke
grestore
gsave
90 47.52 m
648 47.52 l
stroke
grestore
gsave
90 380.16 m
648 380.16 l
stroke
grestore
gsave
175.945312 386.160000 translate
0.000000 rotate
0.000000 0.000000 m /M glyphshow
12.079102 0.000000 m /u glyphshow
20.952148 0.000000 m /o glyphshow
29.517578 0.000000 m /n glyphshow
38.390625 0.000000 m /space glyphshow
42.840820 0.000000 m /s glyphshow
50.134766 0.000000 m /p glyphshow
59.021484 0.000000 m /e glyphshow
67.634766 0.000000 m /c glyphshow
75.332031 0.000000 m /t glyphshow
80.821289 0.000000 m /r glyphshow
86.577148 0.000000 m /u glyphshow
95.450195 0.000000 m /m glyphshow
109.087891 0.000000 m /space glyphshow
113.538086 0.000000 m /a glyphshow
122.117188 0.000000 m /t glyphshow
127.606445 0.000000 m /space glyphshow
132.056641 0.000000 m /C glyphshow
141.832031 0.000000 m /e glyphshow
150.445312 0.000000 m /r glyphshow
156.201172 0.000000 m /r glyphshow
161.957031 0.000000 m /o glyphshow
170.522461 0.000000 m /space glyphshow
174.972656 0.000000 m /M glyphshow
187.051758 0.000000 m /a glyphshow
195.630859 0.000000 m /c glyphshow
203.328125 0.000000 m /h glyphshow
212.201172 0.000000 m /i glyphshow
216.090820 0.000000 m /n glyphshow
224.963867 0.000000 m /space glyphshow
229.414062 0.000000 m /v glyphshow
237.699219 0.000000 m /o glyphshow
246.264648 0.000000 m /l glyphshow
250.154297 0.000000 m /c glyphshow
257.851562 0.000000 m /a glyphshow
266.430664 0.000000 m /n glyphshow
275.303711 0.000000 m /o glyphshow
283.869141 0.000000 m /space glyphshow
288.319336 0.000000 m /parenleft glyphshow
293.781250 0.000000 m /two glyphshow
302.688477 0.000000 m /six glyphshow
311.595703 0.000000 m /five glyphshow
320.502930 0.000000 m /zero glyphshow
329.410156 0.000000 m /space glyphshow
333.860352 0.000000 m /m glyphshow
347.498047 0.000000 m /period glyphshow
351.948242 0.000000 m /a glyphshow
360.527344 0.000000 m /period glyphshow
364.977539 0.000000 m /s glyphshow
372.271484 0.000000 m /period glyphshow
376.721680 0.000000 m /l glyphshow
380.611328 0.000000 m /parenright glyphshow
grestore

end
showpage
