\relax 
\providecommand\hyper@newdestlabel[2]{}
\newlabel{app:CORSIKA}{{A}{16}{Muon generation with CORSIKA on the University of Sheffield HEP cluster}{appendix.A}{}}
\@writefile{toc}{\defcounter {refsection}{0}\relax }\@writefile{toc}{\contentsline {section}{\numberline {A}Muon generation with CORSIKA on the University of Sheffield HEP cluster}{16}{appendix.A}}
\@writefile{toc}{\defcounter {refsection}{0}\relax }\@writefile{toc}{\contentsline {subsection}{\numberline {A.1}CORSIKA input generation}{16}{subsection.A.1}}
\@writefile{toc}{\defcounter {refsection}{0}\relax }\@writefile{toc}{\contentsline {subsection}{\numberline {A.2}Preparation of MUSIC inputs}{17}{subsection.A.2}}
\@writefile{lot}{\defcounter {refsection}{0}\relax }\@writefile{lot}{\contentsline {table}{\numberline {3}{Parameters for input files to MUSIC}}{17}{table.3}}
\newlabel{tab:MUSICInputParams}{{3}{17}{Preparation of MUSIC inputs}{table.3}{}}
\gdef \LT@i {\LT@entry 
    {95}{39.09pt}\LT@entry 
    {3}{38.76361pt}\LT@entry 
    {1}{76.52434pt}\LT@entry 
    {3}{115.13782pt}\LT@entry 
    {4}{119.05444pt}\LT@entry 
    {3}{62.26337pt}}
\newlabel{app:FULLRESULTS}{{B}{68}{Detailed results following MUSIC muon propagation}{appendix.B}{}}
\@writefile{toc}{\defcounter {refsection}{0}\relax }\@writefile{toc}{\contentsline {section}{\numberline {B}Detailed results following MUSIC muon propagation}{68}{appendix.B}}
\newlabel{sec:AlejandraResults}{{B.1}{68}{Alejandra Results}{subsection.B.1}{}}
\@writefile{toc}{\defcounter {refsection}{0}\relax }\@writefile{toc}{\contentsline {subsection}{\numberline {B.1}Alejandra Results}{68}{subsection.B.1}}
\newlabel{tab:NormalisedFluxSecondsRandomPhi}{{4}{68}{Alejandra Results}{table.4}{}}
\gdef \LT@ii {\LT@entry 
    {3}{32.88869pt}\LT@entry 
    {3}{38.76363pt}\LT@entry 
    {1}{86.15065pt}\LT@entry 
    {1}{78.48267pt}\LT@entry 
    {2}{153.8216pt}}
\newlabel{sec:RandomFluxNormalisedCountsSec}{{B.2}{81}{CORSIKA+MUSIC normalised fluxes for the random-$\phi $ case}{subsection.B.2}{}}
\@writefile{toc}{\defcounter {refsection}{0}\relax }\@writefile{toc}{\contentsline {subsection}{\numberline {B.2}CORSIKA+MUSIC normalised fluxes for the random-$\phi $ case}{81}{subsection.B.2}}
\@writefile{lot}{\defcounter {refsection}{0}\relax }\@writefile{lot}{\contentsline {table}{\numberline {5}{Normalised muon flux for the random-$\phi $ case}}{81}{table.5}}
\newlabel{tab:NormalisedFluxSecondsRandomPhi}{{5}{81}{CORSIKA+MUSIC normalised fluxes for the random-$\phi $ case}{table.5}{}}
\gdef \LT@iii {\LT@entry 
    {3}{32.88867pt}\LT@entry 
    {3}{38.76361pt}\LT@entry 
    {5}{138.63757pt}\LT@entry 
    {5}{136.02649pt}}
\@setckpt{Content/appendix}{
\setcounter{page}{95}
\setcounter{equation}{0}
\setcounter{enumi}{0}
\setcounter{enumii}{0}
\setcounter{enumiii}{0}
\setcounter{enumiv}{0}
\setcounter{footnote}{0}
\setcounter{mpfootnote}{0}
\setcounter{part}{0}
\setcounter{section}{2}
\setcounter{subsection}{2}
\setcounter{subsubsection}{0}
\setcounter{paragraph}{0}
\setcounter{subparagraph}{0}
\setcounter{figure}{13}
\setcounter{table}{5}
\setcounter{Item}{0}
\setcounter{Hfootnote}{0}
\setcounter{bookmark@seq@number}{17}
\setcounter{pp@next@reset}{0}
\setcounter{Maxaffil}{0}
\setcounter{authors}{3}
\setcounter{affil}{1}
\setcounter{tabx@nest}{0}
\setcounter{listtotal}{0}
\setcounter{listcount}{0}
\setcounter{liststart}{0}
\setcounter{liststop}{0}
\setcounter{citecount}{0}
\setcounter{citetotal}{0}
\setcounter{multicitecount}{0}
\setcounter{multicitetotal}{0}
\setcounter{instcount}{20}
\setcounter{maxnames}{3}
\setcounter{minnames}{1}
\setcounter{maxitems}{3}
\setcounter{minitems}{1}
\setcounter{citecounter}{0}
\setcounter{savedcitecounter}{0}
\setcounter{uniquelist}{0}
\setcounter{uniquename}{0}
\setcounter{refsection}{0}
\setcounter{refsegment}{0}
\setcounter{maxextratitle}{0}
\setcounter{maxextratitleyear}{0}
\setcounter{maxextrayear}{0}
\setcounter{maxextraalpha}{0}
\setcounter{abbrvpenalty}{50}
\setcounter{highnamepenalty}{50}
\setcounter{lownamepenalty}{25}
\setcounter{maxparens}{3}
\setcounter{parenlevel}{0}
\setcounter{mincomprange}{10}
\setcounter{maxcomprange}{100000}
\setcounter{mincompwidth}{1}
\setcounter{afterword}{0}
\setcounter{savedafterword}{0}
\setcounter{annotator}{0}
\setcounter{savedannotator}{0}
\setcounter{author}{0}
\setcounter{savedauthor}{0}
\setcounter{bookauthor}{0}
\setcounter{savedbookauthor}{0}
\setcounter{commentator}{0}
\setcounter{savedcommentator}{0}
\setcounter{editor}{0}
\setcounter{savededitor}{0}
\setcounter{editora}{0}
\setcounter{savededitora}{0}
\setcounter{editorb}{0}
\setcounter{savededitorb}{0}
\setcounter{editorc}{0}
\setcounter{savededitorc}{0}
\setcounter{foreword}{0}
\setcounter{savedforeword}{0}
\setcounter{holder}{0}
\setcounter{savedholder}{0}
\setcounter{introduction}{0}
\setcounter{savedintroduction}{0}
\setcounter{namea}{0}
\setcounter{savednamea}{0}
\setcounter{nameb}{0}
\setcounter{savednameb}{0}
\setcounter{namec}{0}
\setcounter{savednamec}{0}
\setcounter{translator}{0}
\setcounter{savedtranslator}{0}
\setcounter{shortauthor}{0}
\setcounter{savedshortauthor}{0}
\setcounter{shorteditor}{0}
\setcounter{savedshorteditor}{0}
\setcounter{labelname}{0}
\setcounter{savedlabelname}{0}
\setcounter{institution}{0}
\setcounter{savedinstitution}{0}
\setcounter{lista}{0}
\setcounter{savedlista}{0}
\setcounter{listb}{0}
\setcounter{savedlistb}{0}
\setcounter{listc}{0}
\setcounter{savedlistc}{0}
\setcounter{listd}{0}
\setcounter{savedlistd}{0}
\setcounter{liste}{0}
\setcounter{savedliste}{0}
\setcounter{listf}{0}
\setcounter{savedlistf}{0}
\setcounter{location}{0}
\setcounter{savedlocation}{0}
\setcounter{organization}{0}
\setcounter{savedorganization}{0}
\setcounter{origlocation}{0}
\setcounter{savedoriglocation}{0}
\setcounter{origpublisher}{0}
\setcounter{savedorigpublisher}{0}
\setcounter{publisher}{0}
\setcounter{savedpublisher}{0}
\setcounter{language}{0}
\setcounter{savedlanguage}{0}
\setcounter{pageref}{0}
\setcounter{savedpageref}{0}
\setcounter{textcitecount}{0}
\setcounter{textcitetotal}{0}
\setcounter{textcitemaxnames}{0}
\setcounter{biburlnumpenalty}{0}
\setcounter{biburlucpenalty}{0}
\setcounter{biburllcpenalty}{0}
\setcounter{smartand}{1}
\setcounter{bbx:relatedcount}{0}
\setcounter{bbx:relatedtotal}{0}
\setcounter{LT@tables}{3}
\setcounter{LT@chunks}{32}
\setcounter{float@type}{4}
\setcounter{section@level}{2}
}
