\relax 
\providecommand\hyper@newdestlabel[2]{}
\newlabel{sec:intro}{{1}{2}{Introduction}{section.1}{}}
\@writefile{toc}{\defcounter {refsection}{0}\relax }\@writefile{toc}{\contentsline {section}{\numberline {1}{Introduction}}{2}{section.1}}
\newlabel{sec:VolcanoTopo}{{2}{2}{Volcano Topography}{section.2}{}}
\@writefile{toc}{\defcounter {refsection}{0}\relax }\@writefile{toc}{\contentsline {section}{\numberline {2}Volcano Topography}{2}{section.2}}
\@writefile{lof}{\defcounter {refsection}{0}\relax }\@writefile{lof}{\contentsline {figure}{\numberline {1}{\ignorespaces Top-down view of the topography of the volcanic area}}{3}{figure.1}}
\newlabel{fig:2DCoords}{{1}{3}{Top-down view of the topography of the volcanic area}{figure.1}{}}
\@writefile{lof}{\defcounter {refsection}{0}\relax }\@writefile{lof}{\contentsline {figure}{\numberline {2}{\ignorespaces Trajectories of muons passing through volcanic rock and entering the detector}}{4}{figure.2}}
\newlabel{fig:MuonTrajectories}{{2}{4}{Trajectories of muons passing through volcanic rock and entering the detector}{figure.2}{}}
\@writefile{lof}{\defcounter {refsection}{0}\relax }\@writefile{lof}{\contentsline {figure}{\numberline {3}{\ignorespaces Distance through volcanic rock as a function of muon angle}}{5}{figure.3}}
\newlabel{fig:MuonDistanceVsAngle}{{3}{5}{Distance through volcanic rock as a function of muon angle}{figure.3}{}}
\newlabel{sec:Generation}{{3}{5}{Generation of muon collection}{section.3}{}}
\@writefile{toc}{\defcounter {refsection}{0}\relax }\@writefile{toc}{\contentsline {section}{\numberline {3}Generation of muon collection}{5}{section.3}}
\newlabel{sec:MUSIC}{{4}{6}{Muon transport with MUSIC}{section.4}{}}
\@writefile{toc}{\defcounter {refsection}{0}\relax }\@writefile{toc}{\contentsline {section}{\numberline {4}Muon transport with MUSIC}{6}{section.4}}
\@writefile{lot}{\defcounter {refsection}{0}\relax }\@writefile{lot}{\contentsline {table}{\numberline {1}{\ignorespaces MUSIC parameter settings}}{7}{table.1}}
\newlabel{tab:MUSICParams}{{1}{7}{MUSIC parameter settings}{table.1}{}}
\newlabel{sec:MUSIC}{{5}{7}{Results}{section.5}{}}
\@writefile{toc}{\defcounter {refsection}{0}\relax }\@writefile{toc}{\contentsline {section}{\numberline {5}Results}{7}{section.5}}
\newlabel{sec:FixedPhi}{{5.1}{7}{Fixed-$\phi $}{subsection.5.1}{}}
\@writefile{toc}{\defcounter {refsection}{0}\relax }\@writefile{toc}{\contentsline {subsection}{\numberline {5.1}Fixed-$\phi $}{7}{subsection.5.1}}
\@writefile{lof}{\defcounter {refsection}{0}\relax }\@writefile{lof}{\contentsline {figure}{\numberline {4}{\ignorespaces Energy profile of muons prior to and following transport through volcanic rock with MUSIC}}{8}{figure.4}}
\newlabel{fig:MuonInitialVFinalEnergy_Fixed}{{4}{8}{Energy profile of muons prior to and following transport through volcanic rock with MUSIC}{figure.4}{}}
\@writefile{lof}{\defcounter {refsection}{0}\relax }\@writefile{lof}{\contentsline {figure}{\numberline {5}{\ignorespaces Distance-angle relationship for muons in the fixed-$\phi $ case}}{9}{figure.5}}
\newlabel{fig:MuonAngleVDistance_Fixed}{{5}{9}{Distance-angle relationship for muons in the fixed-$\phi $ case}{figure.5}{}}
\@writefile{lof}{\defcounter {refsection}{0}\relax }\@writefile{lof}{\contentsline {figure}{\numberline {6}{\ignorespaces Normalised muon flux per day as a function of muon angle}}{9}{figure.6}}
\newlabel{fig:MuonNormFluxDay_Fixed}{{6}{9}{Normalised muon flux per day as a function of muon angle}{figure.6}{}}
\newlabel{sec:RandomPhiResults}{{5.2}{10}{Random-$\phi $}{subsection.5.2}{}}
\@writefile{toc}{\defcounter {refsection}{0}\relax }\@writefile{toc}{\contentsline {subsection}{\numberline {5.2}Random-$\phi $}{10}{subsection.5.2}}
\@writefile{lof}{\defcounter {refsection}{0}\relax }\@writefile{lof}{\contentsline {figure}{\numberline {7}{\ignorespaces Distance-Angle relationship in the randomised-$\phi $ case}}{10}{figure.7}}
\newlabel{fig:MuonAngleVDistance_RandomPhi}{{7}{10}{Distance-Angle relationship in the randomised-$\phi $ case}{figure.7}{}}
\@writefile{lof}{\defcounter {refsection}{0}\relax }\@writefile{lof}{\contentsline {figure}{\numberline {8}{\ignorespaces Number of muons in each $0.5\times 0.5$ degree bin}}{10}{figure.8}}
\newlabel{fig:MuonNumber_RandomPhi}{{8}{10}{Number of muons in each $0.5\times 0.5$ degree bin}{figure.8}{}}
\@writefile{lof}{\defcounter {refsection}{0}\relax }\@writefile{lof}{\contentsline {figure}{\numberline {9}{\ignorespaces Normalised muon flux as a function of angle for the randomised-$\phi $ case with $1\times {}1$ degree bins}}{11}{figure.9}}
\newlabel{fig:NormalisedMuonFlux_perSec_OneDeg_RandomPhi}{{9}{11}{Normalised muon flux as a function of angle for the randomised-$\phi $ case with $1\times {}1$ degree bins}{figure.9}{}}
\@writefile{lof}{\defcounter {refsection}{0}\relax }\@writefile{lof}{\contentsline {figure}{\numberline {10}{\ignorespaces Normalised muon flux as a function of angle for the randomised-$\phi $ case with half-degree bins}}{11}{figure.10}}
\newlabel{fig:NormalisedMuonFlux_perDay_halfDeg_RandomPhi}{{10}{11}{Normalised muon flux as a function of angle for the randomised-$\phi $ case with half-degree bins}{figure.10}{}}
\@writefile{toc}{\defcounter {refsection}{0}\relax }\@writefile{toc}{\contentsline {subsubsection}{\numberline {5.2.1}Comparison with other sources}{12}{subsubsection.5.2.1}}
\@writefile{lot}{\defcounter {refsection}{0}\relax }\@writefile{lot}{\contentsline {table}{\numberline {2}{\ignorespaces Comparison of muon flux values across two methodologies}}{12}{table.2}}
\newlabel{tab:FluxComparisons}{{2}{12}{Comparison of muon flux values across two methodologies}{table.2}{}}
\@writefile{lof}{\defcounter {refsection}{0}\relax }\@writefile{lof}{\contentsline {figure}{\numberline {11}{\ignorespaces Ratio of fluxes obtained from this and a previous study}}{13}{figure.11}}
\newlabel{fig:AlejandraFluxRatioComparison}{{11}{13}{Ratio of fluxes obtained from this and a previous study}{figure.11}{}}
\newlabel{sec:LowDensityResults}{{5.3}{13}{Low-density region}{subsection.5.3}{}}
\@writefile{toc}{\defcounter {refsection}{0}\relax }\@writefile{toc}{\contentsline {subsection}{\numberline {5.3}Low-density region}{13}{subsection.5.3}}
\@writefile{lof}{\defcounter {refsection}{0}\relax }\@writefile{lof}{\contentsline {figure}{\numberline {12}{\ignorespaces Normalised flux in $1\times {}1$ degree bins for the low-density region scenario}}{14}{figure.12}}
\newlabel{fig:AngleFluxPerSecond_lowDensity}{{12}{14}{Normalised flux in $1\times {}1$ degree bins for the low-density region scenario}{figure.12}{}}
\@writefile{lof}{\defcounter {refsection}{0}\relax }\@writefile{lof}{\contentsline {figure}{\numberline {13}{\ignorespaces Number of muons expected after 100 days}}{14}{figure.13}}
\newlabel{fig:NumberOfMuons100Days_lowDensity}{{13}{14}{Number of muons expected after 100 days}{figure.13}{}}
\newlabel{sec:MUSIC}{{6}{15}{Conclusions}{section.6}{}}
\@writefile{toc}{\defcounter {refsection}{0}\relax }\@writefile{toc}{\contentsline {section}{\numberline {6}Conclusions}{15}{section.6}}
\newlabel{sec:Acknowledgements}{{7}{15}{Acknowledgements}{section.7}{}}
\@writefile{toc}{\defcounter {refsection}{0}\relax }\@writefile{toc}{\contentsline {section}{\numberline {7}Acknowledgements}{15}{section.7}}
\@setckpt{Content/content}{
\setcounter{page}{16}
\setcounter{equation}{0}
\setcounter{enumi}{0}
\setcounter{enumii}{0}
\setcounter{enumiii}{0}
\setcounter{enumiv}{0}
\setcounter{footnote}{0}
\setcounter{mpfootnote}{0}
\setcounter{part}{0}
\setcounter{section}{7}
\setcounter{subsection}{0}
\setcounter{subsubsection}{0}
\setcounter{paragraph}{0}
\setcounter{subparagraph}{0}
\setcounter{figure}{13}
\setcounter{table}{2}
\setcounter{Item}{0}
\setcounter{Hfootnote}{0}
\setcounter{bookmark@seq@number}{11}
\setcounter{pp@next@reset}{0}
\setcounter{Maxaffil}{0}
\setcounter{authors}{3}
\setcounter{affil}{1}
\setcounter{tabx@nest}{0}
\setcounter{listtotal}{0}
\setcounter{listcount}{0}
\setcounter{liststart}{0}
\setcounter{liststop}{0}
\setcounter{citecount}{0}
\setcounter{citetotal}{0}
\setcounter{multicitecount}{0}
\setcounter{multicitetotal}{0}
\setcounter{instcount}{14}
\setcounter{maxnames}{3}
\setcounter{minnames}{1}
\setcounter{maxitems}{3}
\setcounter{minitems}{1}
\setcounter{citecounter}{0}
\setcounter{savedcitecounter}{0}
\setcounter{uniquelist}{0}
\setcounter{uniquename}{0}
\setcounter{refsection}{0}
\setcounter{refsegment}{0}
\setcounter{maxextratitle}{0}
\setcounter{maxextratitleyear}{0}
\setcounter{maxextrayear}{0}
\setcounter{maxextraalpha}{0}
\setcounter{abbrvpenalty}{50}
\setcounter{highnamepenalty}{50}
\setcounter{lownamepenalty}{25}
\setcounter{maxparens}{3}
\setcounter{parenlevel}{0}
\setcounter{mincomprange}{10}
\setcounter{maxcomprange}{100000}
\setcounter{mincompwidth}{1}
\setcounter{afterword}{0}
\setcounter{savedafterword}{0}
\setcounter{annotator}{0}
\setcounter{savedannotator}{0}
\setcounter{author}{0}
\setcounter{savedauthor}{0}
\setcounter{bookauthor}{0}
\setcounter{savedbookauthor}{0}
\setcounter{commentator}{0}
\setcounter{savedcommentator}{0}
\setcounter{editor}{0}
\setcounter{savededitor}{0}
\setcounter{editora}{0}
\setcounter{savededitora}{0}
\setcounter{editorb}{0}
\setcounter{savededitorb}{0}
\setcounter{editorc}{0}
\setcounter{savededitorc}{0}
\setcounter{foreword}{0}
\setcounter{savedforeword}{0}
\setcounter{holder}{0}
\setcounter{savedholder}{0}
\setcounter{introduction}{0}
\setcounter{savedintroduction}{0}
\setcounter{namea}{0}
\setcounter{savednamea}{0}
\setcounter{nameb}{0}
\setcounter{savednameb}{0}
\setcounter{namec}{0}
\setcounter{savednamec}{0}
\setcounter{translator}{0}
\setcounter{savedtranslator}{0}
\setcounter{shortauthor}{0}
\setcounter{savedshortauthor}{0}
\setcounter{shorteditor}{0}
\setcounter{savedshorteditor}{0}
\setcounter{labelname}{0}
\setcounter{savedlabelname}{0}
\setcounter{institution}{0}
\setcounter{savedinstitution}{0}
\setcounter{lista}{0}
\setcounter{savedlista}{0}
\setcounter{listb}{0}
\setcounter{savedlistb}{0}
\setcounter{listc}{0}
\setcounter{savedlistc}{0}
\setcounter{listd}{0}
\setcounter{savedlistd}{0}
\setcounter{liste}{0}
\setcounter{savedliste}{0}
\setcounter{listf}{0}
\setcounter{savedlistf}{0}
\setcounter{location}{0}
\setcounter{savedlocation}{0}
\setcounter{organization}{0}
\setcounter{savedorganization}{0}
\setcounter{origlocation}{0}
\setcounter{savedoriglocation}{0}
\setcounter{origpublisher}{0}
\setcounter{savedorigpublisher}{0}
\setcounter{publisher}{0}
\setcounter{savedpublisher}{0}
\setcounter{language}{0}
\setcounter{savedlanguage}{0}
\setcounter{pageref}{0}
\setcounter{savedpageref}{0}
\setcounter{textcitecount}{0}
\setcounter{textcitetotal}{0}
\setcounter{textcitemaxnames}{0}
\setcounter{biburlnumpenalty}{0}
\setcounter{biburlucpenalty}{0}
\setcounter{biburllcpenalty}{0}
\setcounter{smartand}{1}
\setcounter{bbx:relatedcount}{0}
\setcounter{bbx:relatedtotal}{0}
\setcounter{LT@tables}{0}
\setcounter{LT@chunks}{0}
\setcounter{float@type}{4}
\setcounter{section@level}{1}
}
