0.000000000000000000e+00 0.000000000000000000e+00 0.000000000000000000e+00 0.000000000000000000e+00 0.000000000000000000e+00 0.000000000000000000e+00 0.000000000000000000e+00 0.000000000000000000e+00 0.000000000000000000e+00 0.000000000000000000e+00 0.000000000000000000e+00 0.000000000000000000e+00 0.000000000000000000e+00 3.553330263581288815e+09 3.330250832263131142e+09 0.000000000000000000e+00 5.392700128569674492e+09 9.111497288083353043e+09 5.200760963519742966e+09 5.766544412647034645e+09 5.844862236007898331e+09 9.612784337928621292e+09 6.218713679590087891e+09 4.207426204815370560e+09 4.765498867238247871e+09 5.072874308452252388e+09 3.758772254744991779e+09 9.653131727411195755e+09 7.234296599560932159e+09 6.622255589711956024e+09 5.013196255922361374e+09
0.000000000000000000e+00 0.000000000000000000e+00 0.000000000000000000e+00 0.000000000000000000e+00 0.000000000000000000e+00 0.000000000000000000e+00 0.000000000000000000e+00 0.000000000000000000e+00 0.000000000000000000e+00 0.000000000000000000e+00 0.000000000000000000e+00 2.977139010069450378e+09 6.237691548229598999e+09 5.719036974499649048e+09 4.835974289438057899e+09 4.196119213831914425e+09 2.821428576086734772e+09 1.362190026012194157e+09 7.211126051996438503e+08 5.702951053716470003e+08 6.559978496547367573e+08 6.579415206660904884e+08 5.885698768732823133e+08 5.598696378262844086e+08 5.840997888800765276e+08 8.122945829370454550e+08 1.128768284866191387e+09 2.108684060890269518e+09 2.378921844721177578e+09 2.379703577120617867e+09 1.627037409615995884e+09
0.000000000000000000e+00 0.000000000000000000e+00 0.000000000000000000e+00 0.000000000000000000e+00 0.000000000000000000e+00 0.000000000000000000e+00 0.000000000000000000e+00 4.985861833723200798e+09 8.811531900582881927e+09 6.647479407989186287e+09 4.937794987099428177e+09 3.719519359917294979e+09 1.518359106482218504e+09 7.354125211000436544e+08 5.051200001951857209e+08 3.638656408223578930e+08 2.863793295322868228e+08 2.119556346166890860e+08 1.593901291479274631e+08 1.298507002457617372e+08 1.138248896779594123e+08 1.070398536317500323e+08 1.064435608122965246e+08 1.258883521022912860e+08 1.258777670226561129e+08 1.381670444792069495e+08 1.687826231442925036e+08 2.505664767662834227e+08 4.384269417732142210e+08 8.815148469458264112e+08 6.088079119424320459e+08
0.000000000000000000e+00 0.000000000000000000e+00 0.000000000000000000e+00 0.000000000000000000e+00 0.000000000000000000e+00 4.626180842060084343e+09 7.365416303080275536e+09 4.276825954354955196e+09 2.491821165253100395e+09 1.433886987357503891e+09 8.245425840587834120e+08 4.628157548855547309e+08 2.891950080167407990e+08 1.863887306558682919e+08 1.234285163405672461e+08 8.405910599744904041e+07 6.674189274138695002e+07 5.721234349159279466e+07 5.161868383632557839e+07 4.706945436731746048e+07 4.561496266497673839e+07 4.528901633168102056e+07 4.597946179038258642e+07 4.815944694425240159e+07 5.030087930601196736e+07 5.366548661745090038e+07 6.700825748687588423e+07 9.155937646253167093e+07 1.516000929753029346e+08 2.441863756276797950e+08 1.503383652335133255e+08
0.000000000000000000e+00 0.000000000000000000e+00 0.000000000000000000e+00 0.000000000000000000e+00 4.250320954818937302e+09 5.485301461956233025e+09 2.742850980768482208e+09 1.172035903466828108e+09 5.560605830948513746e+08 2.766198365022485852e+08 1.684327106295529902e+08 1.194638010240164995e+08 8.313326514428181946e+07 6.294460367046852410e+07 5.267788398359562457e+07 4.563953917790692300e+07 3.768178663906548172e+07 3.240215738353656232e+07 2.966831241942690685e+07 2.933398233464411274e+07 2.887776107311752439e+07 2.875238729132393003e+07 3.183101015536588803e+07 3.466585066592036188e+07 3.612854478684525937e+07 3.429669453063929826e+07 3.487132436385983974e+07 3.918627202058825642e+07 4.745049380381403118e+07 6.291674283007001877e+07 3.827382949753510207e+07
0.000000000000000000e+00 0.000000000000000000e+00 1.771395557874832392e+09 6.504716444966878891e+09 3.482522257472172260e+09 1.653308751811544418e+09 7.736188191429746151e+08 4.649114110664697886e+08 2.734184510816307664e+08 1.504644414147737026e+08 9.064560907502253354e+07 6.202742117266564071e+07 5.244533043676110357e+07 4.772351982846132666e+07 4.307094397981401533e+07 3.559705167532778531e+07 3.420889474429537356e+07 3.166797906504900381e+07 2.822008803435494751e+07 2.552339414589048550e+07 2.387214512817859277e+07 2.226589870424081385e+07 2.287516458918274939e+07 2.233513346389330551e+07 2.313479493787958845e+07 2.432909454188501090e+07 2.447102579917262495e+07 2.609804265100618452e+07 2.832394017383374274e+07 3.418812431639958918e+07 2.038271324169309810e+07
0.000000000000000000e+00 5.217449802314571381e+09 3.573497441211791992e+09 1.949461428048233747e+09 7.792813271700859070e+08 3.536373726637884378e+08 1.939004140623522699e+08 1.225788224099417478e+08 8.503516410140697658e+07 6.376260442901795357e+07 4.929175639297869802e+07 3.924752837938151509e+07 3.463847378369730711e+07 2.990550136467873305e+07 2.678690281076543778e+07 2.461834090241512656e+07 2.353405994823997095e+07 2.272170977304840833e+07 2.253239087628767267e+07 2.151006883377966285e+07 2.124846454007392749e+07 2.000584414497159421e+07 1.911088208755715936e+07 1.820215138310560584e+07 1.671169534133466892e+07 1.676332776772397012e+07 1.827099461829132959e+07 1.947575123404151574e+07 2.006780305663873628e+07 2.280087949351198226e+07 1.260175420074688829e+07
2.321807073838730812e+09 1.524455721854504347e+09 8.049214683488968611e+08 4.729662164175378084e+08 2.596436926270464659e+08 1.533367984585046768e+08 8.462369790555781126e+07 5.336743725740119815e+07 4.279461078336164355e+07 3.523476594700179994e+07 2.949982930710009113e+07 2.535355571252047271e+07 2.201873285445228964e+07 2.214541503694564849e+07 2.116277216192964837e+07 1.937895007871247083e+07 1.807446598330795020e+07 1.736573052989923581e+07 1.594141193754155934e+07 1.539359709432704188e+07 1.555794154729142599e+07 1.522240495582254231e+07 1.514365657211043686e+07 1.520528574197207391e+07 1.534908713831588440e+07 1.579761054119772837e+07 1.539359709432704560e+07 1.629064390009078011e+07 1.756773725333454460e+07 1.904341348724360764e+07 1.024071372534075752e+07
8.740255519172536135e+08 4.231387867079610229e+08 2.026300814340919554e+08 1.185821529373036176e+08 7.749334155552871525e+07 5.366312551908770949e+07 4.355529835967089981e+07 3.457851219011809677e+07 2.762192875246077031e+07 2.363943803815061972e+07 2.129218730918599665e+07 1.893471633031292632e+07 1.679527734948590025e+07 1.568467685943876952e+07 1.423680812241409905e+07 1.342940837964976579e+07 1.321478313157318346e+07 1.336468013022986054e+07 1.303422538319129683e+07 1.281619338514522836e+07 1.182823589399899356e+07 1.156250939638033696e+07 1.190318439332730509e+07 1.330335863077938743e+07 1.295246338392400742e+07 1.234946863932788000e+07 1.151822164677723683e+07 1.169196589522019774e+07 1.300356463346605934e+07 1.409713137366585433e+07 7.685627931123761460e+06
3.586100157734544873e+08 1.919732412017451525e+08 9.973521051782938838e+07 5.085943027086404711e+07 3.247082500658675656e+07 2.417001259888786823e+07 2.098260914168321714e+07 1.991788075278722122e+07 1.867343706258072332e+07 1.610656002310849912e+07 1.514355727646371350e+07 1.437044239535451308e+07 1.387876845780698583e+07 1.280725835942755081e+07 1.240374664516441151e+07 1.122372919505034201e+07 1.123051090453377366e+07 1.040992405704066157e+07 1.017934593460457586e+07 9.562210371613899246e+06 1.005388430916141346e+07 1.020647277253822610e+07 1.034888867168993875e+07 9.541865243163654581e+06 1.025055388418041542e+07 1.050825884455017000e+07 1.065745645318527892e+07 1.005388430916142650e+07 9.596118919030973688e+06 9.738534818182663992e+06 5.299905961288111284e+06
5.971700122295813262e+07 2.837300306861935928e+07 1.578341139288381301e+07 1.184684290430574119e+07 8.592252833131393418e+06 7.987925423649840057e+06 6.860297743388194591e+06 7.083122374817145988e+06 6.833288697154384106e+06 7.528771637675046921e+06 8.642894794819781557e+06 9.642229505470834672e+06 1.076985718573249318e+07 1.126952454105801135e+07 1.101969086339524202e+07 9.625348851574707776e+06 9.652357897808507085e+06 9.952833537159662694e+06 9.621972720795474946e+06 8.534858609884543344e+06 8.001429946766751818e+06 7.603046514818021096e+06 7.825871146246970631e+06 7.829247277026190422e+06 7.974420900532942265e+06 7.930531200403000228e+06 7.819118884688522667e+06 7.903522154169191606e+06 8.099337739364325069e+06 8.794820679884981364e+06 4.601666252085676417e+06
8.513986658296413720e+06 6.025696718667917885e+06 4.966492217339594848e+06 4.230092897368456237e+06 3.661821276020868681e+06 3.402904620140604675e+06 3.006123251389036886e+06 2.848083214682899881e+06 2.622792098527346272e+06 2.679955516059351154e+06 2.911971740159844048e+06 2.874983646462666336e+06 4.122491170249388553e+06 5.672628551558478735e+06 8.002878454480843619e+06 8.709014788699734956e+06 8.645126263222780079e+06 8.201269138856619596e+06 7.548933668197262101e+06 8.053316764067897573e+06 7.848200971747172065e+06 7.791037554215157405e+06 7.666623057233748958e+06 7.286654458344529383e+06 7.411068955325953662e+06 7.454782156968086958e+06 7.508583020527609624e+06 7.226128486840046011e+06 7.290017012316991575e+06 7.458144710940544493e+06 3.769423003139938693e+06
4.294831162037868984e+06 3.189297399578823708e+06 3.015092079433760606e+06 2.616429904486409388e+06 2.348421719647853635e+06 2.083763637119778898e+06 1.872707191559415078e+06 1.902858112353753066e+06 1.748753406071582809e+06 1.621449518273268361e+06 1.544397165132182883e+06 1.621449518273268593e+06 1.507546039716881933e+06 1.370191844987122342e+06 1.534346858200737508e+06 2.495826221309057903e+06 4.458986175251490436e+06 5.916280680311185308e+06 7.192669660604827106e+06 6.737055746379274875e+06 6.492498277714092284e+06 6.576250835476138629e+06 6.907910964213862084e+06 6.609751858580964617e+06 6.502548584645538591e+06 6.003383340383709408e+06 6.247940809048899449e+06 6.351793980673846789e+06 6.288142036774687469e+06 6.824158406451802701e+06 3.591309676836655941e+06
3.068316572293760721e+06 2.898040026932523586e+06 2.340467809769237880e+06 2.330451542395046912e+06 1.869703243182275444e+06 1.605941535661919042e+06 1.459036280840454157e+06 1.385583653429724043e+06 1.201952084902893985e+06 1.081756876412607031e+06 1.131838213283560472e+06 1.011643004793271655e+06 9.448678889653329970e+05 9.014640636771726422e+05 9.014640636771729914e+05 8.213339246836461825e+05 7.044774719847530359e+05 1.425648722926485818e+06 2.343806565560632851e+06 4.156750960289155133e+06 5.725966182245682925e+06 6.193391993041262031e+06 6.243473329912211746e+06 5.786063786490834318e+06 5.779386274908046238e+06 6.003082912931625731e+06 5.675884845374737866e+06 5.993066645557443611e+06 6.036470470845606178e+06 6.407072363690663129e+06 3.492338557801170740e+06
2.552956694442050532e+06 2.063667732143513393e+06 1.987112316273672273e+06 1.377997485657116864e+06 1.278142595392108429e+06 1.141674245363263180e+06 1.005205895334416651e+06 8.787230343320730608e+05 7.722111513827311574e+05 5.991293415900507243e+05 4.693179842455401667e+05 4.094050500865348149e+05 3.861055756913662772e+05 3.162071525058601401e+05 2.463087293203541776e+05 2.063667732143508911e+05 2.263377512673525489e+05 1.997097805300169275e+05 2.829221890841906425e+05 4.626609915612064069e+05 1.048476347782586701e+06 2.569599176152884495e+06 3.824442297149816994e+06 4.140649449655678123e+06 4.330373741159198806e+06 4.546726003400046378e+06 4.706493827824067324e+06 4.912860601038418710e+06 5.069299929120264947e+06 4.889561126643245108e+06 2.686096548128724564e+06
2.194062420690466650e+06 1.649695950201455737e+06 1.347638945234991377e+06 1.221505250853392296e+06 1.184992865637666546e+06 9.758764775839612121e+05 9.061710148993926123e+05 5.476857782358982367e+05 5.144927007670556777e+05 4.016362373729920946e+05 3.949976218792235595e+05 4.049555451198759256e+05 2.555866965100855450e+05 2.257129267881275155e+05 5.642823169703184249e+04 1.991584648130535788e+04 1.327723098753690465e+04 2.323515422818958541e+04 2.987376972195804046e+04 4.647030845637915627e+04 1.991584648130535788e+04 8.298269367210564087e+04 7.501635507958350936e+05 2.124356958005897235e+06 3.501869672962860204e+06 3.870312832867020741e+06 3.949976218792238738e+06 4.205562915302324109e+06 4.577325382953357883e+06 4.786441771007073112e+06 2.369985731275334954e+06
1.036397957534820074e+06 9.205068121235782746e+05 7.350809794655921869e+05 5.529663223907842766e+05 4.039634211477588979e+05 4.436975281458991230e+05 3.244952071514784475e+05 3.145616804019433912e+05 2.251599396561279136e+05 1.721811303252742800e+05 1.688699547420959279e+05 1.291358477439557173e+05 5.960116049721032323e+04 1.986705349907010532e+04 2.980058024860516161e+04 2.317822908224845742e+04 2.648940466542680952e+04 1.655587791589175322e+04 1.655587791589175322e+04 9.933526749535052659e+03 2.317822908224845742e+04 1.986705349907010532e+04 6.622351166356701469e+03 6.291233608038867533e+04 5.231657421421795734e+05 1.741678356751809362e+06 2.933701566696005873e+06 3.466800835587715264e+06 3.496601415836321656e+06 3.728383706658807583e+06 2.046306510404216591e+06
6.839460434054980287e+05 5.517825567570922431e+05 3.832741112803755095e+05 3.997945471114263637e+05 3.733618497817451716e+05 3.204964551223833696e+05 1.189471379835649859e+05 7.268991765662301623e+04 5.286539465936218039e+04 1.982452299726082492e+04 3.634495882831151539e+04 1.652043583105068683e+04 1.321634866484055055e+04 2.312861016347096302e+04 3.634495882831151539e+04 2.643269732968110111e+04 1.982452299726082492e+04 1.652043583105068683e+04 2.643269732968110111e+04 1.652043583105068683e+04 9.912261498630412461e+03 1.652043583105068683e+04 2.643269732968110111e+04 2.312861016347096302e+04 1.652043583105068683e+04 6.608174332420271821e+04 5.815193412529836642e+05 1.698300803432016168e+06 2.686222866128853522e+06 3.297478991877732798e+06 1.569441403949819971e+06
1.616035434927832684e+05 6.266259849720173224e+04 3.957637799823266687e+04 1.978818899911632980e+04 0.000000000000000000e+00 0.000000000000000000e+00 9.894094499558166717e+03 3.298031499852721936e+03 6.596062999705443872e+03 1.319212599941088774e+04 3.298031499852721936e+03 0.000000000000000000e+00 3.298031499852721936e+03 6.596062999705443872e+03 6.596062999705443872e+03 9.894094499558166717e+03 9.894094499558166717e+03 1.319212599941088774e+04 3.298031499852721936e+03 1.319212599941088774e+04 6.596062999705443872e+03 6.596062999705443872e+03 3.298031499852721936e+03 0.000000000000000000e+00 6.596062999705443872e+03 3.298031499852721936e+03 6.596062999705443872e+03 2.308622049896905082e+04 4.254460634810007177e+05 9.564291349572918843e+05 6.563082684706929140e+05
